NO,大分類,中分類,小分類,問題,回答
1,2,1,1,"外側面の一部を除去した顎骨の写真を別に示す。矢印で示すのはどれか。",下顎管
2,1,1,4,"骨改造〈リモデリング〉で、脱灰して骨基質を吸収するのはどれか。",破骨細胞
3,2,1,1,"口腔周囲の写真を別に示す。矢印で示す部位に存在する筋の運動を司るのはどれか。",顔面神経
4,3,1,9,"乳歯の頬側面と咬合面を図に示す。矢印で示す部位の名称はどれか。",臼歯結節
5,1,2,1,"体重65kgの成人男性の血液量はどれか。",5L
6,1,2,3,"体重65kgの成人男性の血液量はどれか。",5L
7,1,2,12,"（　）に入る語句の組合せで正しいのはどれか。　　体温は（①）が（②）よりも高い。",①小児 ②成人
8,4,1,5,"ペリクルで正しいのはどれか。",細菌や有機物質を吸着しやすい。
9,2,2,2,"ヒドロキシアパタイトのCaとPのモル比はどれか。",10:06
10,2,1,2,"歯の異常と好発部位の組合せで正しいのはどれか。",欠如歯 ------------上顎側切歯
11,3,1,10,"平滑面う蝕におけるエナメル質う蝕を黒塗りで、象牙質う蝕を斜線で示す。正しいう蝕円錐の形態はどれか。",①
12,3,2,1,"球菌はどれか。",Streptococcus mutans
13,3,2,4,"免疫グロブリンの図を示す。この免疫グロブリンの特徴はどれか。",抗原感作後に最も早く出現する。
14,3,2,6,"プリオンの本体はどれか。",タンパク質
15,3,3,11,"全身性止血薬はどれか。",アスコルビン酸
16,3,3,2,"歯質変色の副作用がある薬物はどれか。",テトラサイクリン
17,4,2,3,"知覚過敏に有効な歯磨剤の薬用成分はどれか。2つ選べ。",硝酸カリウム
18,3,2,7,"菌体外多糖類を合成するStreptococcus mutansの酵素はどれか。",グルコシルトランスフェラーゼ
19,4,3,3,"食品として摂取されたフッ化物の体内での動態はどれか。2つ選べ。",骨に沈着
20,4,4,1,"平成23年歯科疾患実態調査における年齢と歯肉の所見を表に示す。正しいのはどれか。2つ選べ。",②
21,4,6,1,"OHI-S〈Greene&Vermillion〉とP?I〈Silness&L?e〉で、評価する歯種が同じなのはどれか。2つ選べ。",16
22,4,6,1,"ある中学校1年生（30名）の学校歯科健康診断の結果を表に示す。DMFT指数はどれか。",1.2
23,4,9,2,"健康増進法に基づく市町村の健康増進事業はどれか。2つ選べ。",歯周疾患検診
24,4,7,5,"職業性歯科疾患で、原因物質と疾病・症状を表に示す。正しいのはどれか。2つ選べ。",②
25,4,8,2,"我が国における最近10年間の死因別粗死亡率で減少傾向を示しているのはどれか。",脳血管疾患
26,4,8,3,"（　）に入る語句はどれか。　　大気汚染物質であるPM2.5は粒子の（　）によって規定される。",外径
27,4,8,5,"新興感染症はどれか。2つ選べ。",エボラ出血熱
28,4,8,5,"新興感染症はどれか。2つ選べ。",エボラ出血熱
29,8,5,1,"身長160cmの女性。肥満の基準値〈BMI25.0〉に最も近い体重はどれか。",64kg
30,4,9,2,"法令を優先順位の高い順に左から示す。正しいのはどれか。",憲法　法律　命令〈政令・省令〉　条例　
31,4,9,2,"医療法における医療提供の理念で（　）に入る語句はどれか。　　　医療の担い手は医療を提供するにあたり適切な説明を行い、医療を受ける者の（　）を得るように努めなければならない。",理解
32,4,9,4,"国民健康保険法で定める保険者はどれか。2つ選べ。",市町村
33,8,5,1,"食事バランスガイドにおける主菜はどれか。",肉・魚類
34,8,5,1,"日本人の食事摂取基準において、最も値が小さいのはどれか。",推定平均必要量
35,4,9,2,"歯科衛生士の義務として正しいのはどれか。2つ選べ。",秘密保持
36,6,1,3,"エックス線撮影において、デジタル撮影システムがエックス線写真撮影よりも優れているのはどれか。2つ選べ。",被曝線量
37,6,1,4,"血液凝固因子の検査はどれか。",PT
38,9,1,7,"HBe抗原陽性患者の印象採得物の消毒に有効なのはどれか。",グルタールアルデヒド
39,9,2,6,"インプラント体に用いられる材料はどれか。2つ選べ。",チタン合金
40,9,3,3,"歯科用治療器具の写真を別に示す。これを使用する窩洞はどれか。",2級
41,9,3,3,"歯科治療用器材の写真を別に示す。これを使用するのはどれか。2つ選べ。",コンポジットレジン修復
42,6,2,1,"セラミックインレーがメタルインレーに比較して優れているのはどれか。",審美性
43,6,2,2,"16歳の男子。上顎左側第一大臼歯の痛みを訴えて来院した。1年前からう蝕に気づいていたが放置していたところ、1週前から咀嚼時に疼痛を感じるようになったという。初診時の口腔内写真とエックス線写真を別に示す。疑われるのはどれか。",慢性増殖性歯髄炎
44,6,2,2,"根尖性歯周炎の図を示す。矢印は感染経路を示す。コロナルリーケージはどれか。",③
45,6,2,3,"34歳の男性。歯肉の疼痛を訴えて来院した。3日前から歯肉に強い自発痛と接触痛を感じているという。現症として38.2℃の発熱と強い口臭を示した。初診時の口腔内写真を別に示す。疑われるのはどれか。",壊死性潰瘍性歯周炎
46,6,2,3,"55歳の女性。下顎左側前歯部歯肉の腫脹を訴えて来院した。2か月前から気づいていたが放置していたという。慢性歯周炎と診断され歯周基本治療を行った。初診時の検査でCEJから歯肉辺縁までの距離はいずれの部位も0mm、再評価時は2mmであった。初診時の口腔内写真と歯周組織検査結果の一部、再評価時の口腔内写真と歯周組織検査結果の一部を別に示す。改善したのはどれか。2つ選べ。",歯肉の炎症
47,6,3,1,"咬合器の顆路角を決定できるのはどれか。",チェックバイト法
48,9,4,3,"固定性補綴装置の咬合採得に用いられるのはどれか。2つ選べ。",ワックス
49,6,3,1,"固定性補綴装置の咬合採得に用いられるのはどれか。2つ選べ。",ワックス
50,6,3,2,"72歳の男性。上顎義歯補修のため鉤脚をろう着した支台装置を製作した。支台装置の写真と第二小臼歯部に支台装置を追補し、上顎に装着された部分床義歯の頬側面観写真を別に示す。追補された支台装置の種類はどれか。2つ選べ。",レスト付二腕鉤
51,6,3,4,"CAD/CAM装置を用いて加工できる材料はどれか。2つ選べ。",コンポジットレジンブロック
52,6,3,1,"CAD/CAM装置を用いて加工できる材料はどれか。2つ選べ。",コンポジットレジンブロック
53,6,4,1,"TNM分類でNが示すのはどれか。",所属リンパ節転移の有無と広がり
54,6,4,1,"60歳の女性。左側顎下部の違和感を訴えて来院した。食事時に左側顎下部に痛みを自覚するという。診断の結果、外科的処置を行うことになった。初診時のエックス線写真と術中の口腔内写真を別に示す。摘出しているのはどれか。",唾石
55,6,4,2,"23歳の女性。下顎右側水平埋伏智歯の抜歯を行った。術中は異常なく経過した。術直後に確認するのはどれか。2つ選べ。",止血状態
56,6,6,1,"乳歯列の図を示す。霊長空隙はどれか。2つ選べ。",①
57,6,5,1,"口腔内写真を別に示す。歯列弓形態を表すのはどれか。2つ選べ。",狭窄歯列弓
58,6,5,2,"矯正力による歯の傾斜移動を図に示す。矢印で示す歯の移動で歯槽骨吸収が生じる部位はどれか。2つ選べ。",①
59,9,6,1,"試適時に変形した矯正材料の写真を別に示す。形態の修正に用いるのはどれか。",バンドコンタリングプライヤー
60,6,6,2,"4歳の男児。下顎左側乳切歯の形の違いを気にして来院した。初診時の口腔内写真とエックス線写真を別に示す。歯の形態異常はどれか。",癒合歯〈融合歯〉
61,6,6,4,"水酸化カルシウム製剤を用いた乳歯の歯髄切断法の目的で正しいのはどれか。",象牙質橋の形成
62,6,6,3,"4歳の男児。う蝕の治療を希望して来院した。同年齢の小児が治療を受けている様子を見学させながら、これからの治療の流れを説明した。行った対応はどれか。",モデリング法
63,6,7,5,"摂食嚥下障害者に対する機能訓練の写真を別に示す。この訓練の目的はどれか。",食道入口部の開大
64,6,7,5,"口腔内装置の写真を別に示す。適応症はどれか。",軟口蓋挙上不全
65,6,7,4,"経鼻経管栄養について正しいのはどれか。",胃瘻よりも容易にチューブを留置できる。
66,4,8,11,"88歳の女性。要介護4で、60人が入所できる高齢者施設に半年前に住民票を移して生活している。この施設はどれか。",特別養護老人ホーム
67,7,1,3,"歯間部および歯肉の形態異常と関連する要因の組合せで正しいのはどれか。",クレフト-----------------不適切なブラッシング
68,7,2,4,"グレーシータイプキュレットの写真を別に示す。歯肉縁下での操作時に歯根面と平行になるのはどれか。",②
69,7,1,3,"パノラマエックス線写真を別に示す。観察できるのはどれか。2つ選べ。",ブリッジ
70,7,2,2,"パノラマエックス線写真を別に示す。観察できるのはどれか。2つ選べ。",ブリッジ
71,4,5,3,"う蝕の第二次予防はどれか。",フッ化ジアンミン銀塗布
72,7,1,1,"う蝕の第二次予防はどれか。",フッ化ジアンミン銀塗布
73,7,2,6,"歯周治療後のメインテナンスの意義で誤っているのはどれか。",歯周組織の病変の治療
74,6,2,3,"歯周病がリスクファクターとなる可能性が指摘されているのはどれか。2つ選べ。",誤嚥性肺炎
75,7,2,2,"上顎右側中切歯のプロービング時の写真を別に示す。正しい挿入操作はどれか。",③
76,7,2,2,"45歳の女性。咬合痛を訴えて来院した。歯周組織検査時の写真を別に示す。検査内容はどれか。",根分岐部病変の程度
77,7,2,4,"グレーシータイプキュレット#5の刃部を拡大した写真を別に示す。矢印に示す部位でシャープニングの対象とならないのはどれか。",④
78,7,2,4,"シックルスケーラーの執筆状変法把持法の写真を別に示す。正しいのはどれか。",③
79,7,2,4,"上顎のスケーリング時の頭部を設定した写真を別に示す。適したマキシラアングルはどれか。",①
80,7,2,5,"30歳の女性。歯面の色素沈着を訴えて来院した。妊娠高血圧症の治療を行っている。使用すべきでない器材はどれか。",炭酸水素ナトリウム歯面清掃器
81,4,3,3,"日本人1日当たりの食品からのフッ素摂取量はどれか。",1〜3mg
82,8,5,1,"日本人1日当たりの食品からのフッ素摂取量はどれか。",1〜3mg
83,7,3,2,"う蝕活動性試験の目的はどれか。2つ選べ。",リコール間隔の決定
84,7,3,3,"APF歯面塗布剤の取扱いで正しいのはどれか。",事前に必要量を分注しておく。
85,7,3,5,"フッ化物洗口に用いられるのはどれか。",フッ化ナトリウム
86,7,3,4,"12歳の女児。歯科予防処置を希望して来院した。永久歯は28本萌出している。これまで歯科予防処置の既往はない。今回、小窩裂溝?塞を行うことになった。処置の優先順位の高い歯はどれか。",第二大臼歯
87,8,1,1,"58歳の男性。2年前の脳梗塞で軽度の後遺症が残存している。歯科衛生士との会話を下に示す。　歯科衛生士：こんにちは。①<U>今日はどのようにして</U>　　　　　　<U>来られましたか。</U>患　　　者：妻の運転で車で来ました。歯科衛生士：歯磨きについてお聞きします。　　　　　　②<U>ご自宅ではどこで歯磨き</U>　　　　　　<U>されていますか。</U>患　　　者：風呂場の洗面所で歯磨きします。歯科衛生士：③<U>お口に汚れが残っていますが、</U>　　　　　　<U>磨きにくいですか。</U>患　　　者：そうなんです。この歯ブラシを使っている　　　　　　のですが…歯科衛生士：グリップが細いですね。　　　　　　④<U>こちらの柄の太いものを試しては</U>　　　　　　<U>いかがですか。</U>患　　　者：確かに力が入ります。　　　　　　ありがとうございました。　ノーマライゼーションの対応に該当するのはどれか。",④
88,6,7,5,"改訂水飲みテストで正しいのはどれか。2つ選べ。",3mLの冷水を用いる。
89,6,1,1,"JapanComaScale〈JCS〉のⅡ-20を表すのはどれか。",体をゆさぶると開眼する。
90,8,1,1,"35歳の男性。定期健康診査で来院した。①<U>冷たいものを食べると歯がしみる</U>といっており、口腔を観察すると、②<U>歯肉に退縮がみられた。</U>③<U>歯は朝食後と就寝前に磨いている</U>という。いつものように磨いてもらうと、④<U>歯ブラシを大きく横に動かしていた。</U>Oデータはどれか。2つ選べ。",②
91,8,3,2,"O'LearyのPCRで正しいのはどれか。2つ選べ。",歯頸部プラークの付着の有無を評価する。
92,8,3,3,"義歯の写真と口腔清掃用品の写真を別に示す。この義歯を清掃するための用具はどれか。2つ選べ。",③
93,8,2,1,"判定基準に歯石の沈着が含まれるのはどれか。",OHI
94,8,3,3,"乳幼児の口腔清掃と開始時期の組合せで適切なのはどれか。",歯ブラシに慣らす---------7〜8か月
95,6,6,1,"乳幼児の口腔清掃と開始時期の組合せで適切なのはどれか。",歯ブラシに慣らす---------7〜8か月
96,7,3,2,"RDテスト<SUP>?</SUP>の結果の写真を別に示す。結果の説明で正しいのはどれか。",むし歯の原因菌が多いと思われます。
97,8,2,1,"RDテスト<SUP>?</SUP>の結果の写真を別に示す。結果の説明で正しいのはどれか。",むし歯の原因菌が多いと思われます。
98,8,3,2,"82歳の男性。右片麻痺があり、義歯の清掃が難しいという。口腔清掃自立度〈改訂BDR指標〉の評価を表に示す。男性への指導内容で適切なのはどれか。2つ選べ。",うがいの練習
99,8,2,1,"1歳1か月の男児の母親へ摂食に関する指導を行うことになった。男児の現在の状態を以下に示す。指導で適切なのはどれか。2つ選べ。",一口量を覚えさせていく。
100,8,4,1,"1歳1か月の男児の母親へ摂食に関する指導を行うことになった。男児の現在の状態を以下に示す。指導で適切なのはどれか。2つ選べ。",一口量を覚えさせていく。
101,6,7,4,"73歳の男性。食事がうまく摂れないと相談を受け、歯科医師とともに訪問した。1年前に脳出血を発症し、現在、在宅療養中であるという。最近の栄養アセスメント結果を表に示す。低栄養を疑うのはどれか。2つ選べ。",①
102,8,4,1,"ビタミン欠乏と疾患の組合せで正しいのはどれか。2つ選べ。",ビタミンA---エナメル質形成不全
103,8,5,1,"ビタミン欠乏と疾患の組合せで正しいのはどれか。2つ選べ。",ビタミンA---エナメル質形成不全
104,8,5,2,"ビタミン欠乏と疾患の組合せで正しいのはどれか。2つ選べ。",ビタミンA---エナメル質形成不全
105,8,1,1,"特別支援学校における歯科衛生士の役割で適切なのはどれか。2つ選べ。",口腔機能育成のための摂食指導
106,9,4,2,"全部床義歯の印象採得で正しいのはどれか。2つ選べ。",既製トレーの修正は試適してから行う。
107,9,2,1,"石膏の硬化時間を短くするのはどれか。",練和速度を速くする。
108,9,4,2,"歯肉排除用綿糸に浸透させるのはどれか。2つ選べ。",血管収縮薬
109,9,1,6,"ノロウイルス感染者の吐物の処理の手順を示す。適切でないのはどれか。",③
110,9,5,1,"抜歯鉗子の写真を別に示す。適用部位で正しいのはどれか。",上顎左側大臼歯
111,9,8,1,"不顕性誤嚥で正しいのはどれか。",就寝時にもみられる。
112,9,10,1,"パノラマエックス線写真のトレースを示す。咬合平面が山型になった原因と考えられる患者の位置づけはどれか。",顔が上を向いていた。
113,6,1,3,"パノラマエックス線写真のトレースを示す。咬合平面が山型になった原因と考えられる患者の位置づけはどれか。",顔が上を向いていた。
114,6,1,4,"ABO式血液型の説明で正しいのはどれか。2つ選べ。",O型血清中には抗A抗体がある。
115,9,3,1,"器具の写真を別に示す。器具の用途で正しいのはどれか。2つ選べ。",①---軟化象牙質の除去
116,9,3,9,"58歳の男性。上顎左側臼歯部頬側の歯肉切除術を行うことになった。器具の写真を別に示す。ポケット底の位置を確認するための器具はどれか。",③
117,9,4,5,"リッジラップ型ポンティックのブリッジ装着後に、基底面のセメント除去に用いるのに適切なのはどれか。",スーパーフロス
118,9,9,1,"障害者の歯科治療時における行動調整で誤っているのはどれか。",協力度が向上しても抑制器具や開口器は外さない。
119,9,2,2,"主に嵌合力で合着する材料はどれか。",リン酸亜鉛セメント
120,9,2,2,"4-META/MMA-TBB系接着性レジンセメントについて正しいのはどれか。2つ選べ。",筆積み法で使用することができる。
121,9,6,1,"矯正用プライヤーの写真を別に示す。プライヤーと用途の組合せで正しいのはどれか。2つ選べ。",②---ワイヤーの屈曲
122,9,4,3,"咬合採得時の写真を別に示す。準備する器材はどれか。2つ選べ。",人工歯モールドガイド
123,9,7,1,"5歳の男児。外傷による歯の破折を主訴として来院した。上顎両側乳中切歯の抜歯を行うために浸潤麻酔を行うことになったが、号泣して体動がある。注射筒を受け渡す経路を図の①〜④に示す。適切なのはどれか。",①
124,1,1,7,"消化管で、胆汁が流入するのはどれか。",十二指腸
125,2,1,1,"口腔内写真を別に示す。矢印で示す部位に開口する唾液腺はどれか。",舌下腺
126,2,1,1,"オトガイ孔から出る神経が走行中に通過するのはどれか。",下顎孔
127,2,1,1,"下顎骨の写真を別に示す。内側翼突筋の付着部はどれか。",③
128,1,2,2,"細胞膜を構成するリン脂質二重層を容易に通過するのはどれか。",脂肪酸
129,8,5,1,"炭水化物はどれか。",グルコース
130,1,2,7,"シナプスの図を示す。A-B間を伝わるのはどれか。",神経伝達物質
131,3,1,4,"細胞死について（　）に入る語句の組合せで正しいのはどれか。　（①）は成長に伴う胸腺の消失に関与し、炎症反応を（②）。",①アポトーシス　②引き起こさない
132,3,1,8,"擦過により除去できない白色病変の写真を別に示す。白色病変の主体をなす病理組織所見はどれか。",上皮肥厚
133,3,1,17,"下顎骨に発生する嚢胞と歯の位置を図に示す。灰色部は嚢胞を示す。歯根嚢胞はどれか。",④
134,3,2,6,"レトロウイルスはどれか。",ヒトT細胞白血病ウイルス
135,3,2,11,"女性ホルモンによって発育促進がみられるのはどれか。",Prevotella intermedia
136,3,3,7,"局所麻酔薬に配合される血管収縮薬はどれか。",アドレナリン
137,3,3,2,"ある薬物を水または牛乳で服用後の血中薬物濃度-時間曲線を図に示す。服用した薬物はどれか。",テトラサイクリン系薬
138,3,3,3,"日本薬局方を公示するのはどれか。",厚生労働省
139,1,2,2,"唾液の緩衝作用と再石灰化の両方の機能に関わるのはどれか。",リン酸
140,2,2,1,"唾液の緩衝作用と再石灰化の両方の機能に関わるのはどれか。",リン酸
141,4,6,4,"平成23年歯科疾患実態調査の65〜69歳と70〜74歳の歯の状態を図に示す。③はどれか。",喪失歯
142,4,3,1,"う蝕の発生要因になる甘味料はどれか。",フルクトース
143,4,3,3,"フッ素イオン濃度が最も高いのはどれか。",フッ化物バーニッシュ
144,4,5,3,"口腔癌の第一次予防はどれか。2つ選べ。",禁煙指導
145,4,7,3,"3歳児歯科健康診査の受診者10名の結果を表に示す。う蝕罹患型A型の割合はどれか。",30%
146,4,7,4,"学校歯科健康診断の結果、GOと判定された者への対応はどれか。2つ選べ。",口腔衛生指導
147,4,7,2,"健康日本21（第二次）の基本的な方向で正しいのはどれか。2つ選べ。",健康寿命の延伸
148,4,8,3,"水道法の水質基準において検出されないことと規定されているのはどれか。",大腸菌
149,4,8,5,"予防接種において生ワクチンを用いるのはどれか。",麻疹
150,4,8,10,"学校保健において感染症により出席を停止させることができるのはどれか。",校長
151,4,8,12,"トータル・ヘルスプロモーション・プランが位置づけられているのはどれか。",産業保健
152,4,9,2,"国民が生涯にわたって日常生活において歯科疾患の予防に向けた取り組みを行うことを主な目的とする法律はどれか。",歯科口腔保健の推進に関する法律
153,8,5,1,"国民健康・栄養調査を規定しているのはどれか。",健康増進法
154,4,9,4,"障害者総合支援法で定められている自立支援医療で誤っているのはどれか。",養育医療
155,8,5,1,"不飽和脂肪酸はどれか。2つ選べ。",リノール酸
156,8,5,1,"日本人の食事摂取基準において、耐容上限量が設定されていないのはどれか。",ビタミンC
157,5,1,3,"傾聴の姿勢として正しいのはどれか。2つ選べ。",患者の話にうなづく
158,8,1,2,"傾聴の姿勢として正しいのはどれか。2つ選べ。",患者の話にうなづく
159,9,11,1,"成人のバイタルサインの異常値はどれか。",拡張期血圧---100mmHg
160,6,1,4,"尿検査でケトン体陽性になるのはどれか。",糖尿病
161,3,2,9,"低温プラズマ滅菌で正しいのはどれか。",器材は滅菌直後に使用できる。
162,6,2,1,"38歳の女性。上顎左側第一大臼歯の一過性の冷水痛を訴えて来院した。5年前にコンポジットレジン修復処置を受けたという。隣接面にう蝕はみられず自発痛と打診痛もない。診察の結果、再修復を行うことになった。初診時の口腔内写真を別に示す。コンポジットレジン修復時に必要なのはどれか。2つ選べ。",光照射器
163,9,2,4,"コンポジットレジンに含まれるフィラーにより向上するのはどれか。2つ選べ。",機械的強度
164,6,1,4,"48歳の女性。上顎左側臼歯部のブラッシング時の疼痛を訴えて来院した。う蝕は認められなかった。初診時の口腔内写真を別に示す。原因歯を特定するために行う検査として有効なのはどれか。",擦過診
165,6,2,2,"9歳の女児。下顎左側第一大臼歯の痛みを訴えて来院した。軟化象牙質を除去したところ点状の露髄を生じた。露髄部を水酸化カルシウム製剤で被覆し、グラスアイオノマーセメントで仮封した。この処置により形成が期待されるのはどれか。",象牙質橋
166,6,2,2,"下顎左側第二小臼歯の根管拡大中に根管をエアシリンジで乾燥させたところ、頬部の腫脹が生じ、触診すると捻髪音を発した。生じたのは何か。",皮下気腫
167,6,2,3,"10歳の男児。歯肉からの出血を訴えて来院した。3日前から38℃の発熱があるという。全顎的に歯肉の腫脹と出血がみられた。疑われる全身疾患はどれか。",白血病
168,6,2,3,"51歳の女性。下顎右側前歯の動揺を訴えて来院した。下顎右側側切歯遠心部に深い歯周ポケットを認めた。歯周基本治療後、同部に歯周外科処置を行うことになった。初診時のエックス線写真、不良肉芽組織除去後の口腔内写真及び縫合直前の口腔内写真を別に示す。この手術で再生するのはどれか。2つ選べ。",歯槽骨
169,7,2,5,"55歳の男性。下顎右側臼歯部の歯肉からの出血を訴えて来院した。1か月前から自覚していたが痛みがないためそのままにしていたという。歯周組織検査の結果、検査器具の先端が舌側まで貫通しているのが確認できた。歯周組織検査時の口腔内写真を別に示す。貫通部位の清掃に有効なのはどれか。2つ選べ。",歯間ブラシ
170,6,3,1,"62歳の男性。補綴治療前の口腔内写真を別に示す。矢印が示す所見の原因として考えられるのはどれか。2つ選べ。",ブラキシズム
171,6,3,1,"アルジネートによる印象採得において、印象材の保持に適するのはどれか。",網トレー
172,9,4,2,"アルジネートによる印象採得において、印象材の保持に適するのはどれか。",網トレー
173,6,3,1,"全部床義歯の仮想咬合平面と平行になるのはどれか。2つ選べ。",鼻聴道線
174,9,4,3,"全部床義歯の仮想咬合平面と平行になるのはどれか。2つ選べ。",鼻聴道線
175,6,4,1,"31歳の男性。「右上の歯が動いてきた」と訴えて来院した。3年前から上顎右側犬歯と第一小臼歯の歯間乳頭歯肉が徐々に腫大してきたという。口腔内写真を別に示す。考えられるのはどれか。",エプーリス
176,6,4,1,"64歳の女性。口を閉じることができないと訴えて来院した。食事中に突然咬めなくなったという。左側顎関節脱臼と診断され徒手整復を行うことになった。エックス線写真を別に示す。下顎頭を誘導する正しい方向はどれか。",②
177,9,8,1,"嚥下機能の賦活を目的とするのはどれか。2つ選べ。",舌負荷訓練
178,9,9,1,"嚥下機能の賦活を目的とするのはどれか。2つ選べ。",舌負荷訓練
179,6,7,5,"嚥下機能の賦活を目的とするのはどれか。2つ選べ。",舌負荷訓練
180,6,4,2,"嚥下機能の賦活を目的とするのはどれか。2つ選べ。",舌負荷訓練
181,8,6,3,"嚥下機能の賦活を目的とするのはどれか。2つ選べ。",舌負荷訓練
182,6,4,3,"局所麻酔の注射後に生じる偶発症はどれか。",キューンの貧血帯
183,6,5,1,"14歳の女子。歯並びが悪いことを訴えて来院した。初診時の口腔内写真を別に示す。上顎右側犬歯の位置異常はどれか。2つ選べ。",低位
184,6,5,2,"8歳の女児。前歯の咬み合わせの異常を訴えて来院した。初診時のエックス線写真を別に示す。この検査の目的はどれか。2つ選べ。",下顎骨の成長方向の判定
185,9,6,1,"矯正用器具の写真を別に示す。適切な用途はどれか。",補助弾線の屈曲
186,6,6,1,"生後8か月頃にみられるようになるのはどれか。",ハイハイ
187,6,6,1,"Hellmanの咬合発育段階IA期にみられるのはどれか。",顎間空隙
188,6,6,1,"手づかみ食べ機能を獲得する時期に萌出するのはどれか。",第一乳臼歯
189,9,1,6,"5歳の男児。上顎右側第二乳臼歯の多歯面う蝕に対し、既製乳歯冠修復を行うことにした。既製乳歯冠を試適していたところ、口腔内に落下させた。直ちに行うのはどれか。",顔を横に向かせる。
190,6,6,4,"5歳の男児。上顎右側第二乳臼歯の多歯面う蝕に対し、既製乳歯冠修復を行うことにした。既製乳歯冠を試適していたところ、口腔内に落下させた。直ちに行うのはどれか。",顔を横に向かせる。
191,6,7,5,"摂食嚥下機能検査の写真を別に示す。この検査について正しいのはどれか。2つ選べ。",口腔、咽頭および食道の機能が評価できる。
192,6,7,5,"嚥下反射の惹起が遅延している場合に有効な機能訓練はどれか。",冷圧刺激法
193,6,7,2,"加齢にともない減少あるいは低下するのはどれか。",咬合高径
194,6,1,1,"唾液分泌量の減少を主症状とする疾患はどれか。",シェーグレン症候群
195,7,1,3,"初診患者の口腔内写真を別に示す。観察できるのはどれか。2つ選べ。",歯肉の腫脹
196,7,1,3,"エックス線写真を別に示す。観察できるのはどれか。2つ選べ。",歯石沈着
197,7,2,2,"プロービング時の図を示す。プローブの目盛間隔は1mmである。アタッチメントレベルはどれか。",8mm
198,7,1,3,"歯肉炎の臨床所見で正しいのはどれか。",歯肉ポケット
199,7,1,2,"48歳の女性。乳癌の骨転移治療のため、ビスホスホネート系注射薬を長期間投与中であるという。歯周治療を行うことになった。避けることが望ましい処置はどれか。",歯肉?離?爬術
200,7,2,2,"器具の写真を別に示す。矢印で示す幅はどれか。",2mm
201,7,2,2,"歯の動揺方向を矢印で図に示す。垂直方向の動きは認められなかった。Millerの分類で正しいのはどれか。",2度
202,7,2,2,"（　）に入る数値で正しいのはどれか。Lindhe & Nymanの根分岐部病変の水平的分類において2度の基準は、骨の吸収が歯冠幅径の（　）を超えるが、貫通しないものである。",1月3日
203,7,2,4,"グレーシータイプキュレット刃部の断面と歯面の位置関係を図に示す。挿入時の角度で正しいのはどれか。",①
204,7,1,3,"口腔内の付着物・沈着物と構成物の組合せで正しいのはどれか。2つ選べ。",舌苔-------?離上皮
205,7,2,4,"シャープニングに用いる潤滑材の目的はどれか。2つ選べ。",砥石の目づまりを防止する。
206,9,11,2,"24歳の女性。スケーリング中に、顔面蒼白になり気分が悪いという。徐脈、血圧低下がみられ、吐き気を訴えるが、意識ははっきりしている。この患者への対応で適切なのはどれか。2つ選べ。",衣服をゆるめる。
207,7,1,1,"う蝕予防処置と作用機序の組合せで正しいのはどれか。",フッ化物歯面塗布---再石灰化の促進
208,7,3,2,"歯垢を検体とするう蝕活動性試験はどれか。",カリオスタット<SUP>?</SUP>
209,7,3,5,"フッ化物歯面塗布法で使用されるフッ素イオン濃度はどれか。","9,000ppm"
210,7,3,5,"フッ化物洗口法で正しいのはどれか。2つ選べ。",下を向いた姿勢で行う。
211,7,3,4,"11歳の男児。下顎右側第一小臼歯に小窩裂溝?塞を行うことになった。?塞領域を図に示す。正しいのはどれか。",②
212,8,1,1,"「人々が自らの健康をコントロールし、改善することができるようにするプロセス」で示される概念はどれか。",ヘルスプロモーション
213,6,7,2,"Barthel Indexの表を示す。①はどれか。",整容
214,8,4,1,"離乳期に摂食嚥下機能を獲得する段階の特徴的な動きを示す。　①口唇を随意に閉鎖する。　②左右対称に口角を引く。　③左右非対称に口角を引く。　④嚥下時に下唇が内転する。成長に伴い観察される順序はどれか。",④　→　①　→　②　→　③
215,8,2,1,"離乳期に摂食嚥下機能を獲得する段階の特徴的な動きを示す。　①口唇を随意に閉鎖する。　②左右対称に口角を引く。　③左右非対称に口角を引く。　④嚥下時に下唇が内転する。成長に伴い観察される順序はどれか。",④　→　①　→　②　→　③
216,8,3,3,"58歳の男性。4日前に脳梗塞で入院し、投薬による内科的治療を受けている。病室の口腔ケアの依頼を受けた。全身状態および口腔状態の概要は表のとおりである。口腔ケアを行うにあたり適切なのはどれか。2つ選べ。",口腔内を潤してからケアを行う
217,8,2,1,"（ア）はどれか。",1
218,4,6,1,"この患者のCI-Sはどれか。",1
219,4,5,2,"口臭の国際分類で病的口臭の原因に該当するのはどれか。2つ選べ。",糖尿病
220,6,6,4,"定期歯科健診に来院した3歳男児の母親から指しゃぶりについて相談を受けた。口腔状態および男児の様子を以下に示す。指導内容として適切なのはどれか。2つ選べ。",歯並びへの影響を説明する
221,4,8,6,"50歳の女性。会社で行われた健康診査の結果を表に示す。メタボリックシンドローム判定の基準値を超えているのはどれか。2つ選べ。",②
222,8,5,3,"保護者に離乳食の講話をすることになった。用意した離乳食の写真を別に示す。講話の内容で適切なのはどれか。",舌で押しつぶせるようになったら食べさせましょう
223,8,2,1,"保護者に離乳食の講話をすることになった。用意した離乳食の写真を別に示す。講話の内容で適切なのはどれか。",舌で押しつぶせるようになったら食べさせましょう
224,8,4,2,"この男性の禁煙ステージはどれか。",準備期
225,8,4,2,"この男性への禁煙支援で適切でないのはどれか。",ニコチン濃度の低いタバコを紹介する
226,6,7,2,"78歳の女性。食事や排泄は車椅子に移乗して行えるが、一日中ベッドで過ごす事が多い。着替え、入浴などにおいても介助が必要である。この女性の「障害高齢者の日常生活自立度判定」のランクはどれか。",B<SUB>2</SUB>
227,9,3,1,"下顎第一大臼歯用のクランプの図を示す。左側に装着する場合、クランプの部位と歯に対する位置の組合せで正しいのはどれか。2つ選べ。",①---遠心
228,9,1,5,"診療器具の説明で正しいのはどれか。",口腔外バキュームは、切削時のエアロゾルを吸引する。
229,9,4,2,"印象採得の説明で正しいのはどれか。2つ選べ。",2種類の印象材を使用する方法を連合印象という
230,6,4,3,"局所麻酔の説明で正しいのはどれか。2つ選べ。",表面麻酔は薬剤の塗布により知覚を麻痺させる
231,9,1,7,"床やスピットンに散った血液の消毒に6%次亜塩素酸ナトリウム液を希釈して0.5%液を600mL作ることにした。6%次亜塩素酸ナトリウム液は何mL必要か。",50mL
232,9,5,4,"針付き縫合糸のパッケージの写真を別に示す。下線部の表示の説明で正しいのはどれか。2つ選べ。",①は糸の太さを示す。
233,6,4,2,"口腔癌の放射線治療による口腔の急性期副作用はどれか。2つ選べ。",粘膜炎
234,9,11,1,"体温の高い順で正しいのはどれか。",直腸　＞　口腔　＞　腋窩
235,9,1,4,"水平位にてスケーリングを行う場合、術者の目と患者の口腔までの距離で適切なのはどれか。",25〜35cm
236,9,3,9,"器具の写真を別に示す。フラップ手術の際に骨膜を?離する器具はどれか。2つ選べ。",①
237,9,4,5,"85歳の男性。全部床義歯の装着にあたり、義歯床粘膜面の適合試験を行うことになった。準備するのはどれか。2つ選べ。",シリコーン材料
238,6,6,3,"小児の歯科診療における行動変容法で抑制的対応法はどれか。",ハンドオーバーマウス法
239,9,11,2,"8歳の女児。歯科治療中に意識がなくなり、呼吸が停止し、脈の触知ができなくなった。一次救命処置を2人で行うことになった。胸骨圧迫と人工呼吸の回数はどれか。",15回に2回
240,9,3,7,"電気的根管長測定器の説明で正しいのはどれか。2つ選べ。",電気抵抗値を測定する
241,9,4,2,"70歳の男性。義歯製作のためスタディモデルを作製することになった。アルジネート印象を行う予定であるが、患者は嘔吐反射が強いという。印象採得時の適切な対応はどれか。2つ選べ。",口蓋部に表面麻酔を行う
242,6,8,4,"85歳の男性。3年前に脳梗塞を起こし、後遺症として軽い左片麻痺がある。食事は楽しみにしており自分で食べるが、ペースが速い。一口量も多く、食事中にむせることがよくある。誤嚥を防ぐ対応で適切なのはどれか。2つ選べ。",液体にはとろみをつける
243,9,6,1,"矯正治療時の口腔内写真を別に示す。この操作の目的はどれか。",チューブの装着位置の決定
244,9,1,3,"70歳の男性。車椅子で来院した。院内を移動中の写真を別に示す。このとき介助者が右足で行っている操作はどれか。",前輪を浮かせる
245,1,1,3,"直接抜髄法に使用する器具の写真を別に示す。根管内歯髄の除去に使用するのはどれか。2つ選べ。",①
246,1,1,3,"下顎大臼歯のⅡ級メタルインレー窩洞の連合印象採得を行うことになった。印象材の準備を行っている写真を別に示す。この後に使用する印象材はどれか。",アルジネート
247,2,1,1,"部分床義歯の咬合床の写真を別に示す。矢印が示す材料はどれか。",常温重合レジン
248,2,1,2,"腫瘍切開後にドレーンを使用する目的はどれか。",膿汁排出
249,1,1,1,"28歳の女性。下顎左側第三大臼歯の抜歯を行った。帰宅後に抜歯窩からの出血が止まらないため再度来院した。診察の結果、止血処理を行うことになった。準備するのはどれか。2つ選べ。",骨?
250,1,1,5,"矯正歯科治療における顔面写真の撮影で正しいのはどれか。",眼耳平面を床と平行にする。
251,1,2,7,"舌小帯切除術を行う際に準備する器具はどれか。2つ選べ。",尖刃刀
252,1,1,7,"口腔機能訓練時の写真を別に示す。この訓練はどれか。2つ選べ。",筋機能訓練
253,1,2,9,"8歳の女児。脳性麻痺と診断されている。摂食嚥下障害を主訴として来院した。診察の結果、呼吸と嚥下機能の協調不全による誤嚥や窒息の危険性があり、過開口、咬反射、丸飲み込み及び食べこぼし等の症状がみられた。摂食機能療法を行うにあたり必要な対応はどれか。2つ選べ。",食形態の確認をする。
254,2,2,1,"8歳の女児。脳性麻痺と診断されている。摂食嚥下障害を主訴として来院した。診察の結果、呼吸と嚥下機能の協調不全による誤嚥や窒息の危険性があり、過開口、咬反射、丸飲み込み及び食べこぼし等の症状がみられた。摂食機能療法を行うにあたり必要な対応はどれか。2つ選べ。",食形態の確認をする。
255,1,1,3,"成人の気管、気管支および肺を正面から見た位置関係を図に示す。正しいのはどれか。",③
256,1,1,3,"頭蓋骨の正中矢状断面の写真を別に示す。矢印が示すのはどれか。",上顎洞
257,2,1,1,"固有口腔にある小唾液腺はどれか。",口蓋腺
258,2,1,2,"上顎前歯の舌側面を図に示す。矢印で示すのはどれか。",基底結節
259,1,1,1,"電子伝達系が存在するのはどれか。",ミトコンドリア
260,1,1,5,"中枢神経を図に示す。呼吸中枢が存在するのはどれか",②
261,1,2,7,"中枢神経を図に示す。呼吸中枢が存在するのはどれか",②
262,1,1,7,"消化器系を図に示す。矢印で示す臓器から出る液体の役割はどれか。",脂肪の乳化
263,1,2,9,"消化器系を図に示す。矢印で示す臓器から出る液体の役割はどれか。",脂肪の乳化
264,2,2,1,"舌を図に示す。二点弁別閾が最も小さいのはどれか。",④
265,3,1,7,"エイズの発症機序に関与するのはどれか。",ヘルパーT細胞の減少
266,3,1,13,"歯根肉芽腫のエックス線写真を別に示す。矢印が示すエックス線透過部で増殖する上皮の由来はどれか。",Malassezの上皮遺残
267,3,2,4,"中枢リンパ組織＜一次リンパ組織＞はどれか。",胸腺
268,3,2,8,"歯肉縁上プラークの形成過程における細菌の構成比の経日変化を図に示す。縦軸は対数目盛で表示する。矢印が示すのはどれか。",Streptococcus属
269,8,5,1,"う蝕発症に関わる糖の構造を図に示す。この糖はどれか。",スクロース
270,4,3,1,"う蝕発症に関わる糖の構造を図に示す。この糖はどれか。",スクロース
271,3,3,2,"有害作用の発現率が最も高い投与法はどれか。",静脈内投与
272,3,3,12,"口腔カンジダ症の治療に用いられる抗菌薬はどれか。",イミダゾール系
273,4,1,1,"第三次予防はどれか。2つ選べ。",義歯装着
274,4,2,1,"口腔清掃法とその関連事項の組合せで正しいのはどれか。2つ選べ。",自然的 −−− 咀嚼　
275,4,3,1,"ステファン曲線を実線で図に示す。矢印の方向に変化させるのはどれか。2つ選べ。",F<SUP>-</SUP>
276,4,3,2,"2000年にFDIが提唱したう蝕のMinimal Intervention＜MI＞はどれか。2つ選べ。",口腔内細菌叢の改善
277,4,6,2,"成人の歯科健診結果を表に示す。この集団のう蝕有病者率(%)はどれか。",70
278,4,6,3,"ある集団を対象に質問紙調査を行った結果を表に示す。男女の喫煙率の有意差を調べる方法はどれか。",カイ二乗検定
279,4,7,2,"健康日本21(第二次)の「歯・口腔の健康」の項目と目標値の組合せで正しいのはどれか。2つ選べ。",20歳代における歯肉に炎症所見を −−− 25%<br>有する者の減少
280,4,9,2,"市町村が行う歯周疾患検診の根拠となる法律はどれか。",健康増進法
281,4,8,3,"光化学オキシダントの原因物質となるのはどれか。",二酸化窒素
282,4,8,4,"平成25年国民生活基礎調査における介護が必要となった原因とその割合を図に示す。①はどれか。",脳血管疾患
283,4,8,11,"平成25年国民生活基礎調査における介護が必要となった原因とその割合を図に示す。①はどれか。",脳血管疾患
284,4,8,9,"母子健康手帳で正しいのはどれか。2つ選べ。",市町村が交付する。
285,4,8,11,"特定健康診査における基本的な健診項目はどれか。",血糖検査
286,4,8,13,"大規模災害や突発事故などから生じた精神疾患はどれか。",PTSD
287,4,8,10,"就学時健康診断を定めている法律はどれか。",学校保健安全法
288,8,5,1,"「歯を丈夫で健康にする食品」と表示できるのはどれか。",特定保健用食品
289,8,5,1,"国民健康・栄養調査で、高度経済成長期と比べて、近年摂取量が増加しているのはどれか。",緑黄色野菜
290,5,1,2,"歯科保健指導で、問題解決を行う際に適切なのはどれか。2つ選べ。",複数の問題点には優先順位をつける。
291,5,1,4,"歯科保健指導で、問題解決を行う際に適切なのはどれか。2つ選べ。",複数の問題点には優先順位をつける。
292,6,1,3,"口内法エックス線撮影時、被曝線量の軽減に有効なのはどれか。2つ選べ。",ロングコーンを使用する。
293,6,1,4,"金属アレルギー検査はどれか。2つ選べ。",パッチテスト
294,6,8,4,"口腔乾燥症に対する検査はどれか。",サクソンテスト
295,9,1,7,"手指の消毒に使用するのはどれか。2つ選べ。",ポビドンヨード
296,4,5,3,"28歳の男性。歯の痛みを主訴として来院した。2年前から食後に嘔吐を繰り返しているという。初診時の口腔内写真を別に示す。考えられるのはどれか。",酸蝕症
297,9,3,3,"46歳の女性。歯の冷水痛を主訴として来院した。コンポジットレジンインレー修復を行うことになった。コンポジットレジンインレー製作時の写真を別に示す。直接法と比較した長所はどれか。2つ選べ。",耐摩耗性が向上する。
298,9,3,3,"コンポジットレジンインレー体内面にシランカップリング処理を行うことで得られる効果はどれか。",接着効果
299,6,2,2,"45歳の女性。上顎左側側切歯の変色を主訴として来院した。4年前から気付いていたが放置していたという。初診時の口腔内写真を別に示す。変色の原因として考えられるのはどれか。",歯髄壊死
300,6,2,2,"38歳の女性。上顎左側臼歯部の歯肉からの排膿を主訴として来院した。2週前から同部の腫脹と疼痛を認めていたが放置していたという。頬側歯肉部に瘻孔がみられ、上顎左側第二小臼歯と第一大臼歯に打診痛を認めた。エックス線写真撮影直前の口腔内写真を別に示す。この検査の目的はどれか。",原因歯の特定
301,6,2,3,"19歳の女性。ブラッシング時の疼痛を主訴として来院した。2年前から気付いていたが放置していたという。既往歴にてんかんがあり、投薬を受けている。初診時の口腔内写真を別に示す。考えられる対応で、まず行うのはどれか。",プラークコントロール
302,6,2,3,"36歳の女性。上下顎前歯部歯肉からの出血を主訴として来院した。検査の結果、侵襲性歯周炎と診断され、歯周治療を行うことになった。初診時の口腔内写真を別に示す。歯周基本治療開始前に説明すべきリスクはどれか。2つ選べ。",構音障害
303,6,3,1,"部分床義歯の写真を別に示す。複合義歯はどれか。2つ選べ。",②
304,6,3,2,"部分床義歯の写真を別に示す。複合義歯はどれか。2つ選べ。",②
305,6,3,2,"有床義歯製作において、前歯部人工歯選択のSPA要素に含まれないのはどれか。",職業
306,6,3,5,"固定性ブリッジの構成要素はどれか。2つ選べ。",連結部
307,6,3,5,"半固定性ブリッジに用いるのはどれか。",キーアンドキーウェイ
308,6,3,2,"半固定性ブリッジに用いるのはどれか。",キーアンドキーウェイ
309,6,5,2,"<font color=""red"">※不適切問題</font>9歳の男児。顎裂部の矯正歯科治療を目的に紹介され来院した。両側唇顎口蓋裂で、生後4か月時に口唇形成術、1歳6か月時に口蓋形成術を受けたという。現在は両側顎裂を認める。術前の口腔内写真を別に示す。考えられる手術はどれか。2つ選べ。",骨移植術
310,6,4,2,"16歳の男子。交通事故で受傷し、救急車で搬送された。下顎骨骨折と診断され、全身麻酔下に観血的整復固定術を行うことになった。術中写真を別に示す。骨片の固定に用いるのはどれか。2つ選べ。",金属線
311,6,4,1,"16歳の男子。交通事故で受傷し、救急車で搬送された。下顎骨骨折と診断され、全身麻酔下に観血的整復固定術を行うことになった。術中写真を別に示す。骨片の固定に用いるのはどれか。2つ選べ。",金属線
312,6,4,1,"26歳の女性。舌下面の異常を訴えて来院した。2か月前から舌下面の腫脹に気付き、病変の増大と縮小を繰り返しているという。口腔内写真を別に示す。腫脹を矢印で示す。考えられるのはどれか。",粘液嚢胞
313,4,1,3,"胎生7週の顔面構造を図に示す。上顎突起はどれか。",②
314,2,1,3,"胎生7週の顔面構造を図に示す。上顎突起はどれか。",②
315,6,5,2,"下顎犬歯の移動を図に示す。移動様式はどれか。",歯体移動
316,6,5,2,"矯正歯科治療用器具の写真を別に示す。適切な用途はどれか。",結紮線の切断
317,6,6,1,"Hellmanの歯齢ⅡＣ期の第一大臼歯の特徴はどれか。",自浄作用が働きにくい。
318,6,6,2,"8歳の女児。上顎左側中切歯の色調異常を訴えて来院した。萌出時から異常が認められ、歯磨きをしても変化はないという。歯の発育段階での異常と診断された。口腔内写真を別に示す。原因として考えられるのはどれか。",先行乳歯の根尖性歯周炎
319,6,6,4,"5歳の男児。前歯で食物が咬みにくいことを訴えて来院した。全身疾患は認められず、う蝕の治療は終了している。咬合時の口腔内写真を別に示す。咬合異常の原因として考えられるのはどれか。2つ選べ。",吸指癖
320,6,7,3,"パーキンソン病の典型的な症状はどれか。2つ選べ。",手足が震える。
321,6,8,2,"パーキンソン病の典型的な症状はどれか。2つ選べ。",手足が震える。
322,6,7,5,"77歳の男性。脳梗塞発症後、口蓋に食渣が付着することを訴えている。この患者に装着した口腔内写真を別に示す。適応症はどれか。",舌挙上不全
323,6,3,2,"77歳の男性。脳梗塞発症後、口蓋に食渣が付着することを訴えている。この患者に装着した口腔内写真を別に示す。適応症はどれか。",舌挙上不全
324,6,8,4,"82歳の男性。脳梗塞発症後、右片麻痺があり、摂食機能療法における間接訓練を継続してきた。座位は困難な状況である。本日から直接訓練を開始する予定である。誤嚥を起こしにくい姿勢はどれか。",左側を下の半側臥位にする。
325,6,7,4,"胃瘻について正しいのはどれか。",皮膚からの胃への栄養路を外科的に造設する。
326,7,1,1,"う蝕予防処置はどれか。2つ選べ。",小窩裂溝?塞
327,7,1,3,"エックス線写真を別に示す。観察できるのはどれか。",歯槽硬線
328,7,3,2,"う蝕活動性試験で予測できるのはどれか。2つ選べ。",発病
329,7,1,3,"初診患者の口腔内写真を別に示す。認められる歯肉形態の異常はどれか。",フェストゥーン
330,7,1,1,"歯周疾患の第二次予防はどれか。2つ選べ。",咬合調整
331,4,4,2,"歯周疾患の第二次予防はどれか。2つ選べ。",咬合調整
332,7,2,5,"PMTCに用いるのはどれか。",フッ化物配合研磨材
333,7,3,2,"判定までに4日間の培養を要するのはどれか。",Dentocult<SUP>?</SUP>-LB
334,7,3,3,"フッ化物歯面塗布後の指導で正しいのはどれか。2つ選べ。",定期的な塗布を勧める。
335,7,3,5,"厚生労働省のガイドラインで定めるフッ化物洗口開始の対象年齢はどれか。",4歳
336,7,3,4,"小窩裂溝?塞法の酸処理面の深さはどれか。",10〜30μm
337,6,2,3,"歯周病原細菌により引き起こされる可能性があるのはどれか。",菌血症
338,7,2,4,"シャープニング操作で正しいのはどれか。2つ選べ。",施術中は滅菌した砥石を使用する。
339,7,2,2,"プロービング操作の写真を別に示す。歯周組織検査時のプローブの先端の動きを矢印で示す。ウォーキングストロークはどれか。",②
340,7,2,2,"プロービング操作の写真を別に示す。歯周組織検査時のプローブの先端の動きを矢印で示す。ウォーキングストロークはどれか。",②
341,7,1,3,"40歳の女性。奥歯に物が挟まることを主訴として来院した。器材の写真を別に示す。検査に用いるのはどれか。2つ選べ。",②
342,7,2,4,"エックス線写真を別に示す。矢印の部位に適したグレーシータイプキュレットはどれか。",#11/12
343,7,2,5,"歯面研磨材の研磨成分はどれか。2つ選べ。",シリカ
344,7,2,6,"初診時と歯周基本治療後のアタッチメントレベルとプロービングデプスの結果を表に示す。付着の獲得が認められたのはどれか。2つ選べ。",11
345,7,2,2,"初診時と歯周基本治療後のアタッチメントレベルとプロービングデプスの結果を表に示す。付着の獲得が認められたのはどれか。2つ選べ。",11
346,8,2,1,"OHIのDebris Score＜DS＞の結果とOHI-SのDI-S集計表を別に示す。集計表で正しいのはどれか。",④
347,7,2,2,"OHIのDebris Score＜DS＞の結果とOHI-SのDI-S集計表を別に示す。集計表で正しいのはどれか。",④
348,8,4,3,"摂食嚥下過程のある時期の図を示す。この時期の摂食嚥下障害に行われる訓練はどれか。",舌訓練
349,8,2,1,"改訂BDR指標でDを把握する質問はどれか。",自分で入れ歯の着け外しができますか。
350,4,2,3,"45歳の女性。歯磨き時に上顎右側臼歯部の歯肉から出血することを主訴として来院した。口腔内写真を別に示す。ブラッシング指導時に、患者からどのような歯磨剤が良いか質問を受けた。症状を緩和する歯磨剤の薬効成分はどれか。",トラネキサム酸
351,8,3,3,"11歳の女児。学校歯科健康診断で歯科医院の受診を勧められて来院した。歯科医院での口腔内診査と、歯垢染色後の口腔内写真を別に示す。適切な対応はどれか。2つ選べ。",要観察歯の磨き方を指導する。
352,8,3,2,"67歳の女性。家族の希望で歯科訪問診療を行った。2年前に交通事故で頭部を受傷し、以来寝たきりの全介助で生活しているという。夫の話では、時々むせることもあるが、発熱は無いという。初回訪問時の食後の口腔内写真を別に示す。家族に指導する口腔清掃用具で必要性が高いのはどれか。2つ選べ。",軟毛歯ブラシ
353,8,3,3,"67歳の女性。家族の希望で歯科訪問診療を行った。2年前に交通事故で頭部を受傷し、以来寝たきりの全介助で生活しているという。夫の話では、時々むせることもあるが、発熱は無いという。初回訪問時の食後の口腔内写真を別に示す。家族に指導する口腔清掃用具で必要性が高いのはどれか。2つ選べ。",軟毛歯ブラシ
354,8,6,1,"味覚障害を生じる疾患はどれか。2つ選べ。",亜鉛欠乏症
355,6,1,1,"味覚障害を生じる疾患はどれか。2つ選べ。",亜鉛欠乏症
356,8,5,1,"日本人の食事摂取基準＜2015年版＞で成人1日当たりの食塩の目標量はどれか。",女性7.0g未満
357,6,8,4,"摂食嚥下リハビリテーションに関わる職種とその役割の組合せで正しいのはどれか。2つ選べ。",作業療法士 −−− 食器具の選定
358,8,5,1,"32歳の女性。ある日の食事内容における食事バランスガイドの評価と食事の写真を別に示す。摂取することでバランスが向上するのはどれか。2つ選べ。",①
359,8,4,2,"60歳の男性。歯周治療のため8か月前から通院している。40年間1日25本の喫煙習慣があり、次週より禁煙を決意したため聞きとりを行った。結果を以下に示す。正しいのはどれか。2つ選べ。",禁煙外来を紹介する。
360,8,3,3,"ある市の保健センターで行った1歳6か月児歯科健康診査におけるう蝕罹患型の内訳を表に示す。う蝕を有する者の割合はどれか。",20%
361,8,7,1,"歯科衛生教育活動に用いる媒体を別に示す。利用する媒体と対象者の組合せで適切なのはどれか。2つ選べ。",② −−− 保育園児の保護者
362,8,7,2,"歯科衛生教育活動に用いる媒体を別に示す。利用する媒体と対象者の組合せで適切なのはどれか。2つ選べ。",② −−− 保育園児の保護者
363,8,1,1,"歯科衛生教育活動に用いる媒体を別に示す。利用する媒体と対象者の組合せで適切なのはどれか。2つ選べ。",② −−− 保育園児の保護者
364,8,6,3,"摂食嚥下障害の間接訓練として行うガムラビングで正しいのはどれか。",上下の歯は咬合させる。
365,8,1,1,"5年間の保管が規定されているのはどれか。2つ選べ。",診療録
366,4,9,2,"5年間の保管が規定されているのはどれか。2つ選べ。",診療録
367,4,8,3,"5年間の保管が規定されているのはどれか。2つ選べ。",診療録
368,9,3,2,"歯を切削できるのはどれか。",Er:YAGレーザー
369,9,1,6,"56歳の男性。感染症についての既往は不明である。診療後に、歯科衛生士が使用済みの注射針を誤って左示指に刺してしまい、出血を認めた。歯科衛生士はB型肝炎ワクチンを接種しておりHB<SUB>S</SUB>抗体を持っている。直ちに行うのはどれか。",大量の流水で十分に洗い流す。
370,9,1,7,"アルジネートを用いた印象体を次亜塩素酸ナトリウムで消毒する場合の濃度と浸漬時間の組合せで正しいのはどれか。",0.5%　−−− 20分
371,9,2,5,"レジンインレー窩洞の仮封材として適切なのはどれか。2つ選べ。",ストッピング
372,9,3,1,"器具の写真を別に示す。使用に際し、歯と窩洞の組合せで正しいのはどれか。",上顎犬歯 −−−− Ⅲ級
373,9,3,3,"コンポジットレジン修復のシェードテイキングの留意点はどれか。2つ選べ。",患歯と隣在歯を濡らす。
374,9,3,6,"直接抜髄法に使用する器具の写真を別に示す。根管内歯髄の除去に使用するのはどれか。2つ選べ。",①
375,9,2,3,"下顎大臼歯のⅡ級メタルインレー窩洞の連合印象採得を行うことになった。印象材の準備を行っている写真を別に示す。この後に使用する印象材はどれか。",アルジネート
376,9,2,6,"部分床義歯の咬合床の写真を別に示す。矢印が示す材料はどれか。",常温重合レジン
377,9,5,2,"腫瘍切開後にドレーンを使用する目的はどれか。",膿汁排出
378,9,5,3,"28歳の女性。下顎左側第三大臼歯の抜歯を行った。帰宅後に抜歯窩からの出血が止まらないため再度来院した。診察の結果、止血処理を行うことになった。準備するのはどれか。2つ選べ。",骨?
379,9,6,2,"矯正歯科治療における顔面写真の撮影で正しいのはどれか。",眼耳平面を床と平行にする。
380,9,5,2,"舌小帯切除術を行う際に準備する器具はどれか。2つ選べ。",尖刃刀
381,8,6,3,"口腔機能訓練時の写真を別に示す。この訓練はどれか。2つ選べ。",筋機能訓練
382,9,8,1,"口腔機能訓練時の写真を別に示す。この訓練はどれか。2つ選べ。",筋機能訓練
383,8,6,3,"8歳の女児。脳性麻痺と診断されている。摂食嚥下障害を主訴として来院した。診察の結果、呼吸と嚥下機能の協調不全による誤嚥や窒息の危険性があり、過開口、咬反射、丸飲み込み及び食べこぼし等の症状がみられた。摂食機能療法を行うにあたり必要な対応はどれか。2つ選べ。",食形態の確認をする。
384,9,9,1,"8歳の女児。脳性麻痺と診断されている。摂食嚥下障害を主訴として来院した。診察の結果、呼吸と嚥下機能の協調不全による誤嚥や窒息の危険性があり、過開口、咬反射、丸飲み込み及び食べこぼし等の症状がみられた。摂食機能療法を行うにあたり必要な対応はどれか。2つ選べ。",食形態の確認をする。
385,9,10,2,"下顎の口内法エックス線写真撮影時の写真を別に示す。下顎の咬合平面の設定が正しいのはどれか。",②
386,1,1,2,"心臓の構造を図に示す。肺からの血液が流入するのはどれか。",①
387,1,1,7,"食道と胃の境界部はどれか。",噴門
388,2,1,1,"頭蓋骨側面の写真を別に示す。矢印の部位から起始するのはどれか。",咬筋
389,2,1,2,"歯と歯周組織の両者に属するのはどれか。",セメント質
390,1,2,3,"O型血液で正しいのはどれか。&nbsp;抗A抗体　抗B抗体",　あり　　あり
391,1,1,6,"内耳を図に示す。内部に聴覚の受容器があるのはどれか。",④
392,1,2,8,"内耳を図に示す。内部に聴覚の受容器があるのはどれか。",④
393,1,2,11,"破骨細胞の活性を抑制するのはどれか。",カルシトニン
394,3,1,3,"(　　)に入るのはどれか。　下肢静脈内の血栓が血流により運ばれると、(　　)に塞栓症を起こしやすい。",肺
395,3,1,11,"摩耗症の小臼歯の断面図を示す。矢印で示す灰色部の硬組織はどれか。",第三象牙質
396,3,1,17,"軟組織に発生する嚢胞はどれか。",萌出嚢胞
397,3,2,4,"アナフィラキシー型アレルギーの発現に関与するのはどれか。",IgE
398,3,2,7,"口腔内細菌のグラム染色像を別に示す。考えられるのはどれか。",Streptococcus mutans
399,3,3,2,"薬物Aと薬物Bの用量有効率曲線と用量致死率曲線およびそれぞれの50%有効量と50%致死量を図に示す。用量を対数で表示する。薬物Aと薬物Bの安全性を表す安全域Aと安全域Bの関係で正しいのはどれか。",安全域Aは安全域Bの1/2である。
400,3,3,1,"歯痛にジクロフェナクナトリウムを投与した。該当する薬物療法はどれか。",対症療法
401,3,3,6,"アナフィラキシーショックによる呼吸困難やチアノーゼに対して投与すべき薬物はどれか。",アドレナリン
402,3,2,10,"口腔細菌と病原性の組合せで正しいのはどれか。2つ選べ。",Lactobacillus casei　−−−−− 酸産生
403,3,2,11,"口腔細菌と病原性の組合せで正しいのはどれか。2つ選べ。",Lactobacillus casei　−−−−− 酸産生
404,4,2,2,"家庭用品品質表示法に規定されている歯ブラシの表示内容はどれか。2つ選べ。",柄の材質
405,4,2,3,"歯磨剤の薬効成分で、う蝕予防と歯周病予防の両方の効能が期待できるのはどれか。",ベンゼトニウム塩化物
406,4,3,1,"う蝕リスクを高めるのはどれか。",グルコシルトランスフェラーゼ
407,4,3,3,"フッ化物応用法と使用薬剤の組合せで正しいのはどれか。",歯磨剤 −−−−−−−−−−− NaF
408,4,6,1,"OHIのDebris Score＜DS＞とCalculus Score＜CS＞を別に示す。OHIはどれか。",3.5
409,7,2,2,"GI＜L?e & Silness,1963＞とPDI＜Ramfjord,1959＞に共通する診査対象歯はどれか。2つ選べ。",<@S25@>
410,4,8,2,"人口動態統計における主要死因別にみた死亡率の推移を図に示す。矢印で示すのはどれか。",肺炎
411,4,8,3,"(　　)に入るのはどれか。　感染性廃棄物とは、医療機関等から生じ、人が感染し、もしくは感染するおそれのある(　　)が含まれる可能性のある廃棄物をいう。",病原体
412,4,8,7,"食中毒の原因別月別発生数＜件数＞を別に示す。ノロウイルスによるのはどれか。",③
413,4,8,10,"学校保健における対人管理はどれか。2つ選べ。",健康診断
414,4,8,12,"職業性疾病のうち作業管理要員によるのはどれか。",頸肩腕障害
415,4,9,1,"(　　)に入るのはどれか。　日本国憲法第25条では「国はすべての生活部面について、社会福祉、社会保障、及び(　　)の向上及び増進に努めなければならない」と定めている。",公衆衛生
416,4,9,4,"平成25年度の部門別社会保障給付費を構成割合の高い順に示す。正しいのはどれか。",年金 ＞ 医療 ＞ 福祉
417,4,8,11,"高齢者が住み慣れた地域で自立した生活が営めるよう、医療、介護、予防、住まい及び生活支援サービスを切れ目なく提供することを目的とした仕組みはどれか。",地域包括ケアシステム
418,1,2,11,"血清カルシウム濃度の恒常性維持において、活性型ビタミンDが作用するのはどれか。2つ選べ。",骨
419,8,5,1,"食事バランスガイドで示されていないのはどれか。",食塩
420,9,1,6,"医療現場におけるインシデント報告書の目的はどれか。2つ選べ。",メタ認知能力の育成
421,5,1,5,"医療現場におけるインシデント報告書の目的はどれか。2つ選べ。",メタ認知能力の育成
422,6,1,4,"運動負荷心電図検査で自転車をこぐことで負荷を与えるのはどれか。",エルゴメータ
423,6,1,4,"細菌感染が疑われる患者のスクリーニング検査で指標となるのはどれか。2つ選べ。",CRP値
424,9,1,7,"根管洗浄用プラスチックシリンジの感染予防対策で有効なのはどれか。",低温プラズマ滅菌
425,4,5,3,"35歳の女性。歯の変色を主訴として来院した。歯の萌出直後から気付いていたが放置していたという。初診時の口腔内写真を別に示す。考えられるのはどれか。",抗菌薬の副作用
426,9,3,3,"形成窩洞内に充?した光重合型コンポジットレジンと光照射器の位置関係の図を別に示す。重合率が最も高いのはどれか。",②
427,9,1,5,"咬合面のう蝕検査に用いるのはどれか。",半導体レーザー
428,9,2,3,"34歳の男性。上顎左側第一小臼歯の痛みを主訴として来院した。窩洞形成を行い間接修復することになった。窩洞形成後の口腔内写真を別に示す。印象採得に用いるのはどれか。",シリコーンラバー印象材
429,6,2,2,"46歳の男性。下顎右側第二小臼歯の歯冠が折れたことを主訴として来院した。慢性根尖性歯周炎と診断され、感染根管治療を行うことになった。初診時の口腔内写真と感染根管治療開始直前の口腔内写真を別に示す。感染根管治療開始前に患歯に施された処置はどれか。",隔壁の形成
430,9,3,7,"歯内療法と用いる薬剤の組合せで正しいのはどれか。2つ選べ。",直接覆髄法 −−−−−− 水酸化カルシウム
431,6,2,3,"歯槽骨吸収がみられるのはどれか。",侵襲性歯周炎
432,6,2,3,"44歳の女性。歯周治療を希望して来院した。1年8か月かけて歯周基本治療と歯肉?離?爬術を行った。歯周外科治療後の再評価検査結果を別に示す。プロービング時に出血は認められなかった。その後の対応で考えられるのはどれか。",SPT
433,6,3,1,"35歳の女性。歯冠修復処置を希望して来院した。臼歯部は正常な対合関係で、顎運動検査の結果、グループファンクションの咬合様式と診断された。下顎側方運動により作業側で咬合接触するのはどれか。",下顎犬歯の尖頭
434,6,3,1,"フェイスボウトランスファーで再現されるのはどれか。",顎関節と上顎咬合平面の位置関係
435,6,3,2,"下顎部分床義歯の連結装置で歯軸方向の幅が最も広いのはどれか。",リンガルエプロン
436,6,4,1,"61歳の男性。左側顔面の痛みを主訴として来院した。5日前から左側顔面に強度の神経痛様疼痛を自覚し、2日前から左側の顔面皮膚と口腔粘膜に限局した水疱が出現したという。4歳時に水痘に罹患した既往がある。顔貌写真を別に示す。考えられるのはどれか。",帯状疱疹
437,6,4,1,"46歳の女性。右舌縁部の異常を訴えて来院した。2週前に鏡で見たところ、舌縁部の変色に気付いたという。直径約15mmの弾性軟の腫瘤を認め、ガラス圧診法により病変部の退色が認められた。口腔内写真を別に示す。考えられるのはどれか。",血管腫
438,9,5,4,"28歳の男性。術後処置のため来院した。7日前に下顎左側水平埋伏智歯の抜歯術を受け、術後経過に異常はなかったという。創部の状態は良好で、抜糸をすることになった。器具の写真を別に示す。準備するのはどれか。",④
439,6,4,3,"<font color=""red"">※不適切問題</font>38歳の女性。下顎左側埋伏智歯の抜歯術を行うことになった。歯科治療恐怖症のため、吸入鎮静法を開始した。至適鎮静状態を確認できるのはどれか。",ベリルのサイン
440,6,5,1,"11歳の男児。歯並びの異常を訴えて来院した。歯ブラシが届きにくいという。初診時の口腔内写真を別に示す。矢印が示す歯の位置異常はどれか。",舌側転位
441,9,6,1,"矯正歯科治療中の図を示す。顎間ゴムの種類はどれか。",Ⅲ級ゴム
442,6,5,2,"矯正歯科治療中の図を示す。顎間ゴムの種類はどれか。",Ⅲ級ゴム
443,6,5,3,"矯正装置を装着した口腔内写真を別に示す。装置の名称はどれか。",急速拡大装置
444,6,6,1,"Hellmanの歯齢ⅢA期にみられるのはどれか。",正中離開
445,6,6,2,"11歳の男児。歯の形を気にして来院した。初診時の口腔内写真を別に示す。矢印で示す形態異常はどれか。",中心結節
446,6,6,3,"4歳の男児。う蝕の治療を希望して来院した。フッ化物歯面塗布を受けた経験はあるが、修復処置は初めてであるという。治療に協力的でスムースに終了できたので、シールを与えた。この対応はどれか。",トークンエコノミー法
447,6,6,4,"4歳の男児。下顎左側第二乳臼歯のう蝕治療を希望して来院した。潰瘍性歯髄炎と診断し、局所麻酔下に生活歯髄切断後、既製乳歯冠修復を行った。診療後の保護者への説明で適切なのはどれか。2つ選べ。",しばらくの間ガーゼを咬ませていてください。
448,4,8,11,"軽度認知症の高齢者が、少人数の共同生活を営む施設はどれか。",グループホーム
449,6,7,2,"認知症の中核症状はどれか。2つ選べ。",記憶障害
450,6,7,5,"摂食嚥下機能のスクリーニングテスト時の写真を別に示す。本テストで評価するのはどれか。",嚥下の随意的な惹起能力
451,6,8,4,"摂食嚥下機能のスクリーニングテスト時の写真を別に示す。本テストで評価するのはどれか。",嚥下の随意的な惹起能力
452,8,6,1,"摂食嚥下機能のスクリーニングテスト時の写真を別に示す。本テストで評価するのはどれか。",嚥下の随意的な惹起能力
453,8,6,2,"摂食嚥下機能のスクリーニングテスト時の写真を別に示す。本テストで評価するのはどれか。",嚥下の随意的な惹起能力
454,7,3,2,"う蝕のリスク評価に用いるのはどれか。2つ選べ。",乳酸桿菌数
455,7,2,2,"エックス線写真を別に示す。歯石が観察できるのはどれか。",犬歯
456,7,1,3,"エックス線写真を別に示す。歯石が観察できるのはどれか。",犬歯
457,7,1,3,"口腔内写真を別に示す。観察できるのはどれか。2つ選べ。",脱灰
458,7,2,2,"口腔内写真を別に示す。観察できるのはどれか。2つ選べ。",脱灰
459,7,3,1,"う蝕の発病要因と予防処置の組合せで正しいのはどれか。",細菌叢 −−−−− PTC
460,9,1,6,"患者のスケーリング中に、手が滑って術者自身の指を切ってしまった。対処の順序を示す。適切なのはどれか。　①グローブの撤去 → 流水下洗浄 → 傷の消毒②グローブの撤去 → 傷の消毒 → 流水下洗浄③流水下洗浄 → グローブの撤去 → 傷の消毒④流水下洗浄 → 傷の消毒 → グローブの撤去",①
461,7,1,1,"歯科予防処置はどれか。",機械的歯面清掃
462,7,3,3,"歯面塗布に用いるフッ化物製剤とpHの組合せで正しいのはどれか。",APF溶液 −−− 3.5
463,7,3,3,"(　　)に入る組合せで正しいのはどれか。　フッ化物洗口法には( ① )%NaF溶液で毎日行う方法と( ② )%NaF溶液で週1回行う方法があり、洗口用顆粒は( ③ )に分解される。",①0.05　②0.2　③劇薬
464,7,3,4,"小窩裂溝?塞に用いられるのはどれか。2つ選べ。",Bis-GMA系レジン
465,7,1,2,"60歳の男性。歯根の露出、冷水痛および義歯の不具合を訴えて来院した。口腔診査終了後に検査を行い、次の結果を得た。この結果から考えられるのはどれか。",口腔乾燥
466,6,2,3,"慢性歯周炎と比較した場合の侵襲性歯周炎の特徴はどれか。2つ選べ。",組織破壊の進行が速い。
467,7,2,1,"歯周病と双方向のリスクが考えられるのはどれか。",糖尿病
468,7,2,6,"メインテナンス移行の基準を満たしているのはどれか。",歯周ポケット4mm未満
469,7,2,4,"シャープニングの目的はどれか。2つ選べ。",患者の不快感を軽減する。
470,7,3,3,"フッ化物歯面塗布法はどれか。2つ選べ。",綿球法
471,7,2,4,"ユニバーサルキュレットの操作で誤っているのはどれか。",第1シャンクを歯軸と平行にして操作する。
472,6,2,3,"歯周治療の標準的な進め方を図に示す。①はどれか。",再評価
473,7,2,2,"器具の写真を別に示す。この器具で計測する2度はどれか。",骨吸収が1/3以上で反対側に貫通していない。
474,8,1,1,"ヘルスプロモーションの概念に基づいたブラッシング指導はどれか。",鏡を見ながら歯ブラシの当て方を確認して磨くと良いです。
475,8,2,1,"68歳の女性。<U>①口の臭いが気になる</U>と訴え来院した。<U>②5年前に脳梗塞を発症し</U>、左半身は麻痺があるという。<U>③合嗽を指示すると問題なくできる。</U> <U>④口腔内全体に</U><U>プラークと食物残渣の付着があり</U>、舌は乾燥して舌苔もみられる。歯肉は発赤・腫脹している。下線部分で客観的データはどれか。2つ選べ。",③
476,8,2,1,"口臭の原因を明らかにするために、口臭測定に加えて測定するのはどれか。2つ選べ。",唾液分泌量
477,6,1,1,"67歳の男性。入院中の口腔衛生管理を行うことになった。食道癌の診断で2週前より放射線治療と化学療法を行っており、4日後に手術が行われるという。口腔内の評価では、う蝕や歯周病は無かったが口が渇くと訴えていた。評価時の舌の写真を別に示す。歯科衛生士が行う口腔衛生管理によって期待される効果はどれか。2つ選べ。",入院期間の短縮
478,8,2,1,"67歳の男性。入院中の口腔衛生管理を行うことになった。食道癌の診断で2週前より放射線治療と化学療法を行っており、4日後に手術が行われるという。口腔内の評価では、う蝕や歯周病は無かったが口が渇くと訴えていた。評価時の舌の写真を別に示す。歯科衛生士が行う口腔衛生管理によって期待される効果はどれか。2つ選べ。",入院期間の短縮
479,8,3,1,"65歳の男性。定期健康診査で来院した。口腔内写真を別に示す。ブリッジ部にプラークの付着が認められた。保健指導を行うよう指示を受けた。丸印で囲んだ部位の清掃に適するのはどれか。2つ選べ。",歯間ブラシ
480,8,1,2,"45歳の女性。定期健康診査を目的に来院した。歯科保健指導は5回目となる。指導時の会話を以下に示す。保健行動変容の段階はどれか。 歯科衛生士:自宅での歯磨きはいかがですか。患　　　者:教えていただいたように行えていると思いま　　　　　 す。最初1か月は、歯間ブラシを使うのは　　　　　 面倒でしたが、4か月経ってみると、使わな　　　　　 いとすっきりしない気がします。歯科衛生士:歯間ブラシは毎日使っていますか。患　　　者:はい。1日2回、昼食後と夕食後の歯磨きの時　　　　　 に使用しています。職場の人にも勧めている　　　　　 のですよ。歯科衛生士:それはすばらしいです。このまま続けていけ　　　　　 そうですね。患　　　者:はい。気持ちがよいので続けられると思いま　　　　　 す。",行動期
481,8,3,3,"87歳の男性。5年前から認知症が悪化し、施設に入居して全介助であるという。施設職員からよくむせることを主訴として歯科訪問診療を依頼された。食事はおかゆと刻んだおかずを食べているという。誤嚥性肺炎はこれまで発症していない。食後の義歯の写真を別に示す。最初に行う対応はどれか。",食物残渣の確認
482,8,5,2,"歯の喪失により、摂取しにくくなるのはどれか。2つ選べ。",肉
483,8,5,1,"非う蝕性甘味料はどれか。2つ選べ。",スクラロース
484,8,6,4,"7歳の女児。小学校での保健指導で担任から相談を受けた。女児は給食で口に食物を詰め込むことが多くなり、何度か窒息しそうになったという。全身疾患は特にない。口腔内写真を別に示す。担任に対する適切な助言はどれか。2つ選べ。",摂食嚥下の専門外来を受診すると良いです。
485,8,2,1,"7歳の女児。小学校での保健指導で担任から相談を受けた。女児は給食で口に食物を詰め込むことが多くなり、何度か窒息しそうになったという。全身疾患は特にない。口腔内写真を別に示す。担任に対する適切な助言はどれか。2つ選べ。",摂食嚥下の専門外来を受診すると良いです。
486,8,5,3,"85歳の女性。同居している家族から、「これまでは家族と同じように食べられましたが、最近はむせることが多くなってきました。献立で工夫できることはありますか。」との相談を受けた。適切な助言はどれか。2つ選べ。",ジュースよりゼリーの方がむせにくいです。
487,6,8,2,"82歳の女性。義歯が時々はずれると家族より相談を受けた。5年前にパーキンソン病を発症しパーキンソン病治療薬を服用している。歯科医師の診察の結果、オーラルジスキネジアが頻繁にみられたが、義歯の適合は良好であった。家族への指導で正しいのはどれか。2つ選べ。",定期的に義歯の適合を診察してもらう。
488,8,3,3,"82歳の女性。義歯が時々はずれると家族より相談を受けた。5年前にパーキンソン病を発症しパーキンソン病治療薬を服用している。歯科医師の診察の結果、オーラルジスキネジアが頻繁にみられたが、義歯の適合は良好であった。家族への指導で正しいのはどれか。2つ選べ。",定期的に義歯の適合を診察してもらう。
489,8,3,3,"6か月の乳児。保育園で保護者を対象とした歯科保健指導で口腔清掃方法について質問を受けた。保護者は口腔清掃をまだ何もしていないという。全身疾患や口腔粘膜の異常はない。口腔内写真を別に示す。適切な助言はどれか。2つ選べ。",ガーゼで汚れを拭う準備を始めましょう。
490,9,1,2,"74歳の男性。狭心症の既往歴がある。6か月間は発作もなく安定した状態であるが、発作に備え常時薬剤を携帯している。スケーリング中に突然、胸痛を訴えた。歯科衛生士が行う対応で正しいのはどれか。2つ選べ。",血圧測定を行う。
491,5,1,5,"ハインリッヒの法則を示す。(　　)に入る組合せで正しいのはどれか。　1件の重大な事故の背景には( ① )件の軽微な事故と、さらに( ② )件の傷害には至らなかった事故＜インシデント＞がある。",①29　②300　
492,9,1,6,"ハインリッヒの法則を示す。(　　)に入る組合せで正しいのはどれか。　1件の重大な事故の背景には( ① )件の軽微な事故と、さらに( ② )件の傷害には至らなかった事故＜インシデント＞がある。",①29　②300　
493,9,2,2,"セラミックインレーの合着に使用するデュアルキュア型レジンセメントの取扱いで正しいのはどれか。",光照射を行う。
494,6,3,1,"セラミックインレー修復で、削り出し法＜ミリング法＞を応用してインレー体を製作する方法はどれか。",CAD/CAM法
495,9,2,6,"歯科用ワックスの種類と用途の組合せで正しいのはどれか。",シートワックス −−−−−−− 金属床の原型
496,9,4,5,"器材の写真を別に示す。メタルインレー体をMO窩洞に試適する際に準備するのはどれか。",④
497,9,3,5,"オフィスブリーチ法で正しいのはどれか。",光照射器を用いて漂白剤を活性化させる。
498,9,1,3,"27歳の女性。妊娠8か月である。下顎左側臼歯部の咬合痛を主訴として来院した。プロービングを行うために水平位にしたところ、悪心を訴え、冷汗、血圧低下がみられた。正しい対応はどれか。",左を下にした側臥位にする。
499,9,4,2,"80歳の女性。部分床義歯の印象採得のため個人トレーを作製した。模型の写真と個人トレーの写真を別に示す。模型に適合するのはどれか。",②
500,9,4,3,"咬合採得時に必要な器材の写真を別に示す。下顎安静位を利用して咬合高径の決定を行う際に使用する器具はどれか。",②
501,9,5,2,"器具の写真を別に示す。腐骨除去の際に用いるのはどれか。",③
502,9,6,1,"アーチワイヤーをブラケットのスロットに着脱するのに用いるのはどれか。",ユーティリティープライヤー
503,9,7,1,"8歳の男児。下顎右側第一大臼歯が歯髄壊死となり、根管治療を行った。本日、根管充?を行う予定である。準備するのはどれか。",水酸化カルシウム製剤
504,9,8,1,"高齢者の認知機能を評価するのはどれか。",MMSE
505,9,1,3,"82歳の男性。5年前に脳梗塞を起こし麻痺があるため、車椅子を利用している。診療室内移動時の写真を別に示す。義歯作製のための口腔内診査を行うことになった。デンタルチェアに移乗する際の介助で正しいのはどれか。",患者の左足を軸にしてデンタルチェアへの移乗を行う。
506,6,1,4,"金属アレルギーのパッチテストを受ける患者への注意事項で正しいのはどれか。2つ選べ。",運動を控えるようにする。
507,6,4,4,"SpO<SUB>2</SUB>が90%以下になった場合、考えられるのはどれか。",低酸素
508,9,11,1,"SpO<SUB>2</SUB>が90%以下になった場合、考えられるのはどれか。",低酸素
509,9,11,2,"幼児に対する胸骨圧迫で正しいのはどれか。2つ選べ。",片手で圧迫する場合がある。
510,1,1,7,"大腸に属するのはどれか。",直腸
511,2,1,3,"下顎の発生に関係するのはどれか。",第一鰓弓
512,1,1,5,"脳の正中断面の模式図を示す。矢印が示すのはどれか。",延髄
513,2,1,1,"頭頸部の正中断面の模式図を示す。耳管咽頭孔の開口部はどれか。",①
514,1,2,6,"アクチンとミオシンの作用はどれか。",収縮
515,8,5,1,"プラークのpHを低下させるのはどれか。",スクロース
516,1,2,5,"肺気量の区分を図に示す。肺活量はどれか。",④
517,1,2,7,"神経細胞の活動電位を図に示す。脱分極相はどれか。",②
518,2,1,2,"歯肉炎でみられるのはどれか。",内縁上皮の傷害
519,6,6,2,"歯肉炎でみられるのはどれか。",内縁上皮の傷害
520,3,1,14,"歯肉炎でみられるのはどれか。",内縁上皮の傷害
521,3,1,13,"顎骨内に生じた嚢胞の模式図を示す。矢印で示す上皮の由来はどれか。",マラッセの上皮遺残
522,3,2,4,"IgGの特徴はどれか。",胎盤を通過する。
523,3,2,4,"抗原提示細胞はどれか。",樹状細胞
524,3,2,7,"歯肉縁上プラーク細菌叢の特徴はどれか。",唾液中の炭水化物がエネルギー源である。
525,3,3,2,"薬物の初回通過効果により生じる現象はどれか。",生体利用率の減少
526,3,3,11,"全身性に投与する止血薬はどれか。",ビタミンK
527,4,1,3,"FDI（世界歯科連盟）方式の歯式で、上顎左側第二小臼歯はどれか。",25
528,4,6,1,"口腔清掃状態を評価する指標はどれか。2つ選べ。",OHI
529,4,6,1,"某企業従業員10名の1日の歯磨き回数とCPIコードを表に示す。4mm以上の歯周ポケットを有する者の1日の歯磨き回数の平均はどれか。",2
530,4,7,3,"1歳6か月児歯科健康診査におけるう蝕罹患型O?型で正しいのはどれか。",う蝕がない。
531,4,1,2,"子音と構音器官との組合せで正しいのはどれか。2つ選べ。",パ−−−両唇
532,4,3,1,"「10％ブドウ糖溶液で1分間うがいした場合のプラーク中のpH変動」を図示した人物はどれか。",Stephan
533,4,7,4,"学校歯科健康診断で「歯肉に軽度の炎症症候があるが、歯石沈着は認められず、注意深いブラッシングにより炎症症候が消退するような歯肉の状態である。」と学校歯科医が評価した。健康診断票の所見欄に記入するのはどれか。",GO
534,4,1,4,"唾液の緩衝能を担うのはどれか。2つ選べ。",リン酸塩
535,4,8,5,"新興感染症はどれか。",エイズ
536,4,9,2,"麻薬管理者の免許を受けることができるのはどれか。2つ選べ。",薬剤師
537,4,8,1,"対象者と予防手段との組合せで、第二次予防に該当するのはどれか。2つ選べ。",労働者　−−−−−　一般健康診断
538,4,8,4,"歯科健康診査後に対象者をう歯のある者とない者に分け、過去のフッ化物応用の有無との関連性を調べた。この研究方法はどれか。",患者対照研究
539,4,9,2,"歯科衛生士の独占業務はどれか。2つ選べ。",予防的歯石除去
540,4,8,10,"学校保健で正しいのはどれか。2つ選べ。",教職員の健康診断を実施する。
541,4,9,2,"塩酸を取扱う労働者について、歯科医師による健康診断を義務付けているのはどれか。",労働安全衛生法
542,8,5,1,"日本人の食事摂取基準で、過剰摂取による健康障害を未然に防ぐことを目的とするのはどれか。",耐容上限量
543,8,5,1,"食育基本法に規定されているのはどれか。2つ選べ。",食育推進運動の展開
544,4,9,3,"平成22年の衛生行政報告例による歯科衛生士数で正しいのはどれか。2つ選べ。","就業者数は約103,000人である。"
545,6,2,1,"43歳の女性。下顎右側側切歯の着色を気にして来院した。初診時の口腔内写真を別に示す。着色部の側方拡大に関与しているのはどれか。",エナメル−象牙境
546,9,2,3,"印象材とその特徴との組合せで正しいのはどれか。2つ選べ。",寒天−−−−−−−−−−−−離液
547,9,3,2,"48歳の女性。下顎右側犬歯の着色を気にして来院した。初診時の口腔内写真を別に示す。修復物の形態修正で対応することとした。準備する器具で適切なのはどれか。2つ選べ。",研磨ディスク
548,6,2,1,"歯科用器材の写真を別に示す。用途はどれか。2つ選べ。",歯間分離
549,9,3,6,"フェノール製剤が使用されるのはどれか。",歯髄鎮痛消炎療法
550,9,3,7,"根管の化学的清掃に用いられるのはどれか。2つ選べ。",15％EDTA溶液
551,6,2,3,"歯周組織の再生（regeneration)を目的とするのはどれか。2つ選べ。",GTR法
552,6,2,3,"65歳の男性。歯肉の腫れを訴えて来院した。医師が処方した薬を服用してから顕著になったという。口腔内写真を別に示す。疑われる内科疾患はどれか。",高血圧
553,6,2,3,"55歳の女性。下顎前歯部歯肉の腫れを気にして来院した。2年前に不整脈で心臓ペースメーカーの埋め込み手術を受けているという。初診時の口腔内写真を別に示す。歯周基本治療に使用するのはどれか。",シックルタイプスケーラー
554,6,2,1,"インレー体が脱落した生活歯にコンポジットレジン修復を行うことになった。窩洞形成中の口腔内写真及びコンポジットレジン?塞直前の口腔内写真を別に示す。矢印が示す材料の使用目的はどれか。",歯髄への外来刺激の遮断
555,9,2,4,"セルフエッチングプライマーで正しいのはどれか。",pHは1.5〜3.0である。
556,9,3,3,"セルフエッチングプライマーで正しいのはどれか。",pHは1.5〜3.0である。
557,6,2,1,"セルフエッチングプライマーで正しいのはどれか。",pHは1.5〜3.0である。
558,6,3,1,"下顎印象域に再現されるのはどれか。2つ選べ。",頬棚
559,6,3,2,"人工歯選択で考慮するのはどれか。2つ選べ。",年齢
560,6,3,5,"ブリッジの臼歯支台装置に用いられるのはどれか。2つ選べ。",全部金属冠
561,6,3,3,"40歳の女性。上顎左側側切歯の支台築造予定歯に軟化象牙質が残存していた。メタルコアの窩洞形成を行うときに準備する器具はどれか。2つ選べ。<br />",根管バー
562,6,4,1,"65歳の女性。右側頬粘膜の違和感を主訴として来院した。前日の夕食の際、頬粘膜を咬んで急に膨らんできたという。口腔内写真を別に示す。考えられるのはどれか。",血腫
563,6,4,1,"口腔内に症状が出現するウイルス性疾患はどれか。2つ選べ。",麻疹
564,6,4,1,"下顎骨骨折の好発部位はどれか。2つ選べ。",下顎角部
565,6,5,2,"矯正歯科治療で公的保険の給付対象となるのはどれか。2つ選べ。",唇顎口蓋裂に伴う咬合異常
566,6,5,2,"側面頭部エックス線規格写真のトレース図を示す。①で示す計測項目はどれか。",ANB角
567,9,6,1,"矯正歯科用器具と使用目的との組合せで正しいのはどれか。2つ選べ。",ジャラバック　−−−−−−−　ラウンドワイヤーの　プライヤー　　　　　　　　　　ループ屈曲
568,6,5,2,"矯正歯科治療中の模式図を示す。顎間ゴムの種類はどれか。",垂直ゴム
569,6,6,1,"定型発達を示す小児において、粗大運動とその獲得時期との組合せで正しいのはどれか。2つ選べ。",お座り−−−−−−生後6〜7か月
570,6,6,3,"定型発達を示す小児において、粗大運動とその獲得時期との組合せで正しいのはどれか。2つ選べ。",お座り−−−−−−生後6〜7か月
571,6,8,3,"自閉症児の歯科診療の対応で適切なのはどれか。",視覚素材を使用する。
572,6,6,3,"自閉症児の歯科診療の対応で適切なのはどれか。",視覚素材を使用する。
573,6,6,2,"3歳の女児。歯科健康診査で舌小帯の異常を指摘されて来院した。初診時の舌突出時の写真を別に示す。考えられる問題はどれか。",構音障害
574,6,8,1,"国際生活機能分類（ＩＣＦ）の概念図を示す。[ ① ]に入る語句はどれか。",参加
575,6,8,3,"障害者の歯科治療で応用される行動変容のなかで、レスポンデント技法に分類されるのはどれか。",脱感作法
576,6,6,3,"障害者の歯科治療で応用される行動変容のなかで、レスポンデント技法に分類されるのはどれか。",脱感作法
577,4,9,4,"介護保険における要支援1、要支援2と判定された者が利用できるのはどれか。2つ選べ。",介護予防通所介護
578,6,8,1,"周産期の異常で生じるのはどれか。",脳性麻痺
579,7,1,3,"45歳の女性。歯の着色を気にして来院した。口腔内写真を別に示す。着色の原因と考えられるのはどれか。",乳幼児期の薬物服用
580,6,7,2,"根面う蝕のリスクを高めるのはどれか。2つ選べ。",シェーグレン症候群
581,6,4,1,"根面う蝕のリスクを高めるのはどれか。2つ選べ。",シェーグレン症候群
582,7,3,1,"根面う蝕のリスクを高めるのはどれか。2つ選べ。",シェーグレン症候群
583,7,2,2,"エックス線写真を別に示す。観察できるのはどれか。2つ選べ。",歯根膜腔拡大
584,6,2,3,"エックス線写真を別に示す。観察できるのはどれか。2つ選べ。",歯根膜腔拡大
585,6,1,2,"エックス線写真を別に示す。観察できるのはどれか。2つ選べ。",歯根膜腔拡大
586,7,1,3,"エックス線写真を別に示す。観察できるのはどれか。2つ選べ。",歯根膜腔拡大
587,7,2,4,"スケーリング中に行うシャープニングで最も適した砥石はどれか。",セラミックストーン
588,9,1,6,"スケーリング中に歯周ポケット内でスケーラーが破折した。最初に行うのはどれか。",破折片を確認する。
589,7,2,4,"スケーリング中に歯周ポケット内でスケーラーが破折した。最初に行うのはどれか。",破折片を確認する。
590,7,2,4,"グレーシータイプキュレットと使用部位との組合せで正しいのはどれか。",＃13−−−下顎左側第一小臼歯頬側遠心
591,7,2,2,"歯周ポケットプロービング時の模式図を示す。プローブの目盛りは1mmである。アタッチメントレベルの5年間の変化で正しいのはどれか。",1mmのアタッチメントロス
592,7,2,4,"歯石除去時のグレーシータイプキュレットと歯面の図を示す。操作角度で正しいのはどれか。",③
593,7,2,4,"ユニバーサルタイプキュレットで正しいのはどれか。2つ選べ。",全ての歯面で使用可能である。
594,7,2,5,"重曹粉末噴射歯面清掃器を使用できるのはどれか。",心臓ペースメーカー装着の患者
595,7,2,5,"ルートプレーニングで除去するのはどれか。",病的セメント質
596,7,2,5,"PMTCで使用する器材の写真を別に示す。使用順序で正しいのはどれか。",④→②→③→①
597,7,2,4,"第一大臼歯頬側面に超音波スケーラーを使用している写真を別に示す。正しいのはどれか。",②
598,7,3,2,"う蝕活動性試験の目的で正しいのはどれか。2つ選べ。",予防処置方針の決定
599,7,3,2,"プラークを検体とするう蝕活動性試験はどれか。",カリオスタット<SUP>?</SUP>
600,7,3,3,"体重20kgの男児。急性中毒を引き起こす2％フッ化ナトリウム溶液の最小量はどれか。",4.4mL
601,7,3,4,"Bis-GMA系?塞材による小窩裂溝?塞法の術式で正しいのはどれか。2つ選べ。",ラバーダム防湿を行う。
602,8,1,2,"歯科保健活動による小学校全児童の健康レベルの変化のパターンを図に示す。実施したのはどれか。2つ選べ。",う蝕予防のためのフッ化物洗口
603,8,7,1,"歯科保健活動による小学校全児童の健康レベルの変化のパターンを図に示す。実施したのはどれか。2つ選べ。",う蝕予防のためのフッ化物洗口
604,8,1,1,"医療面接で適切なのはどれか。2つ選べ。",患者の訴えをよく聴く。
605,8,1,1,"[　　]に入る語句の組合せで正しいのはどれか。[&nbsp;① ]において、「ヘルスプロモーションとは、人々が、自らの健康をコントロールし、改善することを増大させようとする[ ② ]」とした。",①オタワ憲章　　　　　　②プロセス
606,4,9,4,"地域支援事業の介護予防事業はどれか。",栄養改善
607,4,7,2,"健康に関わる法律を示す。施行された順で正しいのはどれか。①歯科口腔保健の推進に関する法律②母子保健法③健康増進法",②→③→①
608,4,9,2,"健康に関わる法律を示す。施行された順で正しいのはどれか。①歯科口腔保健の推進に関する法律②母子保健法③健康増進法",②→③→①
609,9,6,1,"6歳の男児。矯正歯科治療中である。上顎前方牽引装置装着時の指導を行うことになった。口腔外装置の写真、口腔内装置の写真及び口腔内写真を別に示す。装置の取扱いの説明で正しいのはどれか。",ゴムリングは定期的に交換する。
610,8,3,2,"6歳の男児。矯正歯科治療中である。上顎前方牽引装置装着時の指導を行うことになった。口腔外装置の写真、口腔内装置の写真及び口腔内写真を別に示す。男児への指導で正しいのはどれか。2つ選べ。",スクラビング法を指導する。
611,8,3,3,"6歳の女児。定期健康診査を希望して母親と来院した。歯磨きは1日2回歯ブラシを用いて本人が行っているという。口腔内写真を別に示す。歯科保健指導で適切なのはどれか。2つ選べ。<br />",母親による仕上げ磨き
612,8,2,1,"P?I（Silness &amp; L?e）と診査対象歯が全て同じなのはどれか。",GI
613,8,1,1,"22歳の女性。ブラッシング時に出血と痛みがあり、歯肉に違和感があるとのことで来院した。口腔内写真を別に示す。PCRは75％、BOP率は25％であった。客観的情報はどれか。2つ選べ。",歯肉の発赤
614,8,2,1,"オーラルディアドコキネシスで正しいのはどれか。",舌、口唇および軟口蓋の巧緻性を評価する。
615,8,6,2,"オーラルディアドコキネシスで正しいのはどれか。",舌、口唇および軟口蓋の巧緻性を評価する。
616,8,6,3,"オーラルディアドコキネシスで正しいのはどれか。",舌、口唇および軟口蓋の巧緻性を評価する。
617,8,5,1,"平成22年国民健康・栄養調査における年齢階級別の野菜類、穀類、肉類および乳類の摂取量を図に示す。野菜類の摂取量はどれか。",①
618,6,8,4,"ベッド上での食事の姿勢を図に示す。安全な摂食姿勢はどれか。",④
619,8,5,3,"ベッド上での食事の姿勢を図に示す。安全な摂食姿勢はどれか。",④
620,8,2,1,"8か月の乳児。保護者が離乳食を与えている様子を観察した。下線部で不適切なのはどれか。<U>①丸み(くぼみ)のあるスプーンに</U>離乳食を一口分とり、<U>②舌前方にスプーンをあて</U>、<U>③上唇が閉じるのを待って</U>、離乳食を<U>④上顎にこすりつけながらスプーンを引き上げている</U>。",④
621,8,4,1,"8か月の乳児。保護者が離乳食を与えている様子を観察した。下線部で不適切なのはどれか。<U>①丸み(くぼみ)のあるスプーンに</U>離乳食を一口分とり、<U>②舌前方にスプーンをあて</U>、<U>③上唇が閉じるのを待って</U>、離乳食を<U>④上顎にこすりつけながらスプーンを引き上げている</U>。",④
622,4,7,3,"8か月の乳児。保護者が離乳食を与えている様子を観察した。下線部で不適切なのはどれか。<U>①丸み(くぼみ)のあるスプーンに</U>離乳食を一口分とり、<U>②舌前方にスプーンをあて</U>、<U>③上唇が閉じるのを待って</U>、離乳食を<U>④上顎にこすりつけながらスプーンを引き上げている</U>。",④
623,9,1,7,"滅菌温度が高い順で正しいのはどれか。①ガス滅菌　②乾熱滅菌　③高圧蒸気滅菌",②＞③＞①
624,9,1,5,"始業前の点検で、歯科用ユニット付属の無影灯は点灯し、スピットンの洗浄水は流れたが、エアスケーラーが作動しなかった。確認するのはどれか。2つ選べ。",エアコンプレッサー
625,9,10,2,"口腔内写真を別に示す。下顎右側第二小臼歯の口内法エックス線写真を撮影することになった。正しいのはどれか。",患者の左手第2指でフィルムを保持してもらう。
626,9,3,6,"暫間的間接覆髄法で、処置と薬剤・材料との組合せで正しいのはどれか。",窩洞の消毒・清掃−−0.5％次亜塩素酸ナトリウム溶液
627,9,6,3,"矯正装置が装着された下顎模型写真を別に示す。矢印が示すのはどれか。",エラストメリックモジュール
628,9,11,2,"ハイムリック法の図を示す。一次救命処置の流れで、この処置が必要となるのはどれか。",気道の確保
629,6,6,4,"ハイムリック法の図を示す。一次救命処置の流れで、この処置が必要となるのはどれか。",気道の確保
630,9,2,4,"コンポジットレジン修復で、直接法と比較して間接法の長所はどれか。2つ選べ。",耐摩耗性が高い。
631,6,2,3,"歯周組織検査器具の写真を別に示す。②を使用する歯はどれか。",下顎右側第一大臼歯
632,9,1,3,"観血処置後の止血に注意が必要な疾患はどれか。2つ選べ。",狭心症
633,9,2,2,"合着あるいは接着材の種類と性質との組合せで正しいのはどれか。2つ選べ。",接着性レジンセメント−−−−−−−唾液溶解性が少ない。
634,9,3,1,"器材の写真を別に示す。歯間分離に用いられるのはどれか。2つ選べ。",②
635,9,4,3,"全部床義歯製作過程における製作物の写真を別に示す。これを用いて垂直的顎間関係を記録する器具はどれか。2つ選べ。",ノギス
636,9,10,1,"6歳の男児。上顎正中過剰埋伏歯の疑いでエックス線撮影をすることになった。撮影準備で正しいのはどれか。",男児に甲状腺防護カラーを装着する。
637,9,3,5,"オフィスブリーチ法に使用しないのはどれか。",過ホウ酸ナトリウム
638,9,2,2,"61歳の男性。下顎小臼歯欠損のため、補綴装置を製作した。口腔内写真と補綴装置の写真とを別に示す。装着に適しているのはどれか。",レジンセメント
639,9,6,1,"抜歯鉗子の手渡しの状態の写真を別に示す。正しいのはどれか。",①
640,9,1,4,"抜歯鉗子の手渡しの状態の写真を別に示す。正しいのはどれか。",①
641,9,8,1,"嚥下内視鏡検査（VE検査）で確認できるのはどれか。",喉頭残留
642,9,9,1,"嚥下内視鏡検査（VE検査）で確認できるのはどれか。",喉頭残留
643,1,1,3,"副鼻腔があるのはどれか。",前頭骨
644,2,1,1,"副鼻腔があるのはどれか。",前頭骨
645,2,1,2,"シャーピー線維が入り込むのはどれか。",セメント質
646,2,1,1,"頭蓋の外側面の写真を別に示す。矢印が示すのはどれか。",茎状突起
647,8,5,1,"脂溶性ビタミンはどれか。2つ選べ。",ビタミンA
648,1,2,11,"カルシトニンで正しいのはどれか。",甲状腺から分泌される。
649,2,2,1,"味覚の基本味に含まれないのはどれか。",渋味
650,1,2,3,"赤血球で正しいのはどれか。",ヘモグロビンを含む。
651,3,1,3,"心臓の冠状動脈の模式図を示す。矢印は血栓を示す。斜線部の領域にみられるのはどれか。",梗塞
652,3,1,9,"歯の異常と好発部位との組合せで誤っているのはどれか。",カラベリー結節−−−下顎第二小臼歯
653,3,1,17,"エナメル上皮腫の特徴はどれか。",骨吸収を伴う。
654,3,1,7,"[　　]に入る語句の組合せで正しいのはどれか。花粉症は[ ① ]アレルギーに分類され、[ ② ]が関係する。",①アナフィラキシー型　　②IgE
655,3,2,8,"バイオフィルムの特徴で正しいのはどれか。",細菌は他の菌種と情報交換して増殖する。
656,3,3,7,"局所麻酔薬の効力が増強されるのはどれか。",血管収縮薬の配合
657,3,3,11,"ε-アミノカプロン酸の作用はどれか。",止血
658,3,3,4,"薬物の保存の写真を別に示す。細菌の混入を防ぐ目的のものはどれか。",③
659,4,6,1,"歯科健診の結果を表に示す。DMFT指数はどれか。",7
660,4,3,3,"う蝕の第一次予防でフッ化物局所応用に用いられるのはどれか。2つ選べ。",フッ化第一スズ
661,4,2,3,"歯磨剤の基本成分はどれか。",グリセリン
662,4,9,2,"健康増進法に基づいて実施するのはどれか。",歯周疾患検診
663,2,1,1,"大唾液腺の開口部に近接する歯はどれか。2つ選べ。",下顎中切歯
664,4,3,3,"上顎切歯部に歯のフッ素症がみられた。フッ化物が影響した時期はどれか。",出生時〜3歳
665,4,3,1,"ミュータンスレンサ球菌によるグルカン産生の基質となるのはどれか。",ショ糖
666,3,2,8,"ミュータンスレンサ球菌によるグルカン産生の基質となるのはどれか。",ショ糖
667,4,8,3,"酸性雨の原因物質はどれか。2つ選べ。",二酸化窒素
668,4,8,6,"メタボリックシンドロームの判定で用いられるのはどれか。2つ選べ。",腹囲
669,4,8,11,"メタボリックシンドロームの判定で用いられるのはどれか。2つ選べ。",腹囲
670,4,9,4,"健康保険法で正しいのはどれか。",事業主は保険料を負担する。
671,4,8,9,"母子健康手帳で正しいのはどれか。2つ選べ。",妊娠中と産後の歯の状態の記入欄がある。
672,4,8,2,"我が国の主要死因別にみた死亡率（人口10万対）の推移を図に示す。矢印が示すのはどれか。",悪性新生物
673,4,9,3,"病院、有床一般（医科）診療所、無床一般（医科）診療所および歯科診療所の数の推移を図に示す。歯科診療所はどれか。",②
674,4,9,2,"受動喫煙防止を規定しているのはどれか。",健康増進法
675,8,6,2,"介護予防事業で用いられる基本チェックリストの一部を示す。（　　）に入るのはどれか。",渇き
676,6,7,2,"介護予防事業で用いられる基本チェックリストの一部を示す。（　　）に入るのはどれか。",渇き
677,8,2,1,"介護予防事業で用いられる基本チェックリストの一部を示す。（　　）に入るのはどれか。",渇き
678,8,5,1,"不飽和脂肪酸を多く含むのはどれか。2つ選べ。",魚油
679,8,5,1,"ビタミンと欠乏症との組合せで正しいのはどれか。",ビタミンC −−−壊血病
680,5,1,4,"医療倫理と宣言との組合せで正しいのはどれか。2つ選べ。",医の倫理−−−−ジュネーブ宣言
681,6,2,1,"53歳の女性。下顎左側臼歯部の修復物脱落と軽度の冷水痛とを訴えて来院した。初診時の口腔内写真を別に示す。本症例にメタルインレー修復を施すこととした。最初に準備する器具はどれか。",ラウンドバー
682,9,3,1,"53歳の女性。下顎左側臼歯部の修復物脱落と軽度の冷水痛とを訴えて来院した。初診時の口腔内写真を別に示す。本症例にメタルインレー修復を施すこととした。最初に準備する器具はどれか。",ラウンドバー
683,9,3,7,"根管充?材としてのガッタパーチャポイントの長所はどれか。",化学的安定性がある。
684,6,1,2,"検査時の口腔内写真を別に示す。得られる情報はどれか。",隣接面う蝕
685,3,1,13,"急性化膿性根尖性歯周炎で瘻孔形成に至る経路で正しいのはどれか。",歯根膜→歯槽骨→骨膜→粘膜
686,9,3,7,"歯根膜と口腔粘膜との間の電気抵抗値が一定であることを応用して検査するのはどれか。",根管長
687,6,4,2,"根尖切除法の術式で正しいのはどれか。",切開→粘膜剥離→根尖部切除→逆根管充?→縫合
688,6,2,3,"咬合性外傷の症状はどれか。2つ選べ。",歯根膜腔の拡大
689,7,1,3,"口腔内写真を別に示す。矢印の示す形態からわかるのはどれか。",臨床的正常歯肉
690,7,2,2,"口腔内写真を別に示す。矢印の示す形態からわかるのはどれか。",臨床的正常歯肉
691,6,2,1,"コンポジットレジン修復の前準備を行った口腔内写真を別に示す。この前準備の目的はどれか。2つ選べ。",防湿の確保
692,6,2,1,"上顎中切歯の歯頸部う蝕にコンポジットレジン修復を行っている口腔内写真を別に示す。矢印の器具の使用目的はどれか。",歯肉の排除
693,9,2,4,"光重合レジンの硬化深度に影響するのはどれか。",レジンの透明度
694,6,2,1,"光重合レジンの硬化深度に影響するのはどれか。",レジンの透明度
695,9,4,1,"水平的顎間関係が記録できるのはどれか。",ゴシックアーチの描記
696,9,4,3,"水平的顎間関係が記録できるのはどれか。",ゴシックアーチの描記
697,6,3,1,"水平的顎間関係が記録できるのはどれか。",ゴシックアーチの描記
698,9,4,5,"全部金属冠装着時に準備する器材はどれか。2つ選べ。",咬合紙
699,6,3,5,"上顎前歯部に適したポンティックの形態はどれか。2つ選べ。",オベイト型
700,6,1,3,"63歳の男性。下顎舌側の膨隆を気にして来院した。口腔内写真を別に示す。エックス線撮影を行うことになった。適切と考えられる撮影法はどれか。",咬合法
701,6,4,2,"36歳の男性。下顎右側埋伏智歯を抜歯した際、下歯槽神経血管束が露出した。術後、下唇に生じる可能性があるのはどれか。",知覚鈍麻
702,6,4,2,"61歳の男性。舌右側の痛みを訴えて来院した。口腔内写真を別に示す。舌癌と診断され、舌部分切除術が予定された。予想される術後の障害はどれか。2つ選べ。",嚥下
703,6,4,5,"病院内の廊下で倒れている人を発見した。最初に行うのはどれか。",意識の確認
704,6,5,1,"口腔習癖について正しいのはどれか。2つ選べ。",不正咬合の一要因である。
705,6,5,3,"機能的矯正装置の写真を別に示す。この装置はどれか。",バイオネーター
706,6,5,2,"矯正歯科用材料と矯正力との組合せで正しいのはどれか。",アーチワイヤー−−−−持続的矯正力
707,6,6,1,"小児の発育評価で用いられるカウプ指数で正常と判断されるのはどれか。",16
708,6,6,2,"先天歯が原因となるのはどれか。",リガ・フェーデ病
709,6,6,1,"恐れの感情が現れる時期はどれか。",生後6か月ころ
710,6,8,2,"ダウン症候群の特徴で正しいのはどれか。",短根歯
711,4,9,4,"障害者に対する社会福祉の基本理念はどれか。",ノーマライゼーション
712,7,1,2,"70歳の女性。中等度の歯周疾患で、歯周治療を開始することになった。糖尿病で服薬治療を受けている。SRPで注意すべきことはどれか。2つ選べ。",感染
713,6,1,1,"70歳の女性。中等度の歯周疾患で、歯周治療を開始することになった。糖尿病で服薬治療を受けている。SRPで注意すべきことはどれか。2つ選べ。",感染
714,7,2,1,"70歳の女性。中等度の歯周疾患で、歯周治療を開始することになった。糖尿病で服薬治療を受けている。SRPで注意すべきことはどれか。2つ選べ。",感染
715,6,7,4,"低栄養の指標とならないのはどれか。",γ-グロブリン値
716,7,2,6,"SPTにおいて歯科衛生士が行うのはどれか。2つ選べ。",SRP
717,6,6,2,"歯周炎の増悪因子はどれか。2つ選べ。",根面溝
718,7,1,1,"歯周炎の増悪因子はどれか。2つ選べ。",根面溝
719,7,2,1,"歯周炎の増悪因子はどれか。2つ選べ。",根面溝
720,7,2,4,"40歳の女性。歯の着色を気にして来院した。口腔内写真を別に示す。使用しないのはどれか。",ジェット水流洗口器
721,6,1,2,"エックス線写真を別に示す。観察できるのはどれか。",歯槽骨の吸収
722,7,1,3,"エックス線写真を別に示す。観察できるのはどれか。",歯槽骨の吸収
723,6,2,3,"エックス線写真を別に示す。観察できるのはどれか。",歯槽骨の吸収
724,7,2,2,"エックス線写真を別に示す。観察できるのはどれか。",歯槽骨の吸収
725,7,1,1,"歯科予防処置の内容で正しいのはどれか。2つ選べ。",歯面に白濁のある患者へのフッ化物歯面塗布
726,7,2,1,"歯周治療を行うことで改善が期待される疾患はどれか。",糖尿病
727,7,2,2,"歯周プローブとポケット測定時の写真を示す。PPDはどれか。",7mm
728,7,2,2,"<font color=""red"">※採点除外問題</font>BOPでわかるのはどれか。",付着の喪失
729,7,2,2,"プロービングで正しいのはどれか。",ウォーキングストロークで操作する。
730,7,2,4,"上顎前歯部用のグレーシータイプキュレットの写真を別に示す。深く狭いポケット部のルートプレーニングに適しているのはどれか。",③
731,7,2,4,"グレーシータイプキュレット操作の写真を別に示す。歯面と操作角度で正しいのはどれか。",②
732,7,2,4,"シャープニングにおけるグレーシータイプキュレットと砥石との位置関係の写真を別に示す。正しい角度はどれか。",③
733,7,3,5,"小学校低学年の児童に対してフッ化物洗口を実施することになった。使用する洗口液のフッ素イオン濃度と量との組合せで正しいのはどれか。",900ppm−−−−5mL
734,7,2,4,"超音波スケーリングが効果的なのはどれか。",智歯周囲炎
735,7,3,3,"リン酸酸性フッ化ナトリウム溶液塗布に際しての注意事項で正しいのはどれか。2つ選べ。",溜まった唾液は飲み込まないようにしましょう。
736,7,3,2,"う蝕活動性試験の結果を表に示す。評価で正しいのはどれか。",宿主要因のう蝕活動性が高い。
737,7,3,3,"小学校におけるフッ化物洗口法で正しいのはどれか。2つ選べ。",教職員の監督下で行う。
738,7,3,4,"器具の写真を別に示す。下顎左側第一大臼歯の小窩裂溝?塞法に使用しないのはどれか。",①
739,8,4,2,"禁煙支援における喫煙者の行動変容を図に示す。正しい組合せはどれか。",①無関心期　　②準備期　　　③維持期
740,8,4,2,"50歳の男性。喫煙しており、今は禁煙を考えていないという。禁煙指導を行うことになった。初回の指導で適切なのはどれか。",歯周病と喫煙との関連性を説明する。
741,8,2,1,"4歳の男児の母親に対して歯科保健指導を行った。う蝕リスクを指標としたレーダーチャートを図に示す。効果のあった内容はどれか。2つ選べ。",おやつ指導
742,8,3,2,"55歳男性。歯周治療を希望して来院した。口腔内写真を別に示す。ブラッシング指導で適切なのはどれか。2つ選べ。",歯間ブラシを併用する。
743,8,2,1,"歯に現れる加齢変化はどれか。2つ選べ。",咬耗
744,8,3,3,"部分床義歯の写真を別に示す。義歯清掃時に注意する部位はどれか。2つ選べ。",③
745,8,1,1,"プライマリーヘルスケアはどれか。2つ選べ。",地域住民への一次医療を充実する。
746,8,3,3,"45歳の女性。口臭を主訴として来院した。1日2〜3回歯ブラシとフロスで口腔清掃を行っており、PCRは4.5％である。官能検査で認知閾値を超える口臭はなかった。初回の歯科保健指導で適切なのはどれか。2つ選べ。",口臭の原因について説明する。
747,8,2,1,"口腔内写真を別に示す。観察できるのはどれか。2つ選べ。",フェストゥーン
748,8,2,1,"日常生活動作（ADL）の判定基準項目はどれか。2つ選べ。",食事
749,6,7,2,"日常生活動作（ADL）の判定基準項目はどれか。2つ選べ。",食事
750,8,6,3,"摂食・嚥下の過程で口腔期に障害のある患者に対する摂食機能訓練で適切なのはどれか。",舌訓練
751,8,2,1,"キシリトールの特徴で正しいのはどれか。2つ選べ。",砂糖と同程度の甘味度をもつ。
752,8,5,1,"キシリトールの特徴で正しいのはどれか。2つ選べ。",砂糖と同程度の甘味度をもつ。
753,8,5,3,"<font color=""red"">※採点除外問題</font>片側性顔面神経麻痺の患者に観察される口腔状態で正しいのはどれか。2つ選べ。",食物残渣が健側に多く残る。
754,9,1,6,"下顎の完全埋伏智歯の抜歯術に使用したバキュームチップの感染リスクレベルはどれか。",高リスク
755,9,5,2,"器具の受け渡しで正しいのはどれか。",破骨鉗子はパームグリップで把持できるように手渡す。
756,9,1,4,"器具の受け渡しで正しいのはどれか。",破骨鉗子はパームグリップで把持できるように手渡す。
757,9,5,2,"18歳の女性。正中離開を主訴に受診した。口腔内写真を別に示す。上唇小帯を切除することになった。必要な器具はどれか。2つ選べ。",メス
758,6,1,4,"疾患と検査との組合せで正しいのはどれか。",蜂窩織炎−−−C反応性タンパク
759,9,3,7,"根管充?の側方加圧法において、用途と器具との組合せで正しいのはどれか。",マスターポイントの側方加圧−−−スプレッダー
760,9,3,7,"感染根管治療で使用される有機質溶解剤はどれか。",NaOCl
761,9,2,3,"上顎の印象体の写真を別に示す。この印象材で正しいのはどれか。2つ選べ。",練和時の水温は硬化時間に影響する。
762,9,3,6,"9歳の男児。上顎右側中切歯の窩洞形成中に、偶発的に露髄し、直接覆髄を行うことになった。露髄面に適用するのはどれか。",水酸化カルシウム製剤
763,6,1,2,"写真を別に示す。クリック音を聴診する位置で正しいのはどれか。",①
764,9,4,1,"写真を別に示す。クリック音を聴診する位置で正しいのはどれか。",①
765,4,9,4,"介護保険制度で、介護予防対象者への口腔機能向上サービスを担当する専門職種はどれか。2つ選べ。",歯科衛生士
766,9,4,3,"全部床義歯製作過程で、チェックバイト法に使用する材料はどれか。2つ選べ。",石膏
767,9,4,2,"床義歯製作過程の筋圧形成で正しいのはどれか。2つ選べ。",義歯床縁形態を得る。
768,9,5,2,"70歳の男性。上顎の義歯を製作する予定であるが、口蓋隆起を除去することになった。器具の写真を別に示す。使用する器具はどれか。2つ選べ。",②
769,9,1,3,"気管支喘息患者の歯科治療時の対応で正しいのはどれか。2つ選べ。",エアロゾルの吸引を十分に行う。
770,9,7,1,"8歳の女児。てんかんの治療中で、口腔内に歯肉増殖が認められた。服用していると思われるのはどれか。",フェニトイン
771,9,6,1,"8歳の男児。上顎前突の治療のためにヘッドギアを装着することになった。指導で誤っているのはどれか。",自分で牽引力を調整させる。
772,9,1,6,"アクシデントはどれか。2つ選べ。",スケーラーで充?物をはずしてしまった。
773,5,1,6,"職種と業務との組合せで正しいのはどれか。2つ選べ。",言語聴覚士−−−摂食機能療法
774,2,1,2,"第一大臼歯の咬合面を模式図に示す。○は咬頭頂である。部位はどれか。",下顎右側
775,2,1,1,"固有口腔にあるのはどれか。",舌小帯
776,1,1,2,"門脈が注ぐのはどれか。",肝臓
777,1,2,4,"門脈が注ぐのはどれか。",肝臓
778,2,1,1,"頭蓋骨側面の写真を別に示す。矢印が示す部位に付着するのはどれか。",咬筋
779,2,2,2,"硬組織の石灰化度の時間経過に伴う変化を図に示す。この硬組織はどれか。",エナメル質
780,1,2,10,"腎臓のネフロンの一部を模式図に示す。血液がろ過される領域はどれか。",①
781,1,2,3,"一次止血の過程で活性化されるのはどれか。",血小板
782,1,2,6,"咀嚼時の筋電図と垂直方向の下顎運動の軌跡とを図に示す。記録しているのはどれか。",顎二腹筋
783,2,2,1,"咀嚼時の筋電図と垂直方向の下顎運動の軌跡とを図に示す。記録しているのはどれか。",顎二腹筋
784,3,1,9,"歯の形の異常を模式図に示す。矢印は歯髄を示す。正しいのはどれか。",癒着歯
785,3,1,6,"炎症の開始から終息までの過程を図に示す。正しい組合せはどれか。",①血管拡張　②滲出　　　③肉芽組織
786,3,2,1,"原核生物はどれか。",細菌
787,3,2,11,"血液寒天培地上に発育した細菌の集落像の写真を別に示す。考えられるのはどれか。",Porphyromonas gingivalis
788,3,1,7,"金属アレルギーはどれか。",Ⅳ型アレルギー
789,3,3,2,"薬物血中濃度時間曲線を図に示す。生物学的半減期はどれか。",3時間
790,3,3,9,"アスピリンの作用はどれか。",鎮痛
791,4,2,5,"歯垢染色剤に使われる色素はどれか。2つ選べ。",フロキシン
792,8,2,1,"歯垢染色剤に使われる色素はどれか。2つ選べ。",フロキシン
793,4,7,3,"3歳児歯科健康診査において、下顎前歯部のみにう蝕がみられた。う蝕罹患型はどれか。",C1型
794,4,2,3,"歯磨剤の薬用成分はどれか。2つ選べ。",トリクロサン
795,4,4,1,"歯科疾患実態調査結果から、ある項目の年齢階級別の年次推移を図に示す。この項目はどれか。",20歯以上保有者率
796,4,6,4,"歯科疾患実態調査結果から、ある項目の年齢階級別の年次推移を図に示す。この項目はどれか。",20歯以上保有者率
797,4,1,2,"摂食・嚥下の過程を図に示す。正しい組合せはどれか。",①先行期　②口腔期　③咽頭期
798,4,4,1,"CPIコード1の者への対応はどれか。",ブラッシング指導
799,4,3,3,"歯のフッ素症で正しいのはどれか。2つ選べ。",左右対称にみられる。
800,4,8,8,"ある集団へPCRの改善を目的に歯磨き指導を実施した。PCRの度数分布を指導前は点線で、指導後は実線で示す。ポピュレーションアプローチの効果があったのはどれか。",①
801,8,1,2,"ある集団へPCRの改善を目的に歯磨き指導を実施した。PCRの度数分布を指導前は点線で、指導後は実線で示す。ポピュレーションアプローチの効果があったのはどれか。",①
802,4,8,2,"国勢調査で正しいのはどれか。2つ選べ。",基幹統計調査である。
803,4,8,3,"このマークが示すのはどれか。",感染性廃棄物
804,4,8,5,"節足動物の媒介により感染するのはどれか。",日本脳炎
805,4,8,8,"二次医療圏を単位として整備されるのはどれか。",保健所
806,4,8,12,"トータル・ヘルスプロモーション・プラン〈THP〉で行われるのはどれか。2つ選べ。",保健指導
807,4,9,2,"医療法を根拠とするのはどれか。2つ選べ。",院内感染対策の実施
808,4,9,4,"40歳の会社員に健康保険で診療を行った。医療機関が徴収する一部負担金の割合はどれか。",3割
809,1,2,11,"小腸からのカルシウムの吸収を促進するのはどれか。",ビタミンD
810,8,5,1,"平成19年以降の国民健康・栄養調査の結果で正しいのはどれか。2つ選べ。",食塩の摂取量は減少している。
811,5,1,3,"歯科衛生業務のプロセスを図に示す。正しい組合せはどれか。",①情報収集　②計画立案　③評価
812,6,1,3,"咬翼法撮影の対象とするのはどれか。2つ選べ。",歯石
813,9,10,4,"エックス線防護用エプロンに使用されるのはどれか。",鉛
814,9,1,7,"スケーラーの滅菌に用いられないのはどれか。",乾熱滅菌
815,9,11,1,"バイタルサインはどれか。2つ選べ。",体温
816,6,2,3,"上顎右側中切歯の口腔内写真を別に示す。歯周組織検査の結果、プロービングデプス、アタッチメントレベルともに2㎜であった。口腔内写真に参考となる測定値を示す。臨床的付着歯肉幅はどれか。",3㎜
817,6,1,2,"上顎右側中切歯の口腔内写真を別に示す。歯周組織検査の結果、プロービングデプス、アタッチメントレベルともに2㎜であった。口腔内写真に参考となる測定値を示す。臨床的付着歯肉幅はどれか。",3㎜
818,6,2,1,"36歳の女性。上顎右側小臼歯部の冷水痛を訴えて来院した。歯髄電気診、打診に異常な反応を認めない。コンポジットレジン修復を行うこととした。初診時の口腔内写真と窩洞整理後の口腔内写真とを別に示す。処置時に必要なのはどれか。2つ選べ。",マトリックス
819,9,3,3,"36歳の女性。上顎右側小臼歯部の冷水痛を訴えて来院した。歯髄電気診、打診に異常な反応を認めない。コンポジットレジン修復を行うこととした。初診時の口腔内写真と窩洞整理後の口腔内写真とを別に示す。処置時に必要なのはどれか。2つ選べ。",マトリックス
820,9,3,1,"36歳の女性。上顎右側小臼歯部の冷水痛を訴えて来院した。歯髄電気診、打診に異常な反応を認めない。コンポジットレジン修復を行うこととした。初診時の口腔内写真と窩洞整理後の口腔内写真とを別に示す。処置時に必要なのはどれか。2つ選べ。",マトリックス
821,6,2,1,"光重合型コンポジットレジン修復における積層充?法の特徴はどれか。",深部の重合率を向上できる。
822,6,2,2,"可逆性の歯髄疾患はどれか。2つ選べ。",歯髄充血
823,6,2,2,"根未完成歯に対し歯根の成長を期待する治療法はどれか。2つ選べ。",生活断髄法
824,6,2,2,"7歳の男児。学校で転倒し顔面を強打し、上顎右側中切歯が脱落したと電話があった。脱落した歯を再植可能か判断するために持ってくるように指示した。来院まで歯を保存する液として適切なのはどれか。2つ選べ。",牛乳
825,6,2,3,"46歳の女性。口腔の乾燥と歯肉の腫脹を訴え来院した。初診時の口蓋側面観の口腔内写真を別に示す。矢印が示す徴候の原因で考えられるのはどれか。<br /><br />
<br /><br />",口呼吸
826,6,3,1,"頭蓋顎顔面の矢状面観の図で表示されないのはどれか。",ウィルソンの彎曲
827,6,4,1,"口腔内に装着された金属製クラウンが原因で生じる可能性がある疾患はどれか。",掌蹠膿疱症
828,6,3,1,"口腔内に装着された金属製クラウンが原因で生じる可能性がある疾患はどれか。",掌蹠膿疱症
829,6,3,5,"45歳の女性。下顎左側中切歯が欠損し、ブリッジによる補綴処置を予定している。適用されるポンティックの形態はどれか。",船底型
830,9,4,1,"多数歯にわたるブリッジの平行測定に用いられる器具はどれか。",サベイヤー
831,6,3,5,"多数歯にわたるブリッジの平行測定に用いられる器具はどれか。",サベイヤー
832,9,4,3,"多数歯にわたるブリッジの平行測定に用いられる器具はどれか。",サベイヤー
833,6,4,1,"TNM分類でTが示すのはどれか。",原発腫?の大きさ
834,6,4,1,"54歳の男性。上顎右側の疼痛を訴えて来院した。上顎右側前歯部歯槽膿瘍と診断された。術中写真を別に示す。この目的はどれか。2つ選べ。",内溶液の性状確認
835,9,11,2,"26歳の女性。上顎左側第一大臼歯抜去のため水平位で浸潤麻酔を行ったところ、めまい、脱力感を訴えた。顔面蒼白、冷汗を認め、血圧70/50㎜Hg、脈拍数50回/分であった。適切な対応はどれか。",下肢を拳上する。
836,6,5,1,"不正咬合のうち、歯周病発生のリスクが最も高いのはどれか。",叢生
837,6,5,1,"口腔内写真を別に示す。上顎右側犬歯の位置異常を表すのはどれか。2つ選べ。",低位
838,9,6,2,"側面頭部エックス線規格写真撮影の目的はどれか。2つ選べ。",成長発育の評価
839,6,5,2,"側面頭部エックス線規格写真撮影の目的はどれか。2つ選べ。",成長発育の評価
840,6,5,2,"矯正装置の写真を別に示す。作用する矯正力と作用様式との組合せで正しいのはどれか。",機能的−−−間欠的
841,6,6,1,"通常、成人と比較して小児の方が小さな値を示すのはどれか。",収縮期血圧
842,6,6,2,"哺乳ビンう蝕の発生頻度が高いのはどれか。",上顎乳前歯
843,6,8,1,"脳性麻痺児に多くみられるのはどれか。2つ選べ。",開咬
844,8,3,1,"口腔清掃器具の写真を別に示す。使用する部位はどれか。2つ選べ。",舌背
845,4,8,2,"65歳以上の人口割合が2025年に最も高くなると推計される国はどれか。",日本
846,6,7,1,"65歳以上の人口割合が2025年に最も高くなると推計される国はどれか。",日本
847,6,7,2,"高齢者の加齢変化で増加または上昇がみられるのはどれか。",味覚の閾値
848,4,9,4,"介護保険制度における第2号被保険者はどれか。",40歳以上65歳未満
849,7,2,4,"♯13/14のグレーシータイプキュレットの使用部位はどれか。",24〜27の遠心隣接面
850,7,2,2,"歯周病の検査はどれか。2つ選べ。",唾液潜血検査
851,6,2,3,"歯周病の検査はどれか。2つ選べ。",唾液潜血検査
852,6,1,2,"歯周病の検査はどれか。2つ選べ。",唾液潜血検査
853,7,3,4,"小窩裂溝?塞法の酸処理で正しいのはどれか。",30〜50%の正リン酸を用いる。
854,7,3,3,"フッ素の最小急性中毒量（㎎/㎏）と最小致死量（㎎/㎏）との組合わせで正しいのはどれか。",2 −−−45
855,4,3,3,"フッ素の最小急性中毒量（㎎/㎏）と最小致死量（㎎/㎏）との組合わせで正しいのはどれか。",2 −−−45
856,7,3,5,"フッ化物洗口法の回数とフッ素イオン濃度との組合せで正しいのはどれか。2つ選べ。",毎日法−−−−450ppm
857,7,1,3,"口腔内写真を別に示す。観察できるのはどれか。2つ選べ。",咬耗
858,7,3,4,"小窩裂溝?塞法の適応部位で正しいのはどれか。2つ選べ。",側切歯の盲孔
859,7,2,4,"スケーリングでバックポジションから行う部位はどれか。",下顎右側臼歯部舌側近心
860,7,2,2,"スケーリングでバックポジションから行う部位はどれか。",下顎右側臼歯部舌側近心
861,6,2,3,"歯周基本治療はどれか。2つ選べ。",咬合調整
862,6,2,3,"歯周病のリスクファクターで宿主因子はどれか。2つ選べ。",歯列不正
863,6,2,3,"口腔内写真を別に示す。観察できるのはどれか。2つ選べ。",付着歯肉幅の減少
864,7,1,3,"口腔内写真を別に示す。観察できるのはどれか。2つ選べ。",付着歯肉幅の減少
865,7,2,2,"口腔内写真を別に示す。観察できるのはどれか。2つ選べ。",付着歯肉幅の減少
866,7,2,4,"エキスプローラーの操作により確認できるのはどれか。",歯肉縁下歯石の存在
867,7,2,5,"炭酸水素ナトリウム粉末を用いた噴射歯面清掃器の使用で正しいのはどれか。2つ選べ。",軟組織を防護する。
868,7,2,6,"歯周病のメインテナンスの目的はどれか。2つ選べ。",治癒後の再発予防
869,7,3,5,"フッ化物によるう蝕予防方法で正しいのはどれか。",フッ化物の洗口時間は30秒である。
870,7,3,3,"フッ化物によるう蝕予防方法で正しいのはどれか。",フッ化物の洗口時間は30秒である。
871,7,2,4,"グレーシータイプキュレットのシャープニングで正しいのはどれか。2つ選べ。",内面と砥石のなす角度は110°である。
872,9,1,6,"50歳の男性。HBV抗原は陽性である。SRP中に歯科衛生士が手用スケーラーを指に刺してしまった。最初に行うことはどれか。",流水下で手指を洗浄する。
873,8,1,1,"ある病院で、車椅子の人のためにエレベーター内に鏡を取り付けた。この対応が基づく概念はどれか。",ノーマライゼーション
874,8,1,1,"歯科疾患実態調査における歯ブラシの使用状況の推移を図に示す。①に該当するのはどれか。",「毎日1回みがく者」
875,8,5,3,"妊婦の特徴で正しいのはどれか。2つ選べ。",鉄は優先して胎児に供給される。
876,8,3,3,"10歳の男児。小学校での定期歯科健康診断結果を図に示す。事後措置として適切なのはどれか。",ブラッシング指導
877,8,3,2,"歯面の清掃効果が高いのはどれか。",スクラビング法
878,8,3,2,"60歳の男性。歯肉にやや退縮がみられる。歯科保健指導を行うにあたり歯ブラシを持参してもらった。持参した歯ブラシの写真および歯ブラシの持ち方の写真を別に示す。会話を下に示す。　　歯科衛生士：毛の硬さはどのようなものを選んでいます　　　　　　か。患者：「ふつう」を選んでいます。歯科衛生士：この歯ブラシはどのくらい使っていますか。患者：2か月くらいです。　　必要な指導はどれか。2つ選べ。",ブラッシング圧
879,5,1,3,"初診時に得られた主観的情報〈Subjective data〉はどれか。2つ選べ。",①
880,8,2,1,"初診時に得られた主観的情報〈Subjective data〉はどれか。2つ選べ。",①
881,8,1,1,"初診時に得られた主観的情報〈Subjective data〉はどれか。2つ選べ。",①
882,8,3,2,"（前問題と同じ設定）初回の歯科保健指導で正しいのはどれか。2つ選べ。",硝酸カリウム配合歯磨剤の使用を勧める。
883,8,4,2,"40歳の男性。歯肉の違和感を訴え来院した。20歳の頃から1日20本喫煙しているという。本人は禁煙を希望しているが、試みたことはないという。担当歯科医師から禁煙支援を含めた歯科保健指導を指示された。適切なのはどれか。2つ選べ。",経口禁煙補助薬の情報を提供する。
884,8,6,3,"摂食・嚥下障害の間接訓練はどれか。2つ選べ。",冷圧刺激法
885,8,5,1,"平成22年国民健康・栄養調査の結果を図に示す。グラフが表しているのはどれか。",肥満者の割合
886,4,9,2,"保健に関する事業と法律との組合せで正しいのはどれか。2つ選べ。",就学時健康診断−−学校保健安全法
887,8,1,1,"幼稚園で4歳児20名の集団に対して歯科保健指導を実施することになった。実施計画の項目と内容との組合せで適切なのはどれか。2つ選べ。",現状把握−−−歯科健康診断結果
888,8,7,1,"幼稚園で4歳児20名の集団に対して歯科保健指導を実施することになった。実施計画の項目と内容との組合せで適切なのはどれか。2つ選べ。",現状把握−−−歯科健康診断結果
889,8,7,1,"『「生きる力」をはぐくむ学校での歯・口の健康づくり』における小学校中学年の課題はどれか。2つ選べ。",上顎前歯のむし歯予防と管理
890,9,1,7,"低温プラズマ滅菌の条件で正しいのはどれか。",45℃で45〜105分間
891,9,1,6,"診療用グローブの取扱いで正しいのはどれか。",カルテに触れる時はその都度はずして捨てる。
892,9,2,5,"根管治療でガス排出を必要とする症例に用いられる仮封材はどれか。",サンダラックアルコール
893,9,2,1,"普通石膏と比較して超硬石膏の特徴はどれか。2つ選べ。",混水比が小さい。
894,9,3,9,"歯周外科治療に用いる器材の写真を別に示す。正しいのはどれか。2つ選べ。",色調が均一になるように練和する。
895,6,2,1,"オフィスブリーチ法の術式と使用するものとの組合せで正しいのはどれか。2つ選べ。",歯肉の保護−−−−プロテクトレジン
896,6,2,1,"器材の写真を別に示す。即時歯間分離法で用いるのはどれか。",②
897,9,4,1,"器具の写真を別に示す。この器具を使用する検査はどれか。",平行測定
898,6,4,2,"印象用コーピングを用いて印象採得を行うのはどれか。",インプラント
899,9,5,4,"縫合針と持針器の写真を別に示す。縫合針の把持で正しいのはどれか。",①
900,9,11,2,"AEDの電極の装着位置で正しいのはどれか。",④
901,9,6,3,"マルチブラケット法で用いるアーチワイヤーを図に示す。このワイヤーの名称はどれか。",レクタンギュラーワイヤー
902,6,6,4,"既製乳歯冠の冠縁の調整に用いる器材はどれか。",ゴードンのプライヤー
903,3,3,2,"高齢者にみられる基礎疾患と服用薬および副作用との組合せを表に示す。正しいのはどれか。",③
904,8,3,3,"（　）に入る語句の組合せで適切なのはどれか。83歳の女性。脳梗塞のため右側片麻痺で寝たきり状態である。この患者に（①）を（②）にした（③）位で口腔ケアを行う。",①右　②上　　③側臥
905,8,6,3,"（　）に入る語句の組合せで適切なのはどれか。83歳の女性。脳梗塞のため右側片麻痺で寝たきり状態である。この患者に（①）を（②）にした（③）位で口腔ケアを行う。",①右　②上　　③側臥
906,9,10,4,"フィルムバッチで正しいのはどれか。",放射線の被曝量がわかる。
907,9,8,1,"85歳の女性。高血圧で脳梗塞の既往があり、抗凝固薬を服用している。抜歯をすることになった。偶発事故の予防策として正しいのはどれか。2つ選べ。",術前に血圧を測定する。
908,1,1,7,"副鼻腔があるのはどれか。",前頭骨
909,2,2,1,"シャーピー線維が入り込むのはどれか。",セメント質
910,2,1,1,"頭蓋の外側面の写真を別に示す。矢印が示すのはどれか。",茎状突起
911,1,1,9,"脂溶性ビタミンはどれか。2つ選べ。",ビタミンA
912,2,1,1,"脂溶性ビタミンはどれか。2つ選べ。",ビタミンA
913,1,2,1,"カルシトニンで正しいのはどれか。",甲状腺から分泌される。
914,1,2,5,"味覚の基本味に含まれないのはどれか。",渋味
915,1,2,4,"赤血球で正しいのはどれか。",ヘモグロビンを含む。
916,3,2,4,"心臓の冠状動脈の模式図を示す。矢印は血栓を示す。斜線部の領域にみられるのはどれか。",梗塞
917,3,1,17,"歯の異常と好発部位との組合せで誤っているのはどれか。",カラベリー結節−−−下顎第二小臼歯
918,3,1,18,"エナメル上皮腫の特徴はどれか。",骨吸収を伴う。
919,3,2,6,"[　　]に入る語句の組合せで正しいのはどれか。花粉症は[ ① ]アレルギーに分類され、[ ② ]が関係する。",①アナフィラキシー型　　②IgE
920,3,2,1,"バイオフィルムの特徴で正しいのはどれか。",細菌は他の菌種と情報交換して増殖する。
921,3,3,2,"局所麻酔薬の効力が増強されるのはどれか。",血管収縮薬の配合
922,3,3,12,"ε-アミノカプロン酸の作用はどれか。",止血
923,3,3,3,"薬物の保存の写真を別に示す。細菌の混入を防ぐ目的のものはどれか。",③
924,4,6,1,"歯科健診の結果を表に示す。DMFT指数はどれか。",7
925,4,5,2,"う蝕の第一次予防でフッ化物局所応用に用いられるのはどれか。2つ選べ。",フッ化第一スズ
926,4,6,4,"歯磨剤の基本成分はどれか。",グリセリン
927,4,3,1,"健康増進法に基づいて実施するのはどれか。",歯周疾患検診
928,4,1,5,"大唾液腺の開口部に近接する歯はどれか。2つ選べ。",下顎中切歯
929,4,1,4,"上顎切歯部に歯のフッ素症がみられた。フッ化物が影響した時期はどれか。",出生時〜3歳
930,4,8,4,"ミュータンスレンサ球菌によるグルカン産生の基質となるのはどれか。",ショ糖
931,4,7,2,"酸性雨の原因物質はどれか。2つ選べ。",二酸化窒素
932,4,8,3,"メタボリックシンドロームの判定で用いられるのはどれか。2つ選べ。",腹囲
933,4,8,4,"健康保険法で正しいのはどれか。",事業主は保険料を負担する。
934,4,9,3,"母子健康手帳で正しいのはどれか。2つ選べ。",妊娠中と産後の歯の状態の記入欄がある。
935,4,7,4,"我が国の主要死因別にみた死亡率（人口10万対）の推移を図に示す。矢印が示すのはどれか。",悪性新生物
936,4,9,2,"病院、有床一般（医科）診療所、無床一般（医科）診療所および歯科診療所の数の推移を図に示す。歯科診療所はどれか。",②
937,4,9,3,"受動喫煙防止を規定しているのはどれか。",健康増進法
938,4,9,4,"介護予防事業で用いられる基本チェックリストの一部を示す。（　　）に入るのはどれか。",渇き
939,8,5,1,"不飽和脂肪酸を多く含むのはどれか。2つ選べ。",魚油
940,8,5,3,"不飽和脂肪酸を多く含むのはどれか。2つ選べ。",魚油
941,3,2,10,"ビタミンと欠乏症との組合せで正しいのはどれか。",ビタミンC −−−壊血病
942,5,1,6,"医療倫理と宣言との組合せで正しいのはどれか。2つ選べ。",医の倫理−−−−ジュネーブ宣言
943,6,1,4,"53歳の女性。下顎左側臼歯部の修復物脱落と軽度の冷水痛とを訴えて来院した。初診時の口腔内写真を別に示す。本症例にメタルインレー修復を施すこととした。最初に準備する器具はどれか。",ラウンドバー
944,6,1,4,"根管充?材としてのガッタパーチャポイントの長所はどれか。",化学的安定性がある。
945,6,2,2,"検査時の口腔内写真を別に示す。得られる情報はどれか。",隣接面う蝕
946,6,2,3,"急性化膿性根尖性歯周炎で瘻孔形成に至る経路で正しいのはどれか。",歯根膜→歯槽骨→骨膜→粘膜
947,6,2,1,"歯根膜と口腔粘膜との間の電気抵抗値が一定であることを応用して検査するのはどれか。",根管長
948,6,2,1,"根尖切除法の術式で正しいのはどれか。",切開→粘膜剥離→根尖部切除→逆根管充?→縫合
949,9,2,4,"根尖切除法の術式で正しいのはどれか。",切開→粘膜剥離→根尖部切除→逆根管充?→縫合
950,9,2,4,"咬合性外傷の症状はどれか。2つ選べ。",歯根膜腔の拡大
951,6,2,1,"咬合性外傷の症状はどれか。2つ選べ。",歯根膜腔の拡大
952,6,2,2,"口腔内写真を別に示す。矢印の示す形態からわかるのはどれか。",臨床的正常歯肉
953,6,2,2,"コンポジットレジン修復の前準備を行った口腔内写真を別に示す。この前準備の目的はどれか。2つ選べ。",防湿の確保
954,6,4,1,"上顎中切歯の歯頸部う蝕にコンポジットレジン修復を行っている口腔内写真を別に示す。矢印の器具の使用目的はどれか。",歯肉の排除
955,6,2,3,"光重合レジンの硬化深度に影響するのはどれか。",レジンの透明度
956,6,2,3,"水平的顎間関係が記録できるのはどれか。",ゴシックアーチの描記
957,6,4,1,"水平的顎間関係が記録できるのはどれか。",ゴシックアーチの描記
958,6,4,1,"全部金属冠装着時に準備する器材はどれか。2つ選べ。",咬合紙
959,4,2,2,"上顎前歯部に適したポンティックの形態はどれか。2つ選べ。",オベイト型
960,6,3,4,"上顎前歯部に適したポンティックの形態はどれか。2つ選べ。",オベイト型
961,6,4,1,"63歳の男性。下顎舌側の膨隆を気にして来院した。口腔内写真を別に示す。エックス線撮影を行うことになった。適切と考えられる撮影法はどれか。",咬合法
962,6,4,1,"36歳の男性。下顎右側埋伏智歯を抜歯した際、下歯槽神経血管束が露出した。術後、下唇に生じる可能性があるのはどれか。",知覚鈍麻
963,6,4,2,"61歳の男性。舌右側の痛みを訴えて来院した。口腔内写真を別に示す。舌癌と診断され、舌部分切除術が予定された。予想される術後の障害はどれか。2つ選べ。",嚥下
964,6,4,2,"病院内の廊下で倒れている人を発見した。最初に行うのはどれか。",意識の確認
965,9,1,3,"病院内の廊下で倒れている人を発見した。最初に行うのはどれか。",意識の確認
966,6,5,1,"口腔習癖について正しいのはどれか。2つ選べ。",不正咬合の一要因である。
967,6,5,1,"機能的矯正装置の写真を別に示す。この装置はどれか。",バイオネーター
968,6,5,2,"矯正歯科用材料と矯正力との組合せで正しいのはどれか。",アーチワイヤー−−−−持続的矯正力
969,6,6,1,"小児の発育評価で用いられるカウプ指数で正常と判断されるのはどれか。",16
970,6,6,1,"先天歯が原因となるのはどれか。",リガ・フェーデ病
971,6,6,2,"恐れの感情が現れる時期はどれか。",生後6か月ころ
972,6,6,4,"ダウン症候群の特徴で正しいのはどれか。",短根歯
973,6,8,2,"障害者に対する社会福祉の基本理念はどれか。",ノーマライゼーション
974,6,7,2,"70歳の女性。中等度の歯周疾患で、歯周治療を開始することになった。糖尿病で服薬治療を受けている。SRPで注意すべきことはどれか。2つ選べ。",感染
975,3,1,3,"70歳の女性。中等度の歯周疾患で、歯周治療を開始することになった。糖尿病で服薬治療を受けている。SRPで注意すべきことはどれか。2つ選べ。",感染
976,8,6,2,"低栄養の指標とならないのはどれか。",γ-グロブリン値
977,8,2,1,"低栄養の指標とならないのはどれか。",γ-グロブリン値
978,6,7,5,"低栄養の指標とならないのはどれか。",γ-グロブリン値
979,7,1,1,"SPTにおいて歯科衛生士が行うのはどれか。2つ選べ。",SRP
980,7,1,2,"歯周炎の増悪因子はどれか。2つ選べ。",根面溝
981,9,11,2,"歯周炎の増悪因子はどれか。2つ選べ。",根面溝
982,7,3,2,"40歳の女性。歯の着色を気にして来院した。口腔内写真を別に示す。使用しないのはどれか。",ジェット水流洗口器
983,7,3,3,"エックス線写真を別に示す。観察できるのはどれか。",歯槽骨の吸収
984,7,3,3,"歯科予防処置の内容で正しいのはどれか。2つ選べ。",歯面に白濁のある患者へのフッ化物歯面塗布
985,7,3,3,"歯周治療を行うことで改善が期待される疾患はどれか。",糖尿病
986,7,3,2,"歯周プローブとポケット測定時の写真を示す。PPDはどれか。",7mm
987,8,2,1,"歯周プローブとポケット測定時の写真を示す。PPDはどれか。",7mm
988,7,3,1,"<font color=""red"">※採点除外問題</font>BOPでわかるのはどれか。",付着の喪失
989,7,1,3,"プロービングで正しいのはどれか。",ウォーキングストロークで操作する。
990,6,1,3,"プロービングで正しいのはどれか。",ウォーキングストロークで操作する。
991,7,3,2,"上顎前歯部用のグレーシータイプキュレットの写真を別に示す。深く狭いポケット部のルートプレーニングに適しているのはどれか。",③
992,7,2,2,"グレーシータイプキュレット操作の写真を別に示す。歯面と操作角度で正しいのはどれか。",②
993,6,2,3,"シャープニングにおけるグレーシータイプキュレットと砥石との位置関係の写真を別に示す。正しい角度はどれか。",③
994,7,2,4,"小学校低学年の児童に対してフッ化物洗口を実施することになった。使用する洗口液のフッ素イオン濃度と量との組合せで正しいのはどれか。",900ppm−−−−5mL
995,7,2,5,"超音波スケーリングが効果的なのはどれか。",智歯周囲炎
996,6,2,3,"リン酸酸性フッ化ナトリウム溶液塗布に際しての注意事項で正しいのはどれか。2つ選べ。",溜まった唾液は飲み込まないようにしましょう。
997,7,2,4,"う蝕活動性試験の結果を表に示す。評価で正しいのはどれか。",宿主要因のう蝕活動性が高い。
998,8,2,1,"小学校におけるフッ化物洗口法で正しいのはどれか。2つ選べ。",教職員の監督下で行う。
999,8,2,1,"器具の写真を別に示す。下顎左側第一大臼歯の小窩裂溝?塞法に使用しないのはどれか。",①
1000,4,6,4,"禁煙支援における喫煙者の行動変容を図に示す。正しい組合せはどれか。",①無関心期　　②準備期　　　③維持期
1001,8,5,1,"50歳の男性。喫煙しており、今は禁煙を考えていないという。禁煙指導を行うことになった。初回の指導で適切なのはどれか。",歯周病と喫煙との関連性を説明する。
1002,8,7,1,"4歳の男児の母親に対して歯科保健指導を行った。う蝕リスクを指標としたレーダーチャートを図に示す。効果のあった内容はどれか。2つ選べ。",おやつ指導
1003,8,3,1,"55歳男性。歯周治療を希望して来院した。口腔内写真を別に示す。ブラッシング指導で適切なのはどれか。2つ選べ。",歯間ブラシを併用する。
1004,8,3,3,"歯に現れる加齢変化はどれか。2つ選べ。",咬耗
1005,8,3,1,"部分床義歯の写真を別に示す。義歯清掃時に注意する部位はどれか。2つ選べ。",③
1006,8,3,2,"プライマリーヘルスケアはどれか。2つ選べ。",地域住民への一次医療を充実する。
1007,8,2,1,"プライマリーヘルスケアはどれか。2つ選べ。",地域住民への一次医療を充実する。
1008,6,7,2,"45歳の女性。口臭を主訴として来院した。1日2〜3回歯ブラシとフロスで口腔清掃を行っており、PCRは4.5％である。官能検査で認知閾値を超える口臭はなかった。初回の歯科保健指導で適切なのはどれか。2つ選べ。",口臭の原因について説明する。
1009,4,1,2,"口腔内写真を別に示す。観察できるのはどれか。2つ選べ。",フェストゥーン
1010,8,4,2,"日常生活動作（ADL）の判定基準項目はどれか。2つ選べ。",食事
1011,6,7,4,"摂食・嚥下の過程で口腔期に障害のある患者に対する摂食機能訓練で適切なのはどれか。",舌訓練
1012,8,3,3,"キシリトールの特徴で正しいのはどれか。2つ選べ。",砂糖と同程度の甘味度をもつ。
1013,8,1,1,"<font color=""red"">※採点除外問題</font>片側性顔面神経麻痺の患者に観察される口腔状態で正しいのはどれか。2つ選べ。",食物残渣が健側に多く残る。
1014,4,7,1,"<font color=""red"">※採点除外問題</font>片側性顔面神経麻痺の患者に観察される口腔状態で正しいのはどれか。2つ選べ。",食物残渣が健側に多く残る。
1015,4,9,2,"下顎の完全埋伏智歯の抜歯術に使用したバキュームチップの感染リスクレベルはどれか。",高リスク
1016,5,1,1,"下顎の完全埋伏智歯の抜歯術に使用したバキュームチップの感染リスクレベルはどれか。",高リスク
1017,5,1,2,"下顎の完全埋伏智歯の抜歯術に使用したバキュームチップの感染リスクレベルはどれか。",高リスク
1018,9,1,1,"下顎の完全埋伏智歯の抜歯術に使用したバキュームチップの感染リスクレベルはどれか。",高リスク
1019,9,1,6,"器具の受け渡しで正しいのはどれか。",破骨鉗子はパームグリップで把持できるように手渡す。
1020,3,2,3,"18歳の女性。正中離開を主訴に受診した。口腔内写真を別に示す。上唇小帯を切除することになった。必要な器具はどれか。2つ選べ。",メス
1021,7,3,3,"疾患と検査との組合せで正しいのはどれか。",蜂窩織炎−−−C反応性タンパク
1022,9,2,2,"根管充?の側方加圧法において、用途と器具との組合せで正しいのはどれか。",マスターポイントの側方加圧−−−スプレッダー
1023,9,3,6,"感染根管治療で使用される有機質溶解剤はどれか。",NaOCl
1024,9,3,7,"上顎の印象体の写真を別に示す。この印象材で正しいのはどれか。2つ選べ。",練和時の水温は硬化時間に影響する。
1025,9,7,1,"9歳の男児。上顎右側中切歯の窩洞形成中に、偶発的に露髄し、直接覆髄を行うことになった。露髄面に適用するのはどれか。",水酸化カルシウム製剤
1026,9,4,2,"写真を別に示す。クリック音を聴診する位置で正しいのはどれか。",①
1027,6,3,1,"介護保険制度で、介護予防対象者への口腔機能向上サービスを担当する専門職種はどれか。2つ選べ。",歯科衛生士
1028,9,4,3,"介護保険制度で、介護予防対象者への口腔機能向上サービスを担当する専門職種はどれか。2つ選べ。",歯科衛生士
1029,9,5,1,"全部床義歯製作過程で、チェックバイト法に使用する材料はどれか。2つ選べ。",石膏
1030,9,6,1,"床義歯製作過程の筋圧形成で正しいのはどれか。2つ選べ。",義歯床縁形態を得る。
1031,9,7,1,"70歳の男性。上顎の義歯を製作する予定であるが、口蓋隆起を除去することになった。器具の写真を別に示す。使用する器具はどれか。2つ選べ。",②
1032,9,9,1,"70歳の男性。上顎の義歯を製作する予定であるが、口蓋隆起を除去することになった。器具の写真を別に示す。使用する器具はどれか。2つ選べ。",②
1033,9,1,6,"気管支喘息患者の歯科治療時の対応で正しいのはどれか。2つ選べ。",エアロゾルの吸引を十分に行う。
1034,9,1,3,"8歳の女児。てんかんの治療中で、口腔内に歯肉増殖が認められた。服用していると思われるのはどれか。",フェニトイン
1035,6,1,3,"8歳の男児。上顎前突の治療のためにヘッドギアを装着することになった。指導で誤っているのはどれか。",自分で牽引力を調整させる。
1036,6,1,4,"アクシデントはどれか。2つ選べ。",スケーラーで充?物をはずしてしまった。
1037,6,1,4,"職種と業務との組合せで正しいのはどれか。2つ選べ。",言語聴覚士−−−摂食機能療法
1038,1,1,7,"7個の椎骨から構成されるのはどれか。",頸椎
1039,2,1,3,"舌の模式図を示す。グレーの領域の味覚を伝えるのはどれか。",顔面神経
1040,1,1,5,"上顎第一大臼歯咬合面の模式図を示す。遠心?側咬頭はどれか。",④
1041,2,1,1,"（　）に入るのはどれか。&nbsp; アミノ酸を構成する必須元素はC、H、Oおよび（　）である。",N
1042,1,2,6,"（　）に入るのはどれか。　エナメル質に含まれる少量無機成分で、（　）はエナメル質表層の濃度が内部よりも高い。",フッ素
1043,8,5,1,"消化器系の模式図を示す。pHの最も低い消化液が分泌されるのはどれか。",②
1044,1,2,5,"唾液で正しいのはどれか。",浸透圧は分泌速度が速くなると上昇する。
1045,1,2,7,"歯肉腫瘍の病理組織の模式図を示す。黒塗りは腫瘍細胞の分布を示す。この腫瘍はどれか。",扁平上皮癌
1046,2,1,2,"歯牙腫で正しいのはどれか。",歯の萌出障害の原因となる。
1047,6,6,2,"歯牙腫で正しいのはどれか。",歯の萌出障害の原因となる。
1048,3,1,14,"歯牙腫で正しいのはどれか。",歯の萌出障害の原因となる。
1049,3,1,13,"細菌の運動にかかわる構造物はどれか。",鞭毛
1050,3,2,4,"抗体〈IgG〉の基本構造の模式図を示す。矢印が示すのはどれか。<br />",抗原結合部
1051,3,2,4,"薬剤感受性試験の拡散法〈感受性ディスク法〉の写真を別に示す。矢印で示した黒丸は薬剤を含んだディスクである。最も効果のあるのはどれか。",④
1052,3,2,7,"ロキソプロフェンナトリウムが阻害するのはどれか。",シクロオキシゲナーゼ
1053,3,3,2,"ショ糖から不溶性の多糖類を作るのはどれか。2つ選べ。",Streptococcus mutans
1054,3,3,11,"ショ糖から不溶性の多糖類を作るのはどれか。2つ選べ。",Streptococcus sobrinus
1055,4,1,3,"舌苔を主に構成するのはどれか。2つ選べ。",微生物
1056,4,6,1,"舌苔を主に構成するのはどれか。2つ選べ。",?落角化上皮
1057,4,6,1,"我が国におけるフッ化物配合歯磨剤で正しいのはどれか。2つ選べ。<br />",高齢者のう蝕予防に推奨される。
1058,4,7,3,"我が国におけるフッ化物配合歯磨剤で正しいのはどれか。2つ選べ。<br />",フッ素イオン濃度は0.1％以下である。
1059,4,1,2,"ある地域の1歳6か月児歯科健康診査の結果を表に示す。う蝕有病者率はどれか。",25%
1060,4,3,1,"歯垢と歯石の付着状態を図に示す。OHIの値はどれか。",3.5
1061,4,7,4,"歯科疾患実態調査結果で近年増加しているのはどれか。2つ選べ。",20歯以上を有する者の割合〈65歳以上〉
1062,4,1,4,"学校保健活動の企画立案や調整で中心的な役割を担うのはどれか。",保健主事
1063,4,8,5,"人口ピラミッドの模式図を示す。平成22年10月1日現在の我が国の人口構成の特徴を示すのはどれか。",③
1064,4,9,2,"非電離放射線はどれか。2つ選べ。",赤外線
1065,4,8,1,"非電離放射線はどれか。2つ選べ。",マイクロ波
1066,4,8,4,"デング熱を媒介するのはどれか。",蚊
1067,4,9,2,"母子保健法で歯科健康診査の実施が義務づけられているのはどれか。",3歳児健康診査
1068,4,8,10,"地域包括支援センターの業務はどれか。2つ選べ。",高齢者の権利擁護
1069,4,9,2,"地域包括支援センターの業務はどれか。2つ選べ。",介護予防ケアマネジメント
1070,8,5,1,"健康増進法に規定されているのはどれか。2つ選べ。",受動喫煙の防止
1071,8,5,1,"健康増進法に規定されているのはどれか。2つ選べ。",国民健康・栄養調査の実施
1072,4,9,3,"我が国の社会保険において現物給付を主としているのはどれか。2つ選べ。",医療保険
1073,6,2,1,"食品の六分類〈六つの基礎食品群〉における食品と供給される主な栄養素との組合せで正しいのはどれか。<br />",こんぶ −−−−− カルシウム
1074,9,2,3,"国民健康・栄養調査による女性の朝食欠食率〈年齢階級別〉の年次推移を図に示す。矢印が示す年齢階級はどれか。",20〜29歳
1075,9,3,2,"歯科診療時にみられるヒヤリ・ハット事例はどれか。",車椅子での移乗介助時に患者が壁にぶつかりそうになった。
1076,6,2,1,"健常者と比較して糖尿病患者の歯石除去で特に留意すべきことはどれか。2つ選べ。",低血糖
1077,9,3,6,"健常者と比較して糖尿病患者の歯石除去で特に留意すべきことはどれか。2つ選べ。",術後感染
1078,9,3,7,"肝機能検査の項目はどれか。",γ-GTP
1079,6,2,3,"根管充?時の術式を写真に示す。矢印で示す材料の作用はどれか。2つ選べ。",封鎖
1080,6,2,3,"くさび状欠損の原因はどれか。",ブラキシズム
1081,6,2,3,"第二小臼歯にコンポジットレジン修復を行うこととなった。処置時の口腔内写真を別に示す。矢印で示す器材の使用目的はどれか。2つ選べ。",隣接面の形態付与
1082,6,2,1,"歯髄の生死を判断できる検査はどれか。2つ選べ。",温度診
1083,9,2,4,"歯髄の生死を判断できる検査はどれか。2つ選べ。",電気診
1084,9,3,3,"歯髄の生死を判断できる検査はどれか。2つ選べ。",電気診
1085,6,2,1,"歯髄の生死を判断できる検査はどれか。2つ選べ。",電気診
1086,6,3,1,"36歳の女性。臼歯部の鋭い自発痛を訴えて来院した。温刺激および打診に対して強く反応する。初診時の口腔内写真とエックス線写真とを別に示す。考えられる処置はどれか。",麻酔抜髄法
1087,6,3,2,"38歳の女性。上顎左側中切歯部の腫脹と疼痛とを訴えて来院し、根尖性歯周炎と診断された。術中の口腔内写真を別に示す。矢印で示す材料として考えられるのはどれか。",MTAセメント
1088,6,3,5,"47歳の女性。歯周治療後のメインテナンス時の口腔内写真と歯周組織検査結果とを別に示す。対応で正しいのはどれか。2つ選べ。",PTC
1089,6,3,3,"42歳の女性。歯の動揺を訴えて来院した。検査の結果、小臼歯から大臼歯にかけて2度の動揺を認めたため暫間固定を行った。固定後の口腔内写真を別に示す。固定法の種類はどれか。",A-スプリント
1090,6,4,1,"80歳の女性。上顎が無歯顎であり義歯を使用しているが、適合が悪く前歯部粘膜に軟らかい可動性組織がある。前処置を行った後、新たに全部床義歯を製作する予定である。前処置として考えられるのはどれか。2つ選べ。",粘膜調整
1091,6,4,1,"80歳の女性。上顎が無歯顎であり義歯を使用しているが、適合が悪く前歯部粘膜に軟らかい可動性組織がある。前処置を行った後、新たに全部床義歯を製作する予定である。前処置として考えられるのはどれか。2つ選べ。",フラビーガムの切除
1092,6,4,1,"チェックバイト法で検査する項目はどれか。",下顎運動路
1093,6,5,2,"47歳の男性。部分床義歯を装着した。口腔内写真と義歯の写真とを別に示す。この義歯の咬合圧支持による分類はどれか。",歯牙粘膜支持
1094,6,5,2,"58歳の女性。上顎左側前歯部の顎骨嚢胞摘出術において、粘膜骨膜弁を形成し、嚢胞を明示した術中写真を別に示す。次に行う処置で用いるのはどれか。2つ選べ。",鋭匙
1095,9,6,1,"58歳の女性。上顎左側前歯部の顎骨嚢胞摘出術において、粘膜骨膜弁を形成し、嚢胞を明示した術中写真を別に示す。次に行う処置で用いるのはどれか。2つ選べ。",?離子
1096,6,5,2,"口腔にみられる悪性腫瘍のうち、発生頻度が最も高いのはどれか。",扁平上皮癌
1097,6,6,1,"血友病患者の抜歯で正しいのはどれか。2つ選べ。",創縁縫合法を行う。
1098,6,6,3,"血友病患者の抜歯で正しいのはどれか。2つ選べ。",創縁縫合法を行う。
1099,6,8,3,"血友病患者の抜歯で正しいのはどれか。2つ選べ。",局所止血薬を用いる。
1100,6,6,3,"血友病患者の抜歯で正しいのはどれか。2つ選べ。",局所止血薬を用いる。
1101,6,6,2,"健常成人に対する吸入鎮静法における至適鎮静状態で正しいのはどれか。2つ選べ。",術者の指示に従う。
1102,6,8,1,"健常成人に対する吸入鎮静法における至適鎮静状態で正しいのはどれか。2つ選べ。",呼吸数は正常である。
1103,6,8,3,"口腔内写真を別に示す。両側中切歯の状態を表すのはどれか。",翼状捻転
1104,6,6,3,"口腔内写真を別に示す。両側中切歯の状態を表すのはどれか。",翼状捻転
1105,4,9,4,"口腔模型の写真を別に示す。Angleの分類はどれか。",Ⅱ級1類
1106,6,8,1,"矯正装置を装着した口腔内写真を別に示す。矢印で示す材料の名称はどれか。",オープンコイルスプリング
1107,7,1,3,"7歳の男児。歯の生え方が気になることを訴えて来院した。口腔内写真を別に示す。原因として考えられるのはどれか。2つ選べ。",埋伏過剰歯
1108,6,7,2,"7歳の男児。歯の生え方が気になることを訴えて来院した。口腔内写真を別に示す。原因として考えられるのはどれか。2つ選べ。",側切歯の先天欠如
1109,6,4,1,"7歳の男児。歯の生え方が気になることを訴えて来院した。口腔内写真を別に示す。原因として考えられるのはどれか。2つ選べ。",側切歯の先天欠如
1110,7,3,1,"7歳の男児。歯の生え方が気になることを訴えて来院した。口腔内写真を別に示す。原因として考えられるのはどれか。2つ選べ。",側切歯の先天欠如
1111,7,2,2,"3歳の女児。歯の形の異常を訴えて来院した。口腔内写真を別に示す。正しいのはどれか。",切歯結節
1112,6,2,3,"3歳の女児。歯の形の異常を訴えて来院した。口腔内写真を別に示す。正しいのはどれか。",切歯結節
1113,6,1,2,"3歳の女児。歯の形の異常を訴えて来院した。口腔内写真を別に示す。正しいのはどれか。",切歯結節
1114,7,1,3,"3歳の女児。歯の形の異常を訴えて来院した。口腔内写真を別に示す。正しいのはどれか。",切歯結節
1115,7,2,4,"2歳児の歯科治療時に留意すべきことはどれか。2つ選べ。",自己中心的である。
1116,9,1,6,"2歳児の歯科治療時に留意すべきことはどれか。2つ選べ。",視覚からの恐怖心が強い。
1117,7,2,4,"2歳児の歯科治療時に留意すべきことはどれか。2つ選べ。",視覚からの恐怖心が強い。
1118,7,2,4,"（　）に入る語句の組合せで正しいのはどれか。メンデルソン手技は（①）を改善し、輪状咽頭筋による（②）を促す。",①喉頭挙上　　②食道入口部の開大
1119,7,2,2,"摂食嚥下障害患者に対する機能訓練の口腔内写真を示す。目的はどれか。",嚥下誘発の感受性向上
1120,7,2,4,"35歳の女性。定期健康診査で来院した。口腔内写真を別に示す。観察できるのはどれか。",歯石
1121,7,2,4,"38歳の女性。喉頭癌の放射線治療中である。主治医の指示により歯科を受診した。検査結果を表に示す。歯科医師の指示により行う処置はどれか。2つ選べ。",PTC
1122,7,2,5,"38歳の女性。喉頭癌の放射線治療中である。主治医の指示により歯科を受診した。検査結果を表に示す。歯科医師の指示により行う処置はどれか。2つ選べ。",2％フッ化ナトリウム溶液歯面塗布
1123,7,2,5,"歯周病の発症リスクを示す検査結果はどれか。",HbA1c −−−− 7.3％
1124,7,2,5,"歯周炎再発の客観的評価で正しいのはどれか。2つ選べ。",歯周ポケットの深化
1125,7,2,4,"歯周炎再発の客観的評価で正しいのはどれか。2つ選べ。",アタッチメントレベルの増加
1126,7,3,2,"検査時の口腔内写真を別に示す。検査項目はどれか。",歯間離開度
1127,7,3,2,"器具と歯面に対する操作角度との組合せで正しいのはどれか。2つ選べ。",超音波スケーラー −−−−−−−−− 15度
1128,7,3,3,"超音波スケーラーで正しいのはどれか。2つ選べ。",用途別のチップがある。
1129,7,3,4,"超音波スケーラーで正しいのはどれか。2つ選べ。",塩分摂取制限患者に使用できる。
1130,8,1,2,"バックポジションでグレーシータイプキュレットを用いて34?側近心面のSRPを行った。同じキュレットを用いて同じポジションで行うことができる部位はどれか。",44舌側近心
1131,8,7,1,"バックポジションでグレーシータイプキュレットを用いて34?側近心面のSRPを行った。同じキュレットを用いて同じポジションで行うことができる部位はどれか。",44舌側近心
1132,8,1,1,"グレーシータイプキュレット♯11/12とテストスティックとの写真を別に示す。正しいのはどれか。",②
1133,8,1,1,"歯面清掃器に使用されるのはどれか。",炭酸水素ナトリウム
1134,4,9,4,"歯周治療後の再評価検査で、「6か月に1度のメインテナンス」に移行できるのはどれか。",すべての歯の動揺が0.2mm以下である。
1135,4,7,2,"50歳の女性。定期健康診査で来院し、下顎前歯部の冷水痛を訴えている。ポケット測定の結果を表に示す。BOP、動揺および歯の実質欠損はない。処置に使用すると考えられるのはどれか。",フッ化物バーニッシュ
1136,4,9,2,"50歳の女性。定期健康診査で来院し、下顎前歯部の冷水痛を訴えている。ポケット測定の結果を表に示す。BOP、動揺および歯の実質欠損はない。処置に使用すると考えられるのはどれか。",フッ化物バーニッシュ
1137,9,6,1,"う蝕活動性を反映する宿主因子はどれか。",唾液緩衝能
1138,8,3,2,"週1回法のフッ化物洗口液1mLに含まれるフッ素量はどれか。",0.90mg
1139,8,3,3,"厚生労働省の「フッ化物洗口ガイドライン」による洗口の開始年齢はどれか。",4歳
1140,8,2,1,"個人への食生活指導で誤っているのはどれか。",指導は画一的に実施する。
1141,8,1,1,"9歳の男児。未処置歯が多数あり、歯垢の付着が著明で歯肉に腫脹と出血がみられる。髪や服装も異臭がするほど明らかに不潔である。また極端に痩せている。歯や粘膜の損傷や身体のアザなどは認められないが、母親の男児に対する拒絶的な態度がしばしばみられる。疑われるのはどれか。2つ選べ。",ネグレクト
1142,8,2,1,"離乳初期の食事の与え方で正しいのはどれか。",小さくて浅いスプーンを使用する。
1143,8,6,2,"離乳初期の食事の与え方で正しいのはどれか。",小さくて浅いスプーンを使用する。
1144,8,6,3,"離乳初期の食事の与え方で正しいのはどれか。",小さくて浅いスプーンを使用する。
1145,8,5,1,"57歳の女性。定期健康診査で来院した。日常のブラッシングは、1日2回、ヘッドの大きさが18mmでナイロン毛の歯ブラシを使用している。歯垢染色後の口腔内写真を別に示す。口腔清掃指導で適切なのはどれか。2つ選べ。",歯間部清掃用具の使用を指導する。
1146,6,8,4,"57歳の女性。定期健康診査で来院した。日常のブラッシングは、1日2回、ヘッドの大きさが18mmでナイロン毛の歯ブラシを使用している。歯垢染色後の口腔内写真を別に示す。口腔清掃指導で適切なのはどれか。2つ選べ。",1歯ずつの縦磨き法の併用を指導する。
1147,8,5,3,"57歳の女性。定期健康診査で来院した。日常のブラッシングは、1日2回、ヘッドの大きさが18mmでナイロン毛の歯ブラシを使用している。歯垢染色後の口腔内写真を別に示す。口腔清掃指導で適切なのはどれか。2つ選べ。",1歯ずつの縦磨き法の併用を指導する。
1148,8,2,1,"口腔内写真と口腔清掃用具の写真とを別に示す。点線で囲まれた部位の清掃に適するのはどれか。",③
1149,8,4,1,"口腔内写真と口腔清掃用具の写真とを別に示す。点線で囲まれた部位の清掃に適するのはどれか。",③
1150,4,7,3,"口腔内写真と口腔清掃用具の写真とを別に示す。点線で囲まれた部位の清掃に適するのはどれか。",③
1151,9,1,7,"保育所より依頼され、幼児の保護者へ間食指導を行うこととなった。指導に用いる図を示す。図から説明できる歯科保健指導の内容で適切なのはどれか。",非発酵性糖質の食品を選ぶ。
1152,9,1,5,"この「保護者の記録」に該当する年齢はどれか。",1歳6か月
1153,9,10,2,"(前問題と同じ設定)上顎乳前歯の唇側歯頸部に歯質の脱灰と一部実質欠損が認められた。「保護者の記録」の記載をふまえ、保護者へ行う歯科保健指導の内容で適切なのはどれか。2つ選べ。",歯科医院の受診を勧める。
1154,9,3,6,"(前問題と同じ設定)上顎乳前歯の唇側歯頸部に歯質の脱灰と一部実質欠損が認められた。「保護者の記録」の記載をふまえ、保護者へ行う歯科保健指導の内容で適切なのはどれか。2つ選べ。",食事や間食を規則正しくとるよう指導する。
1155,9,6,3,"　観察できるのはどれか。2つ選べ。",上顎両側中切歯 −−− 水平性歯槽骨吸収
1156,9,11,2,"(前問題と同じ設定)歯周基本治療を行うこととなった。歯科医師から歯科保健指導を指示された。適切でないのはどれか。",ニコチン代替療法を選択させる。
1157,6,6,4,"(前問題と同じ設定)歯周基本治療を行うこととなった。歯科医師から歯科保健指導を指示された。適切でないのはどれか。",ニコチン代替療法を選択させる。
1158,9,2,4,"特別養護老人ホームにおける保健活動で、ポピュレーションアプローチはどれか。2つ選べ。",入所者が食事の前にパタカラ発音訓練をする。
1159,6,2,3,"特別養護老人ホームにおける保健活動で、ポピュレーションアプローチはどれか。2つ選べ。",介護職員に対して誤嚥性肺炎予防の講習を行う。
1160,9,1,3,"相対的歯科医行為でないのはどれか。",歯冠修復物の咬合調整
1161,9,2,2,"医療用酸素吸入器の管理項目と方法との組合せで正しいのはどれか。2つ選べ。",酸素残量の把握 −−−−−− ガス使用量を記録する。
1162,9,3,1,"医療用酸素吸入器の管理項目と方法との組合せで正しいのはどれか。2つ選べ。",ボンベの保管温度 −−−−− 40℃以下で保管する。
1163,9,4,3,"下顎左側第一大臼歯の治療時における「ヘッドレスト」と「ライトの照射位置」とを図に示す。術者の位置は12時である。正しいのはどれか。",①
1164,9,10,1,"カルボキシレートセメントの取扱いで正しいのはどれか。2つ選べ。",液の滴下口を拭き取ってから密栓する。
1165,9,3,5,"カルボキシレートセメントの取扱いで正しいのはどれか。2つ選べ。",粉末は一括または2分割して練和する。
1166,9,2,2,"ストッピングキャリアの写真を別に示す。口腔内操作時のカバーの位置で正しいのはどれか。",①
1167,9,6,1,"歯根膜炎が認められる歯の金属冠を除去することになった。準備する器具はどれか。",カーバイドバー
1168,9,1,4,"歯根膜炎が認められる歯の金属冠を除去することになった。準備する器具はどれか。",カーバイドバー
1169,9,8,1,"歯髄保護の処置と薬剤・セメントとの組合せで正しいのはどれか。2つ選べ。",裏層 −−−−−− リン酸亜鉛セメント
1170,9,9,1,"歯髄保護の処置と薬剤・セメントとの組合せで正しいのはどれか。2つ選べ。",裏層 −−−−−− リン酸亜鉛セメント
1171,1,1,3,"歯髄保護の処置と薬剤・セメントとの組合せで正しいのはどれか。2つ選べ。",間接覆髄 −−−− HY剤配合カルボキシレートセメント
1172,2,1,1,"歯髄保護の処置と薬剤・セメントとの組合せで正しいのはどれか。2つ選べ。",間接覆髄 −−−− HY剤配合カルボキシレートセメント
1173,2,1,2,"78歳の女性。有歯顎である。チェックバイトを採得することとなった。咬合記録材として準備するのはどれか。2つ選べ。",パラフィンワックス
1174,2,1,1,"支台歯形成が終了した写真と、次に使用する材料の写真とを別に示す。Bを使用するときに用いるのはどれか。",常温重合レジン
1175,8,5,1,"術中の口腔内写真を別に示す。下顎隆起の除去に用いるのはどれか。2つ選べ。",骨ノミ
1176,1,2,11,"術中の口腔内写真を別に示す。下顎隆起の除去に用いるのはどれか。2つ選べ。",マレット
1177,2,2,1,"<p>歯科治療恐怖症患者の歯科治療時に用いる機器の写真を別に示す。この機器を用いて投与するのはどれか。</p><p>2つ選べ。
</p>",酸素
1178,1,2,3,"<p>歯科治療恐怖症患者の歯科治療時に用いる機器の写真を別に示す。この機器を用いて投与するのはどれか。</p><p>2つ選べ。
</p>",笑気
1179,3,1,3,"18歳の女性。?粘膜に傷ができて痛いと訴えて来院した。バッカルチューブの遠心端からアーチワイヤーが3mm程度突出している。プライヤーの写真を別に示す。突出部の処理に使用するプライヤーはどれか。",①
1180,3,1,9,"摂食嚥下障害者に対する食環境指導で正しいのはどれか。2つ選べ。",摂食の姿勢
1181,3,1,17,"摂食嚥下障害者に対する食環境指導で正しいのはどれか。2つ選べ。",食器の工夫
1182,3,1,7,"個体半導体センサー〈CCD〉を用いたデジタルエックス線撮影システムの特徴で正しいのはどれか。2つ選べ。",解像度が高い。
1183,3,2,8,"個体半導体センサー〈CCD〉を用いたデジタルエックス線撮影システムの特徴で正しいのはどれか。2つ選べ。",撮影後すぐに画像を確認できる。
1184,3,3,7,"68歳の男性。口腔乾燥を訴えて来院した。シェーグレン症候群が疑われたため、検査を行うこととなった。適切でない検査はどれか。",唾液緩衝能検査
1185,3,3,11,"成人の心肺蘇生〈CPR〉の胸骨圧迫で正しいのはどれか。2つ選べ。",少なくとも1分間に100回行う。
1186,3,3,4,"左右で対になっているのはどれか。",腎臓
1187,4,6,1,"口腔内写真を別に示す。矢印で示す部位に開口する唾液腺の導管が貫くのはどれか。",?筋
1188,4,3,3,"心臓から口腔へ向かう動脈経路で、体表から脈拍を触れるのはどれか。",総頸動脈
1189,4,2,3,"細胞の模式図を示す。矢印で示す細胞内小器官で産生されるのはどれか。<br />",ATP
1190,4,9,2,"Ⅰ型コラーゲンの特徴で正しいのはどれか。",3本鎖らせん構造である。
1191,2,1,1,"副交感神経の活動が亢進すると起こるのはどれか。",胃酸分泌亢進
1192,4,3,3,"（　）に入るのはどれか。　腸管で吸収された（　）はリンパ管に入った後、静脈で血管系に流入して肝臓に運ばれる。",脂肪酸
1193,4,3,1,"慢性炎症時に出現し、抗体を産生するのはどれか。",形質細胞
1194,3,2,8,"慢性炎症時に出現し、抗体を産生するのはどれか。",形質細胞
1195,4,8,3,"（　）に入る語句の組合せで正しいのはどれか。　エナメル質の初期う蝕には（①）がみられ、さらに進行すると（②）が起こる。",①表層下脱灰 ②実質欠損
1196,4,8,6,"多剤耐性細菌のグラム染色像の写真を別に示す。考えられるのはどれか。",Staphylococcus aureus
1197,4,8,11,"多剤耐性細菌のグラム染色像の写真を別に示す。考えられるのはどれか。",Staphylococcus aureus
1198,4,9,4,"遅延型アレルギーはどれか。",金属アレルギー
1199,4,8,9,"低用量アスピリンの使用目的はどれか。",血栓形成の予防
1200,4,8,2,"交感・副交感神経系の模式図を示す。ノルアドレナリンが作用する部位はどれか。",②
1201,4,9,3,"ペリクルで正しいのはどれか。2つ選べ。",微生物の歯面への付着を促進する。
1202,4,9,2,"歯肉縁下歯石で正しいのはどれか。2つ選べ。",歯肉へ物理的刺激を与える。
1203,8,6,2,"歯磨剤の基本成分はどれか。",アルギン酸ナトリウム
1204,6,7,2,"歯磨剤の基本成分はどれか。",アルギン酸ナトリウム
1205,8,2,1,"歯磨剤の基本成分はどれか。",アルギン酸ナトリウム
1206,8,5,1,"体重15kgの3歳の女児。リン酸酸性フッ化ナトリウム溶液〈2％NaF配合〉を使用しフッ化物歯面塗布を行うこととなった。急性中毒発現量は2mgF/体重kgとする。使用可能な溶液の上限量はどれか。",3.3mL
1207,8,5,1,"ある小学校の5年生の学校歯科健康診断の結果を表に示す。DMF歯率（％）はどれか。",4
1208,5,1,4,"ある集団の調査結果の一部を表に示す。正しい組合せはどれか。",性別 −−−−−−− 名義尺度
1209,6,2,1,"重度歯周炎に関連する「Red Complex」に含まれるのはどれか。2つ選べ。",Tannerella forsythensis〈forsythia〉
1210,9,3,1,"重度歯周炎に関連する「Red Complex」に含まれるのはどれか。2つ選べ。",Tannerella forsythensis〈forsythia〉
1211,9,3,7,"重度歯周炎に関連する「Red Complex」に含まれるのはどれか。2つ選べ。",Treponema denticola
1212,6,1,2,"ヘルスプロモーションの取組みで正しいのはどれか。2つ選べ。",ウォーキングコースの整備
1213,3,1,13,"1年間における食中毒患者の発生割合を示すのはどれか。",罹患率
1214,9,3,7,"定期の予防接種の対象疾病はどれか。2つ選べ。",破傷風
1215,6,4,2,"保健所の業務はどれか。2つ選べ。",HIV検査の実施
1216,6,2,3,"学校保健で正しいのはどれか。2つ選べ。",定期健康診断は毎年6月末までに行う。
1217,7,1,3,"学校保健で正しいのはどれか。2つ選べ。",感染症の予防のための措置が含まれる。
1218,7,2,2,"学校保健で正しいのはどれか。2つ選べ。",感染症の予防のための措置が含まれる。
1219,6,2,1,"歯科衛生士法に規定されていないのはどれか。",療養上の世話
1220,6,2,1,"歯科診療所1施設あたりの職種別従事者数の推移を図に示す。矢印が示すのはどれか。",歯科衛生士
1221,9,2,4,"ビタミンB?の欠乏でみられるのはどれか。",口角炎
1222,6,2,1,"ビタミンB?の欠乏でみられるのはどれか。",口角炎
1223,9,4,1,"日本人の食事摂取基準で正しいのはどれか。",必要エネルギー推定量を示している。
1224,9,4,3,"日本人の食事摂取基準で正しいのはどれか。",必要エネルギー推定量を示している。
1225,6,3,1,"日本人の食事摂取基準で正しいのはどれか。",必要エネルギー推定量を示している。
1226,9,4,5,"SOAPによる歯科衛生業務記録で正しいのはどれか。2つ選べ。 <br />",「S」は対象者の主観的情報を書く。
1227,6,3,5,"SOAPによる歯科衛生業務記録で正しいのはどれか。2つ選べ。 <br />",「A」は歯科衛生士の判断を書く。
1228,6,1,3,"刺激時唾液分泌量の検査はどれか。2つ選べ。",ガムテスト
1229,6,4,2,"根管治療に使用する器具の断面図と拡大図とを示す。用途はどれか。2つ選べ。",根管形成
1230,6,4,2,"根管治療に使用する器具の断面図と拡大図とを示す。用途はどれか。2つ選べ。",根管長測定
1231,6,4,5,"38歳の女性。上顎左側第二小臼歯の冷水痛を訴えて来院した。う蝕の有無を検査することとなった。初診時の口腔内写真を別に示す。考えられる検査はどれか。",透照診
1232,6,5,1,"ブラックの窩洞分類で隣接面を含むのはどれか。2つ選べ。",2級
1233,6,5,3,"ブラックの窩洞分類で隣接面を含むのはどれか。2つ選べ。",4級
1234,6,5,2,"オフィスブリーチで起こる可能性が最も高いのはどれか。",象牙質知覚過敏症
1235,6,6,1,"19歳の女性。冷水痛を訴えて来院した。下顎左側第一大臼歯の実質欠損を認めるが自発痛はない。軟化象牙質を一部残して薬物を貼付し、経過を観察することとした。行った処置はどれか。",IPC法
1236,6,6,2,"根管の機械的拡大に用いられるのはどれか。",EDTA
1237,6,6,1,"歯面の付着物のうち、歯ブラシで除去できるのはどれか。2つ選べ。",プラーク
1238,6,8,2,"歯面の付着物のうち、歯ブラシで除去できるのはどれか。2つ選べ。",マテリアアルバ
1239,4,9,4,"48歳の女性。歯の動揺を訴えて来院した。歯周基本治療時の口腔内写真を別に示す。矢印に示す処置の目的はどれか。",咬合力の分散
1240,7,1,2,"歯肉歯槽粘膜境を確認する方法はどれか。2つ選べ。",ヨードチンキで粘膜を染色する。
1241,6,1,1,"歯肉歯槽粘膜境を確認する方法はどれか。2つ選べ。",ヨードチンキで粘膜を染色する。
1242,7,2,1,"歯肉歯槽粘膜境を確認する方法はどれか。2つ選べ。",ヨードチンキで粘膜を染色する。
1243,6,7,4,"カンペル平面に含まれるのはどれか。",鼻翼
1244,7,2,6,"67歳の男性。前歯に根面板を装着後、左側臼歯を抜歯し、補綴装置を装着した。抜歯前の口腔内写真、装置装着後の口腔内写真および装置の写真を別に示す。この装置の名称はどれか。",オーバーデンチャー
1245,6,6,2,"上顎全部床義歯の写真を別に示す。部位と名称との組合せで正しいのはどれか。2つ選べ。",② −−− 咬合面
1246,7,1,1,"上顎全部床義歯の写真を別に示す。部位と名称との組合せで正しいのはどれか。2つ選べ。",② −−− 咬合面
1247,7,2,1,"上顎全部床義歯の写真を別に示す。部位と名称との組合せで正しいのはどれか。2つ選べ。",② −−− 咬合面
1248,7,2,4,"上顎全部床義歯の写真を別に示す。部位と名称との組合せで正しいのはどれか。2つ選べ。",④ −−− 床縁
1249,6,1,2,"52歳の男性。上顎右側第一大臼歯部歯肉の異常を訴えて来院した。2か月前に異常に気づき徐々に大きくなってきたという。口腔内写真を別に示す。主訴に対して考えられる検査はどれか。2つ選べ。",細胞診
1250,7,1,3,"52歳の男性。上顎右側第一大臼歯部歯肉の異常を訴えて来院した。2か月前に異常に気づき徐々に大きくなってきたという。口腔内写真を別に示す。主訴に対して考えられる検査はどれか。2つ選べ。",細胞診
1251,6,2,3,"52歳の男性。上顎右側第一大臼歯部歯肉の異常を訴えて来院した。2か月前に異常に気づき徐々に大きくなってきたという。口腔内写真を別に示す。主訴に対して考えられる検査はどれか。2つ選べ。",細胞診
1252,7,2,2,"52歳の男性。上顎右側第一大臼歯部歯肉の異常を訴えて来院した。2か月前に異常に気づき徐々に大きくなってきたという。口腔内写真を別に示す。主訴に対して考えられる検査はどれか。2つ選べ。",細胞診
1253,7,1,1,"52歳の男性。上顎右側第一大臼歯部歯肉の異常を訴えて来院した。2か月前に異常に気づき徐々に大きくなってきたという。口腔内写真を別に示す。主訴に対して考えられる検査はどれか。2つ選べ。",エックス線検査
1254,7,2,1,"中枢性顔面神経麻痺で運動可能な部位はどれか。",前額部
1255,7,2,2,"器具の写真を別に示す。使用目的はどれか。",アーチワイヤーの着脱
1256,7,2,2,"発育期の分類とその特徴との組合せで正しいのはどれか。2つ選べ。",思春期 −−− 第二次性徴
1257,7,2,2,"唇顎口蓋裂児にみられる特徴はどれか。2つ選べ。",上顎劣成長
1258,7,2,4,"小児の粘膜疾患とその原因との組合せで正しいのはどれか。",コプリック斑 −−−− 麻疹ウイルス
1259,7,2,4,"4歳の女児。下顎右側第一乳臼歯が保存不可能となり、局所麻酔下で抜歯を行った。抜歯後の注意として適切でないのはどれか。",よくうがいをさせる。
1260,7,2,4,"75歳の男性。右片麻痺と失語症がみられる。抗血栓薬を服用しているという。既往症として考えられるのはどれか。",脳梗塞
1261,7,3,5,"77歳の男性。10か月前に脳出血を発症した。摂食・嚥下障害がみられた。患者の口腔内写真を示す。障害されている摂食・嚥下の過程はどれか。",準備期
1262,7,2,4,"88歳の女性。歯科訪問診療の依頼を受けた。食後、ブラッシングのため洗面台に向かっている写真を別に示す。障害高齢者日常生活自立度の判定基準のランクとして考えられるのはどれか。2つ選べ。",ランクJ
1263,7,3,3,"88歳の女性。歯科訪問診療の依頼を受けた。食後、ブラッシングのため洗面台に向かっている写真を別に示す。障害高齢者日常生活自立度の判定基準のランクとして考えられるのはどれか。2つ選べ。",ランクA
1264,7,3,2,"90歳の男性。無歯顎で全部床義歯を使用している。片麻痺があり、ペースメーカーを装着している。食後、食渣の滞留と舌苔とを認める。口腔ケアに用いられないのはどれか。",音波ブラシ
1265,7,3,3,"歯の付着物・沈着物と構成成分との組合せで正しいのはどれか。2つ選べ。",白質 −−−−− ?離上皮
1266,7,3,4,"歯の付着物・沈着物と構成成分との組合せで正しいのはどれか。2つ選べ。",色素沈着 −−− 有機性薄膜
1267,8,4,2,"エックス線写真を別に示す。観察できるのはどれか。2つ選べ。 ",骨吸収
1268,8,4,2,"エックス線写真を別に示す。観察できるのはどれか。2つ選べ。 ",歯石沈着
1269,8,2,1,"スケーリング時の脳貧血の予防で適切なのはどれか。2つ選べ。
 ",疼痛管理
1270,8,3,2,"スケーリング時の脳貧血の予防で適切なのはどれか。2つ選べ。
 ",処置内容の説明と理解
1271,8,2,1,"歯周病のスクリーニングに用いられる唾液検査はどれか。",潜血反応
1272,8,3,3,"ファーケーションプローブで検査するのはどれか。",根分岐部病変
1273,8,1,1,"スケーリングの術式で、施術部の消毒後の適切な手順はどれか。",口腔内観察 → 歯石除去 → 歯面研磨
1274,8,3,3,"歯の動揺度検査の写真を別に示す。正しいのはどれか。",④
1275,8,2,1,"グレーシータイプキュレット♯11/12を操作している写真を別に示す。操作で正しいのはどれか。",②
1276,8,2,1,"歯頸部の外来性色素沈着物を除去するための歯面研磨で正しいのはどれか。",各種研磨剤を使い分ける。
1277,6,7,2,"歯頸部の外来性色素沈着物を除去するための歯面研磨で正しいのはどれか。",各種研磨剤を使い分ける。
1278,8,6,3,"う蝕の第一次予防に用いるフッ化物はどれか。",モノフルオロリン酸ナトリウム
1279,8,2,1,"う蝕活動性試験の結果、唾液中のLactobacilliが多いと判定された。考えられるのはどれか。2つ選べ。",う窩がある。
1280,8,5,1,"う蝕活動性試験の結果、唾液中のLactobacilliが多いと判定された。考えられるのはどれか。2つ選べ。",う窩がある。
1281,8,5,3,"う蝕活動性試験の結果、唾液中のLactobacilliが多いと判定された。考えられるのはどれか。2つ選べ。",間食の摂取回数が多い。
1282,9,1,6,"フッ化物歯面塗布法でないのはどれか。",スプレー法
1283,9,5,2,"使用するフッ化物洗口液のフッ素イオン濃度はどれか。",250ppm
1284,9,1,4,"使用するフッ化物洗口液のフッ素イオン濃度はどれか。",250ppm
1285,9,5,2,"（前問題と同じ設定）職員への説明内容で正しいのはどれか。2つ選べ。",洗口後30分間は飲食やうがいを控えてください。
1286,6,1,4,"（前問題と同じ設定）職員への説明内容で正しいのはどれか。2つ選べ。",洗口液を1回量誤って飲んだとしても急性中毒の心配はありません。
1287,9,3,7,"プライマリーヘルスケアに該当するのはどれか。2つ選べ。",感染症のコントロール
1288,9,3,7,"医療面接の際に注意すべきことはどれか。2つ選べ。",話を最後までよく聴く。
1289,9,2,3,"45歳の男性。口臭を訴えて来院した。歯科衛生士との会話を下に示す。歯科衛生士：①<u>どんなことが気になって来院されましたか。</u>
  患者：口臭があると家族に言われました。自分ではあまり感じないのですが・・・。
  歯科衛生士：②<u>何か思い当たる原因はありますか。</u>
  患者：ここのところ忙しくて、睡眠も十分に取れていません。
  歯科衛生士：<u>③歯磨きをする時間はありますか。</u>
  患者：十分とは言えませんね。
  歯科衛生士<u>：④朝、口臭があると言われますか。</u>
  患者：そうですね。
 「開かれた質問」はどれか。2つ選べ。",①
1290,9,3,6,"45歳の男性。口臭を訴えて来院した。歯科衛生士との会話を下に示す。歯科衛生士：①<u>どんなことが気になって来院されましたか。</u>
  患者：口臭があると家族に言われました。自分ではあまり感じないのですが・・・。
  歯科衛生士：②<u>何か思い当たる原因はありますか。</u>
  患者：ここのところ忙しくて、睡眠も十分に取れていません。
  歯科衛生士：<u>③歯磨きをする時間はありますか。</u>
  患者：十分とは言えませんね。
  歯科衛生士<u>：④朝、口臭があると言われますか。</u>
  患者：そうですね。
 「開かれた質問」はどれか。2つ選べ。",②
1291,6,1,2,"「健康な高齢者の老化による物忘れ」と「認知症の高齢者の物忘れ」との特徴を比較した表を示す。正しいのはどれか。2つ選べ。",③
1292,9,4,1,"「健康な高齢者の老化による物忘れ」と「認知症の高齢者の物忘れ」との特徴を比較した表を示す。正しいのはどれか。2つ選べ。",③
1293,4,9,4,"Keyesの輪を図に示す。う蝕のリスクとして、①は唾液緩衝能、②はスクロースが該当する。③はどれか。",細菌叢
1294,9,4,3,"　唇面に古いプラークが最も多く観察されるのはどれか。",上顎左側側切歯
1295,9,4,2,"(前問題と同じ設定)この女児へ指導する適切な口腔清掃法はどれか。2つ選べ。",スクラビング法
1296,9,5,2,"(前問題と同じ設定)この女児へ指導する適切な口腔清掃法はどれか。2つ選べ。",1歯ずつの縦磨き法
1297,9,1,3,"　ガスクロマトグラフィー検査で認知閾値を超えて検出されたと考えられるのはどれか。2つ選べ。",硫化水素
1298,9,7,1,"　ガスクロマトグラフィー検査で認知閾値を超えて検出されたと考えられるのはどれか。2つ選べ。",メチルメルカプタン
1299,9,6,1,"(前問題と同じ設定)歯科医師から、口臭改善のための歯科保健指導を指示された。ブラッシング指導に加えて行う指導で適切なのはどれか。2つ選べ。<br /><br /><br />
 <br /><br />
<br /><br />
<br />
<br />",舌ブラシによる舌清掃を指導する。
1300,9,1,6,"(前問題と同じ設定)歯科医師から、口臭改善のための歯科保健指導を指示された。ブラッシング指導に加えて行う指導で適切なのはどれか。2つ選べ。<br /><br /><br />
 <br /><br />
<br /><br />
<br />
<br />",専門家による機械的歯面清掃を勧める。
1301,5,1,6,"70歳の女性。肺癌で入院加療中である。意識障害があり、常時口呼吸をしている。本人による口腔清掃は困難な状態であり、1日1回の口腔清掃を受けている。口腔周囲の写真を別に示す。歯科衛生士による口腔ケアで適切なのはどれか。2つ選べ。",口唇部を保湿してから行う。
