x_1,x_2,x_3,x_4,y_output
0.184000,0.081000,0.043000,0.630000,0.716260
0.133000,0.077000,0.000000,0.680000,0.697780
0.170000,0.095000,0.000000,0.900000,0.637980
0.219000,0.097000,0.007000,0.870000,0.709490
0.128000,0.091000,0.000000,0.750000,0.765720
0.202000,0.073000,0.083000,0.620000,0.719180
0.201000,0.118000,0.005000,0.930000,0.761250
0.229000,0.115000,0.044000,0.660000,0.710080
0.235000,0.109000,0.075000,0.620000,0.639560
0.239000,0.122000,0.042000,0.630000,0.608600
0.171000,0.074000,0.062000,0.490000,0.719740
0.151000,0.051000,0.114000,0.440000,0.752940
0.190000,0.106000,0.007000,0.770000,0.744260
0.176000,0.131000,0.000000,0.960000,0.736480
0.214000,0.110000,0.121000,0.310000,0.710720
0.209000,0.101000,0.039000,0.450000,0.651290
0.231000,0.166000,0.030000,0.740000,0.622430
0.268000,0.138000,0.069000,0.640000,0.693460
0.219000,0.120000,0.116000,0.570000,0.698860
0.193000,0.098000,0.114000,0.550000,0.703740
0.202000,0.133000,0.000000,0.760000,0.724670
0.237000,0.132000,0.085000,0.750000,0.716500
0.224000,0.140000,0.021000,0.730000,0.656480
0.191000,0.121000,0.012000,0.690000,0.617220
0.231000,0.135000,0.087000,0.550000,0.693370
0.251000,0.142000,0.109000,0.660000,0.726820
0.218000,0.152000,0.003000,0.760000,0.721220
0.154000,0.133000,0.000000,0.990000,0.723320
0.214000,0.114000,0.094000,0.450000,0.639480
0.217000,0.105000,0.110000,0.480000,0.617860
0.250000,0.119000,0.090000,0.620000,0.582820
0.214000,0.132000,0.035000,0.730000,0.634740
0.247000,0.171000,0.060000,0.730000,0.589830
0.270000,0.187000,0.092000,0.550000,0.586900
0.274000,0.171000,0.123000,0.370000,0.589300
0.225000,0.152000,0.001000,0.650000,0.657180
0.264000,0.154000,0.115000,0.610000,0.651330
0.270000,0.172000,0.119000,0.400000,0.606120
0.218000,0.162000,0.000000,0.800000,0.695540
0.226000,0.161000,0.001000,0.910000,0.724010
0.271000,0.160000,0.017000,0.810000,0.732170
0.280000,0.175000,0.131000,0.530000,0.731950
0.265000,0.165000,0.111000,0.620000,0.737830
0.248000,0.144000,0.089000,0.600000,0.660580
0.237000,0.125000,0.125000,0.630000,0.613560
0.233000,0.142000,0.018000,0.690000,0.706470
0.205000,0.149000,0.000000,0.950000,0.733430
0.276000,0.131000,0.134000,0.510000,0.722310
0.251000,0.148000,0.116000,0.490000,0.719370
0.208000,0.144000,0.017000,0.630000,0.709760
0.263000,0.128000,0.121000,0.630000,0.657510
0.293000,0.169000,0.131000,0.480000,0.628390
0.309000,0.151000,0.125000,0.450000,0.745170
0.293000,0.180000,0.087000,0.530000,0.782880
0.245000,0.205000,0.000000,0.700000,0.761920
0.272000,0.203000,0.036000,0.740000,0.766180
0.224000,0.152000,0.003000,0.900000,0.730330
0.241000,0.151000,0.002000,0.800000,0.644560
0.279000,0.161000,0.104000,0.710000,0.609870
0.213000,0.154000,0.000000,0.920000,0.695160
0.249000,0.163000,0.046000,0.790000,0.711960
0.264000,0.180000,0.057000,0.530000,0.708250
0.260000,0.163000,0.130000,0.330000,0.703040
0.242000,0.142000,0.127000,0.490000,0.702140
0.272000,0.163000,0.080000,0.630000,0.653440
0.234000,0.164000,0.028000,0.780000,0.597850
0.239000,0.163000,0.005000,0.760000,0.696780
0.209000,0.184000,0.000000,0.830000,0.720710
0.273000,0.165000,0.057000,0.720000,0.735390
0.237000,0.196000,0.000000,0.970000,0.745550
0.288000,0.194000,0.102000,0.700000,0.756440
0.291000,0.179000,0.107000,0.650000,0.680340
0.283000,0.204000,0.064000,0.700000,0.645720
0.227000,0.183000,0.000000,0.980000,0.723500
0.262000,0.184000,0.052000,0.700000,0.737590
0.222000,0.196000,0.000000,0.810000,0.728610
0.244000,0.197000,0.000000,0.830000,0.742500
0.292000,0.194000,0.082000,0.800000,0.779000
0.330000,0.211000,0.133000,0.500000,0.720690
0.293000,0.214000,0.042000,0.710000,0.661440
0.288000,0.204000,0.059000,0.820000,0.796640
0.257000,0.212000,0.025000,0.880000,0.789330
0.239000,0.211000,0.000000,0.880000,0.771680
0.269000,0.214000,0.033000,0.000000,0.780290
0.253000,0.209000,0.000000,0.840000,0.760650
0.287000,0.219000,0.000000,0.790000,0.716710
0.300000,0.215000,0.098000,0.610000,0.671880
0.289000,0.209000,0.104000,0.660000,0.774760
0.228000,0.171000,0.000000,0.950000,0.748060
0.242000,0.191000,0.000000,0.870000,0.748630
0.271000,0.201000,0.006000,0.890000,0.759090
0.306000,0.220000,0.044000,0.830000,0.806220
0.318000,0.234000,0.069000,0.790000,0.764170
0.354000,0.246000,0.076000,0.710000,0.784750
0.338000,0.236000,0.071000,0.750000,0.898120
0.256000,0.202000,0.000000,0.810000,0.782130
0.269000,0.205000,0.041000,0.840000,0.781250
0.367000,0.219000,0.128000,0.730000,0.880510
0.298000,0.221000,0.021000,0.770000,0.826390
0.249000,0.203000,0.000000,0.950000,0.699210
0.313000,0.202000,0.117000,0.790000,0.716670
0.335000,0.223000,0.125000,0.680000,0.875640
0.318000,0.246000,0.063000,0.770000,0.880430
0.276000,0.235000,0.000000,0.940000,0.858860
0.329000,0.213000,0.039000,0.880000,0.888950
0.240000,0.210000,0.000000,0.940000,0.794150
0.277000,0.201000,0.016000,0.790000,0.704770
0.288000,0.236000,0.001000,0.860000,0.704170
0.335000,0.250000,0.075000,0.760000,0.811840
0.323000,0.237000,0.062000,0.770000,0.899680
0.299000,0.233000,0.046000,0.760000,0.866840
0.243000,0.209000,0.000000,0.960000,0.788460
0.227000,0.204000,0.000000,0.860000,0.751580
0.271000,0.198000,0.014000,0.700000,0.668370
0.290000,0.190000,0.073000,0.730000,0.652810
0.279000,0.211000,0.008000,0.770000,0.768650
0.274000,0.214000,0.001000,0.860000,0.778430
0.273000,0.224000,0.003000,0.840000,0.779760
0.311000,0.233000,0.052000,0.780000,0.834080
0.324000,0.229000,0.115000,0.730000,0.860120
0.329000,0.221000,0.108000,0.740000,0.796280
0.308000,0.244000,0.069000,0.760000,0.756480
0.315000,0.246000,0.019000,0.790000,0.874340
0.294000,0.225000,0.017000,0.890000,0.877930
0.320000,0.234000,0.041000,0.840000,0.887850
0.330000,0.244000,0.085000,0.780000,0.923120
0.334000,0.246000,0.108000,0.760000,0.944040
0.342000,0.258000,0.088000,0.760000,0.882540
0.336000,0.245000,0.112000,0.700000,0.815280
0.332000,0.253000,0.046000,0.680000,0.909670
0.377000,0.257000,0.081000,0.520000,0.991970
0.340000,0.260000,0.049000,0.660000,0.942960
0.321000,0.252000,0.049000,0.650000,0.798060
0.319000,0.242000,0.055000,0.700000,0.804390
0.318000,0.233000,0.072000,0.680000,0.729340
0.304000,0.235000,0.038000,0.680000,0.678360
0.308000,0.244000,0.007000,0.770000,0.731160
0.331000,0.237000,0.021000,0.830000,0.782160
0.343000,0.230000,0.100000,0.790000,0.865800
0.316000,0.252000,0.011000,0.920000,0.860610
0.323000,0.250000,0.069000,0.810000,0.869330
0.300000,0.241000,0.016000,0.940000,0.778070
0.335000,0.235000,0.079000,0.830000,0.777580
0.283000,0.232000,0.000000,0.960000,0.840690
0.304000,0.242000,0.017000,0.860000,0.874290
0.312000,0.235000,0.019000,0.830000,0.870150
0.327000,0.235000,0.119000,0.760000,0.916170
0.328000,0.240000,0.102000,0.760000,0.923230
0.270000,0.216000,0.000000,0.870000,0.745960
0.246000,0.213000,0.000000,0.870000,0.655970
0.301000,0.221000,0.026000,0.920000,0.817130
0.281000,0.225000,0.006000,0.880000,0.816890
0.311000,0.225000,0.113000,0.620000,0.817450
0.325000,0.220000,0.101000,0.680000,0.848120
0.298000,0.230000,0.049000,0.760000,0.861850
0.325000,0.246000,0.074000,0.770000,0.796810
0.319000,0.240000,0.045000,0.840000,0.743880
0.330000,0.248000,0.096000,0.760000,0.900020
0.324000,0.259000,0.096000,0.740000,0.936880
0.303000,0.254000,0.023000,0.850000,0.899800
0.304000,0.247000,0.013000,0.920000,0.877020
0.325000,0.226000,0.053000,0.790000,0.880210
0.312000,0.233000,0.041000,0.730000,0.783660
0.251000,0.208000,0.002000,0.880000,0.681880
0.277000,0.225000,0.003000,0.810000,0.787960
0.239000,0.214000,0.000000,0.970000,0.787940
0.266000,0.206000,0.003000,0.890000,0.777900
0.264000,0.222000,0.001000,0.880000,0.813740
0.244000,0.219000,0.000000,0.930000,0.784570
0.294000,0.216000,0.053000,0.850000,0.747160
0.269000,0.222000,0.000000,0.890000,0.686330
0.229000,0.192000,0.000000,0.960000,0.699720
0.201000,0.176000,0.000000,1.000000,0.746150
0.232000,0.176000,0.001000,0.860000,0.732700
0.209000,0.181000,0.000000,0.980000,0.708810
0.221000,0.194000,0.000000,1.000000,0.752880
0.239000,0.208000,0.000000,0.980000,0.699270
0.284000,0.203000,0.034000,0.890000,0.665220
0.301000,0.219000,0.031000,0.870000,0.800300
0.298000,0.228000,0.023000,0.890000,0.840950
0.306000,0.240000,0.021000,0.860000,0.856380
0.279000,0.217000,0.007000,0.870000,0.822230
0.247000,0.188000,0.024000,0.660000,0.739500
0.218000,0.176000,0.000000,0.880000,0.674590
0.276000,0.186000,0.091000,0.780000,0.659880
0.265000,0.201000,0.000000,0.940000,0.768470
0.320000,0.197000,0.062000,0.750000,0.808750
0.264000,0.215000,0.007000,0.820000,0.779830
0.313000,0.214000,0.083000,0.600000,0.813250
0.249000,0.190000,0.058000,0.530000,0.734370
0.253000,0.182000,0.002000,0.860000,0.681370
0.257000,0.186000,0.000000,0.740000,0.643760
0.196000,0.174000,0.000000,0.620000,0.634900
0.201000,0.162000,0.002000,0.690000,0.694080
0.232000,0.137000,0.082000,0.660000,0.704390
0.182000,0.153000,0.000000,0.670000,0.713020
0.195000,0.126000,0.040000,0.630000,0.704220
0.227000,0.118000,0.108000,0.640000,0.650390
0.229000,0.127000,0.052000,0.700000,0.610060
0.195000,0.157000,0.000000,0.950000,0.711790
0.263000,0.167000,0.059000,0.860000,0.736200
0.239000,0.184000,0.019000,0.790000,0.733290
0.277000,0.170000,0.100000,0.620000,0.738710
0.214000,0.154000,0.049000,0.580000,0.708180
0.183000,0.147000,0.001000,0.710000,0.656350
0.223000,0.147000,0.048000,0.680000,0.608890
0.191000,0.119000,0.098000,0.530000,0.687120
0.172000,0.100000,0.024000,0.730000,0.721430
0.257000,0.126000,0.096000,0.820000,0.720580
0.233000,0.132000,0.076000,0.500000,0.710410
0.148000,0.101000,0.000000,0.780000,0.740090
0.208000,0.116000,0.000000,0.720000,0.668430
0.135000,0.096000,0.000000,0.710000,0.650080
0.191000,0.098000,0.039000,0.680000,0.712900
0.164000,0.117000,0.033000,0.820000,0.741530
0.122000,0.086000,0.000000,0.680000,0.771020
0.194000,0.084000,0.095000,0.650000,0.701470
0.188000,0.085000,0.092000,0.520000,0.727000
0.195000,0.112000,0.068000,0.660000,0.676160
0.208000,0.099000,0.095000,0.580000,0.627740
0.144000,0.082000,0.084000,0.610000,0.739880
0.136000,0.061000,0.018000,0.760000,0.778000
0.146000,0.079000,0.060000,0.490000,0.792420
0.130000,0.076000,0.005000,0.530000,0.826220
0.121000,0.057000,0.000000,0.970000,0.839720
0.188000,0.100000,0.063000,0.830000,0.700710
0.186000,0.091000,0.076000,0.820000,0.650600
0.167000,0.115000,0.000000,0.860000,0.753670
0.193000,0.127000,0.016000,0.830000,0.751700
0.148000,0.107000,0.006000,0.520000,0.773130
0.183000,0.078000,0.081000,0.590000,0.762670
0.157000,0.061000,0.090000,0.620000,0.771980
0.120000,0.079000,0.000000,0.920000,0.754160
0.204000,0.089000,0.069000,0.890000,0.660160
0.147000,0.102000,0.000000,0.880000,0.775260
0.193000,0.103000,0.067000,0.890000,0.756990
0.147000,0.085000,0.001000,0.550000,0.764880
0.086000,0.009000,0.000000,0.910000,0.947800
0.108000,0.003000,0.093000,0.760000,0.896970
0.131000,0.032000,0.065000,0.720000,0.792310
0.138000,0.086000,0.005000,0.820000,0.721610
0.140000,0.094000,0.033000,0.660000,0.808110
0.143000,0.075000,0.057000,0.460000,0.828410
0.118000,0.048000,0.049000,0.570000,0.843290
0.165000,0.059000,0.031000,0.880000,0.830270
0.155000,0.087000,0.085000,0.490000,0.799530
0.159000,0.057000,0.067000,0.560000,0.741970
0.160000,0.073000,0.072000,0.720000,0.687160
0.183000,0.081000,0.076000,0.800000,0.760760
0.171000,0.070000,0.085000,0.590000,0.799280
0.112000,0.049000,0.015000,0.560000,0.856720
0.139000,0.030000,0.086000,0.560000,0.846910
0.174000,0.038000,0.089000,0.560000,0.819400
0.122000,0.056000,0.087000,0.440000,0.779290
0.109000,0.035000,0.088000,0.420000,0.758420
0.105000,0.026000,0.075000,0.470000,0.872660
0.153000,0.034000,0.025000,0.640000,0.863330
0.113000,0.053000,0.003000,0.750000,0.874520
0.101000,0.031000,0.069000,0.410000,0.893450
0.098000,0.015000,0.086000,0.460000,0.921840
0.131000,0.000000,0.090000,0.490000,0.836020
0.149000,0.032000,0.076000,0.600000,0.759570
0.157000,0.047000,0.083000,0.590000,0.832770
0.145000,0.059000,0.035000,0.660000,0.841860
0.170000,0.052000,0.078000,0.740000,0.823570
0.202000,0.066000,0.025000,0.800000,0.819650
0.196000,0.085000,0.043000,0.660000,0.734280
0.119000,0.054000,0.085000,0.460000,0.755070
0.105000,0.045000,0.047000,0.570000,0.743690
0.110000,0.038000,0.013000,0.620000,0.863340
0.188000,0.055000,0.002000,0.830000,0.827370
0.094000,0.020000,0.090000,0.440000,0.810630
0.080000,0.007000,0.052000,0.570000,0.781900
0.102000,0.026000,0.090000,0.430000,0.719730
0.118000,0.015000,0.089000,0.530000,0.678550
0.138000,0.020000,0.089000,0.590000,0.622340
0.133000,0.038000,0.065000,0.650000,0.635920
0.137000,0.035000,0.082000,0.540000,0.652430
0.140000,0.036000,0.087000,0.480000,0.716440
0.104000,0.037000,0.090000,0.390000,0.819380
0.088000,0.015000,0.088000,0.480000,0.888360
0.087000,0.001000,0.087000,0.550000,0.853180
0.060000,0.016000,0.000000,0.760000,0.837250
0.111000,0.038000,0.022000,0.850000,0.817430
0.127000,0.035000,0.089000,0.610000,0.866210
0.110000,0.039000,0.090000,0.460000,0.883570
0.121000,0.007000,0.082000,0.490000,0.901310
0.127000,0.014000,0.067000,0.530000,0.900850
0.063000,-0.013000,0.032000,0.520000,0.903380
0.047000,-0.023000,0.081000,0.490000,0.880080
0.080000,-0.020000,0.093000,0.450000,0.972780
0.109000,0.007000,0.091000,0.560000,0.940440
0.103000,0.011000,0.091000,0.570000,0.930590
0.109000,0.024000,0.056000,0.470000,0.931160
0.038000,0.022000,0.000000,0.640000,1.003740
0.110000,0.012000,0.094000,0.520000,0.861440
0.129000,0.009000,0.093000,0.500000,0.788530
0.079000,0.002000,0.069000,0.350000,0.942020
0.077000,-0.019000,0.094000,0.350000,0.985120
0.095000,-0.012000,0.096000,0.360000,0.971410
0.107000,-0.014000,0.095000,0.480000,0.947480
0.160000,0.014000,0.052000,0.530000,0.907920
0.136000,0.046000,0.091000,0.500000,0.800790
0.120000,0.048000,0.029000,0.640000,0.749840
0.195000,0.067000,0.079000,0.620000,0.809870
0.100000,0.028000,0.093000,0.370000,0.884260
0.106000,0.022000,0.072000,0.420000,0.889850
0.097000,0.009000,0.096000,0.330000,0.924520
0.137000,0.010000,0.096000,0.360000,0.894580
0.134000,0.044000,0.096000,0.430000,0.802330
0.099000,0.034000,0.025000,0.570000,0.782120
0.157000,0.033000,0.061000,0.510000,0.853710
0.100000,0.022000,0.095000,0.330000,0.910630
0.110000,0.019000,0.095000,0.330000,0.905450
0.054000,0.010000,0.000000,0.870000,0.990640
0.093000,0.015000,0.040000,0.620000,0.947740
0.101000,-0.016000,0.073000,0.370000,0.852960
0.112000,-0.004000,0.095000,0.420000,0.803890
0.118000,0.010000,0.080000,0.350000,0.901500
0.118000,0.021000,0.089000,0.360000,0.913150
0.128000,0.012000,0.099000,0.390000,0.895630
0.137000,0.013000,0.099000,0.550000,0.872720
0.206000,0.048000,0.082000,0.600000,0.809470
0.107000,0.064000,0.029000,0.430000,0.786560
0.115000,0.016000,0.096000,0.480000,0.751040
0.197000,0.018000,0.056000,0.600000,0.828950
0.099000,0.036000,0.097000,0.370000,0.878930
0.106000,0.011000,0.043000,0.540000,0.891330
0.163000,0.084000,0.015000,0.690000,0.833490
0.113000,0.052000,0.035000,0.340000,0.854970
0.127000,0.035000,0.081000,0.560000,0.777740
0.142000,0.033000,0.084000,0.530000,0.716240
0.097000,0.043000,0.020000,0.630000,0.854730
0.101000,0.032000,0.088000,0.600000,0.868330
0.111000,0.014000,0.056000,0.730000,0.865830
0.087000,0.054000,0.000000,0.950000,0.883400
0.160000,0.037000,0.083000,0.580000,0.835200
0.146000,0.030000,0.061000,0.540000,0.767910
0.159000,0.049000,0.083000,0.620000,0.698470
0.115000,0.076000,0.011000,0.840000,0.824900
0.109000,0.023000,0.027000,0.540000,0.876530
0.118000,0.000000,0.081000,0.490000,0.876400
0.130000,0.013000,0.111000,0.440000,0.851940
0.148000,0.032000,0.103000,0.410000,0.833600
0.132000,0.043000,0.081000,0.460000,0.772200
0.122000,0.031000,0.103000,0.520000,0.724400
0.128000,0.060000,0.005000,0.710000,0.835670
0.110000,0.064000,0.000000,0.860000,0.862290
0.075000,0.040000,0.000000,0.760000,0.900740
0.155000,0.019000,0.091000,0.550000,0.845250
0.152000,0.038000,0.090000,0.390000,0.826050
0.162000,0.036000,0.091000,0.440000,0.743630
0.186000,0.051000,0.089000,0.410000,0.677260
0.187000,0.070000,0.098000,0.380000,0.698690
0.129000,0.068000,0.000000,0.930000,0.827300
0.150000,0.057000,0.113000,0.440000,0.807400
0.157000,0.043000,0.057000,0.450000,0.814690
0.139000,0.046000,0.059000,0.410000,0.816290
0.127000,0.034000,0.111000,0.450000,0.760450
0.081000,0.048000,0.000000,0.910000,0.769060
0.083000,0.024000,0.015000,0.910000,0.897720
0.149000,0.032000,0.091000,0.610000,0.848220
0.147000,0.043000,0.084000,0.680000,0.814110
0.178000,0.063000,0.102000,0.610000,0.773440
0.123000,0.049000,0.007000,0.620000,0.818400
0.089000,0.046000,0.000000,0.800000,0.793820
0.142000,0.046000,0.089000,0.590000,0.700680
0.161000,0.064000,0.073000,0.630000,0.776430
0.173000,0.045000,0.120000,0.630000,0.772270
0.207000,0.077000,0.094000,0.640000,0.740600
0.212000,0.129000,0.072000,0.680000,0.727480
0.216000,0.155000,0.028000,0.830000,0.724360
0.177000,0.126000,0.000000,0.960000,0.676900
0.152000,0.111000,0.000000,0.930000,0.645200
0.157000,0.069000,0.065000,0.490000,0.735180
0.107000,0.064000,0.000000,0.900000,0.839350
0.216000,0.083000,0.097000,0.580000,0.744900
0.176000,0.067000,0.091000,0.510000,0.747130
0.215000,0.074000,0.117000,0.510000,0.728690
0.242000,0.142000,0.082000,0.570000,0.656580
0.261000,0.120000,0.119000,0.570000,0.613530
0.261000,0.138000,0.038000,0.650000,0.697190
0.257000,0.141000,0.051000,0.750000,0.721540
0.261000,0.127000,0.118000,0.500000,0.712170
0.211000,0.109000,0.090000,0.470000,0.709730
0.192000,0.130000,0.001000,0.730000,0.710580
0.184000,0.097000,0.001000,0.740000,0.662020
0.203000,0.088000,0.105000,0.600000,0.619990
0.196000,0.101000,0.070000,0.610000,0.701350
0.210000,0.120000,0.095000,0.630000,0.712050
0.194000,0.139000,0.000000,0.700000,0.714090
0.194000,0.121000,0.050000,0.730000,0.710050
0.216000,0.115000,0.095000,0.580000,0.694190
0.234000,0.102000,0.104000,0.630000,0.626690
0.243000,0.107000,0.123000,0.600000,0.592420
0.260000,0.136000,0.076000,0.610000,0.657330
0.233000,0.113000,0.124000,0.410000,0.641960
0.224000,0.123000,0.095000,0.620000,0.580810
0.233000,0.150000,0.099000,0.660000,0.567860
0.256000,0.146000,0.114000,0.710000,0.570240
0.282000,0.153000,0.124000,0.750000,0.592060
0.243000,0.138000,0.036000,0.710000,0.585630
0.278000,0.136000,0.123000,0.570000,0.686470
0.219000,0.163000,0.002000,0.570000,0.695780
0.179000,0.151000,0.000000,0.950000,0.709200
0.274000,0.148000,0.094000,0.700000,0.723740
0.283000,0.172000,0.078000,0.750000,0.730740
0.201000,0.161000,0.000000,0.950000,0.664100
0.204000,0.153000,0.007000,0.790000,0.597510
0.226000,0.154000,0.011000,0.840000,0.690920
0.234000,0.164000,0.046000,0.710000,0.701550
0.197000,0.148000,0.002000,0.690000,0.697900
0.236000,0.145000,0.054000,0.820000,0.706070
0.263000,0.146000,0.124000,0.740000,0.711910
0.287000,0.155000,0.131000,0.680000,0.665830
0.309000,0.176000,0.121000,0.640000,0.643250
0.290000,0.182000,0.129000,0.660000,0.741870
0.274000,0.190000,0.124000,0.650000,0.746340
0.262000,0.192000,0.027000,0.720000,0.734400
0.240000,0.180000,0.004000,0.850000,0.732810
0.208000,0.173000,0.000000,0.920000,0.721590
0.273000,0.180000,0.070000,0.760000,0.653740
0.267000,0.179000,0.066000,0.670000,0.613120
0.269000,0.170000,0.120000,0.710000,0.712530
0.291000,0.172000,0.121000,0.700000,0.759270
0.275000,0.207000,0.047000,0.760000,0.763190
0.264000,0.193000,0.017000,0.910000,0.758450
0.291000,0.183000,0.106000,0.550000,0.744230
0.266000,0.160000,0.121000,0.440000,0.655420
0.267000,0.167000,0.072000,0.410000,0.607530
0.256000,0.153000,0.092000,0.600000,0.702020
0.242000,0.154000,0.044000,0.680000,0.713540
0.226000,0.179000,0.000000,0.740000,0.715100
0.258000,0.192000,0.049000,0.760000,0.734080
0.281000,0.206000,0.070000,0.690000,0.744390
0.306000,0.200000,0.083000,0.630000,0.696660
0.253000,0.191000,0.037000,0.550000,0.628630
0.263000,0.166000,0.050000,0.590000,0.708800
0.194000,0.148000,0.000000,0.920000,0.719040
0.246000,0.152000,0.036000,0.810000,0.718170
0.260000,0.174000,0.072000,0.740000,0.735180
0.290000,0.175000,0.097000,0.700000,0.756550
0.277000,0.179000,0.122000,0.600000,0.671180
0.225000,0.177000,0.000000,0.850000,0.620470
0.305000,0.173000,0.110000,0.630000,0.729140
0.280000,0.165000,0.112000,0.750000,0.764480
0.244000,0.198000,0.000000,0.900000,0.763930
0.279000,0.200000,0.046000,0.630000,0.766050
0.302000,0.191000,0.121000,0.690000,0.789430
0.290000,0.219000,0.072000,0.750000,0.720450
0.239000,0.215000,0.000000,0.950000,0.669290
0.259000,0.203000,0.021000,0.820000,0.760500
0.256000,0.213000,0.000000,0.870000,0.777460
0.250000,0.202000,0.000000,0.940000,0.774190
0.291000,0.199000,0.037000,0.800000,0.801380
0.257000,0.221000,0.001000,0.890000,0.787590
0.253000,0.221000,0.001000,0.900000,0.717330
0.320000,0.209000,0.031000,0.840000,0.716790
0.325000,0.245000,0.062000,0.750000,0.881380
0.299000,0.235000,0.001000,0.830000,0.875140
0.314000,0.216000,0.050000,0.820000,0.866430
0.307000,0.232000,0.068000,0.740000,0.859230
0.323000,0.230000,0.109000,0.740000,0.884130
0.337000,0.228000,0.126000,0.690000,0.834240
0.325000,0.230000,0.131000,0.780000,0.793090
0.321000,0.230000,0.135000,0.790000,0.911540
0.316000,0.248000,0.072000,0.780000,0.930440
0.331000,0.256000,0.103000,0.770000,0.959160
0.334000,0.260000,0.056000,0.780000,0.951960
0.324000,0.254000,0.121000,0.740000,0.940160
0.337000,0.236000,0.115000,0.740000,0.859550
0.349000,0.251000,0.066000,0.760000,0.833470
0.350000,0.253000,0.061000,0.660000,0.879880
0.327000,0.227000,0.035000,0.840000,0.902720
0.311000,0.229000,0.066000,0.790000,0.889770
0.323000,0.249000,0.077000,0.760000,0.936690
0.337000,0.258000,0.116000,0.730000,0.965030
0.325000,0.258000,0.097000,0.750000,0.875310
0.285000,0.262000,0.000000,0.790000,0.763990
0.329000,0.267000,0.023000,0.730000,0.914690
0.327000,0.270000,0.018000,0.760000,0.946990
0.282000,0.232000,0.000000,0.910000,0.846680
0.267000,0.225000,0.000000,0.810000,0.806960
0.323000,0.225000,0.035000,0.830000,0.875080
0.335000,0.237000,0.031000,0.850000,0.800270
0.292000,0.233000,0.001000,0.860000,0.723160
0.330000,0.232000,0.084000,0.780000,0.901830
0.310000,0.227000,0.000000,0.870000,0.883810
0.254000,0.209000,0.005000,0.820000,0.783680
0.289000,0.202000,0.007000,0.760000,0.798300
0.292000,0.220000,0.006000,0.860000,0.836110
0.319000,0.246000,0.029000,0.850000,0.827660
0.335000,0.263000,0.061000,0.820000,0.825330
0.332000,0.259000,0.050000,0.830000,0.955820
0.339000,0.269000,0.033000,0.800000,0.964220
0.371000,0.259000,0.085000,0.750000,1.003020
0.284000,0.224000,0.000000,0.850000,0.860360
0.248000,0.217000,0.000000,0.930000,0.720150
0.293000,0.210000,0.015000,0.890000,0.693800
0.312000,0.231000,0.035000,0.800000,0.698800
0.252000,0.234000,0.000000,0.940000,0.694010
0.263000,0.224000,0.000000,0.980000,0.677010
0.228000,0.211000,0.000000,0.990000,0.669040
0.282000,0.209000,0.002000,0.890000,0.733130
0.302000,0.240000,0.008000,0.870000,0.791770
0.303000,0.224000,0.022000,0.900000,0.770440
0.293000,0.224000,0.006000,0.860000,0.704510
0.315000,0.241000,0.037000,0.820000,0.849750
0.319000,0.244000,0.026000,0.840000,0.913900
0.337000,0.247000,0.056000,0.720000,0.961630
0.348000,0.264000,0.076000,0.690000,0.983260
0.349000,0.258000,0.037000,0.730000,0.998050
0.336000,0.261000,0.027000,0.750000,0.874090
0.306000,0.232000,0.048000,0.640000,0.743630
0.314000,0.223000,0.067000,0.740000,0.859220
0.322000,0.252000,0.053000,0.770000,0.944160
0.329000,0.241000,0.046000,0.830000,0.928050
0.242000,0.200000,0.000000,0.880000,0.784440
0.274000,0.173000,0.023000,0.710000,0.752360
0.245000,0.168000,0.049000,0.820000,0.660860
0.272000,0.164000,0.086000,0.760000,0.644370
0.225000,0.189000,0.000000,0.900000,0.723300
0.273000,0.188000,0.023000,0.840000,0.771500
0.228000,0.198000,0.000000,0.990000,0.767200
0.240000,0.202000,0.001000,0.990000,0.781790
0.282000,0.210000,0.051000,0.860000,0.795810
0.292000,0.215000,0.087000,0.740000,0.722330
0.299000,0.216000,0.078000,0.790000,0.702620
0.298000,0.228000,0.058000,0.780000,0.813270
0.270000,0.227000,0.003000,0.930000,0.829750
0.312000,0.221000,0.071000,0.700000,0.842560
0.310000,0.226000,0.065000,0.700000,0.836360
0.285000,0.199000,0.069000,0.570000,0.776890
0.229000,0.181000,0.000000,0.780000,0.680170
0.209000,0.179000,0.000000,1.000000,0.638600
0.333000,0.203000,0.093000,0.710000,0.756950
0.282000,0.213000,0.063000,0.670000,0.791400
0.257000,0.214000,0.000000,0.740000,0.769990
0.295000,0.196000,0.104000,0.540000,0.778340
0.261000,0.193000,0.014000,0.840000,0.761160
0.240000,0.177000,0.013000,0.850000,0.661610
0.263000,0.180000,0.040000,0.770000,0.640080
0.289000,0.196000,0.059000,0.750000,0.760100
0.282000,0.200000,0.077000,0.770000,0.781930
0.265000,0.210000,0.005000,0.770000,0.772580
0.247000,0.162000,0.001000,0.920000,0.746130
0.242000,0.160000,0.083000,0.750000,0.715090
0.242000,0.176000,0.028000,0.800000,0.653440
